Product,test_id,log2(fold_change)
putative aldehyde,SMA2213,-0.581883
probable FdoG formate dehydrogenase-O alpha subunit,SMa0002,0.953002
selenocysteine synthase,SMa0011,1.00925
SelB selenocysteine-specific elongation factor,SMa0015,1.14321
hypothetical protein,SMa0017,0.628061
tRNA-SeC(p)-TCA,SMa0022,2.46699
putative ABC transporter ATP-binding protein,SMa0036,-0.515396
hypothetical protein,SMa0044,0.575566
hypothetical protein,SMa0064,-0.584466
hypothetical protein,SMa0089,0.639631
putative D-alanine aminotransferase,SMa0093,0.862677
hypothetical protein,SMa0101,1.22762
"putative ABC transporter, periplasmic solute-binding protein",SMa0104,1.21525
putative ABC transporter permease protein,SMa0105,1.25545
putative ABC transporter ATP-binding protein,SMa0110,1.28516
putative cold shock protein,SMa0126,0.732737
putative fatty acid desaturase,SMa0130,0.984571
hypothetical protein,SMa0134,-1.06243
hypothetical protein,SMa0144,0.670602
hypothetical protein,SMa0146,0.734792
hypothetical protein,SMa0162,0.870566
hypothetical protein,SMa0166,0.916113
methyltransferase-like protein,SMa0168,0.845843
probable CspA5 cold shock protein transcriptional regulator,SMa0181,1.10865
possible transmembrane-transport protein,SMa0185,1.13876
short chain dehydrogenase,SMa0187,0.689348
"putative ABC transporter, permease",SMa0198,0.849239
putative ABC transporter ATP binding protein,SMa0199,0.967207
glutamate dehydrogenase,SMa0228,-0.933526
hypothetical protein,SMa0232,0.676284
hypothetical protein,SMa0244,1.23
putative GntR-family transcriptional regulator,SMa0246,1.21522
conserved hypothetical dedA-like protein,SMa0250,0.802999
hypothetical protein,SMa0252,1.14342
probable methylamine,SMa0257,-0.954169
GabD3 succinate-semialdehyde dehdyrogenase,SMa0260,-0.862226
putative alcohol,SMa0263,-1.35798
hypothetical protein,SMa0275,0.64668
hypothetical protein,SMa0277,0.902749
"putative regulator, MerR family",SMa0281,-0.638384
hypothetical protein,SMa0291,1.95017
hypothetical protein,SMa0292,1.71189
response regulator,SMa0293,1.62942
hypothetical protein,SMa0329,0.893807
putative LysR-type regulator,SMa0347,-0.842274
hypothetical protein,SMa0380,-1.15787
histidinol-phosphate aminotransferase,SMa0387,1.05608
"putative ABC transporter, ATP-binding protein",SMa0391,1.20793
hypothetical protein,SMa0439,2.33781
"putative ABC transporter, periplasmic solute-binding protein",SMa0466,0.682739
"putative ABC transporter, periplasmic solute-binding protein",SMa0495,0.570412
hypothetical protein,SMa0520,-0.783795
hypothetical protein,SMa0538,-0.590385
FixO3 cytochrome-c oxidase subunit,SMa0615,1.5218
hypothetical protein,SMa0620,1.05683
FixI2 E1-E2 type cation ATPase,SMa0621,0.855676
hypothetical protein,SMa0630,0.948132
hypothetical protein,SMa0631,1.05563
hypothetical protein,SMa0633,2.01442
hypothetical protein,SMa0636,1.94597
hypothetical protein,SMa0661,1.32279
hypothetical protein,SMa0667,1.53422
hypothetical protein,SMa0669,1.28336
probable regulatory protein,SMa0670,0.939924
"glutamate/aspartate transport protein, putative",SMa0677,0.814596
"amino acid (ornithine, lysine, arginine) decarboxylase, probable",SMa0680,0.948946
"decarboxylase, probable (lysine, ornithine, arginine)",SMa0682,1.4503
probable transport protein,SMa0684,1.15372
hypothetical protein,SMa0687,0.623475
hypothetical protein,SMa0689,0.675428
hypothetical protein,SMa0690,1.34772
arginine deiminase,SMa0693,1.60443
ArcB catabolic ornithine carbamoyl transferase,SMa0695,0.812414
carbamate kinase,SMa0697,0.646303
hypothetical protein,SMa0699,0.820648
putative calcium binding transcriptional regulatory protein,SMa0717,-0.982621
probable CspA6 cold shock protein transcriptional regulator,SMa0738,1.1701
probable LysR-family transcriptional activator,SMa0750,-0.975
FixT2 transcription regulator,SMa0760,2.63246
transcriptional regulator FixK,SMa0762,0.91397
hypothetical protein,SMa0763,1.17163
FixN2 cytochrome c oxidase polypeptide I,SMa0765,1.44903
FixO2 cytochrome c oxidase,SMa0766,1.16748
FixQ2 cbb3-type cytochrome oxidase,SMa0767,1.24738
FixP2 cytochrome c oxidase,SMa0769,1.2912
hypothetical protein with local similarity,SMa0791,-0.668045
NifB FeMo cofactor biosynthesis protein,SMa0814,0.957518
NifA transcriptional activator,SMa0815,1.09763
hypothetical protein,SMa0848,-0.766176
SyrM transcriptional regulator,SMa0849,0.693623
hypothetical protein,SMa0861,-0.690702
D-fructose-6-phosphate amidotransferase,SMa0878,-0.733173
hypothetical protein,SMa0883,-0.961849
hypothetical protein with local similarity,SMa0886,0.874712
hypothetical protein,SMa0921,0.67964
putative arylsulfatase,SMa0943,0.818897
hypothetical protein,SMa0964,0.918171
probable NtrR2 transcription regulator,SMa0981,0.612784
hypothetical protein,SMa0990,-0.991344
hypothetical protein,SMa1002,1.1865
hypothetical protein,SMa1005,0.904767
hypothetical protein,SMa1037,-0.64504
Putative copper-containing oxidase,SMa1038,-1.37252
"putative copper oxidase, possibly exported",SMa1041,-0.702774
hypothetical protein,SMa1043,-0.807698
Putative transcriptional regulator,SMa1067,0.568593
hypothetical protein,SMa1076,0.877292
TspO Tryptophan rich sensory protein homologue,SMa1079,1.74972
hypothetical protein,SMa1081,2.12934
hypothetical protein,SMa1082,1.92501
putative phosphoketolase,SMa1084,1.16706
hypothetical protein,SMa1086,1.88954
Putative cation transport P-type ATPase,SMa1087,1.18534
hypothetical protein,SMa1092,2.17791
hypothetical protein,SMa1093,1.44633
hypothetical protein,SMa1095,1.60364
hypothetical protein,SMa1100,2.76863
hypothetical protein,SMa1101,1.67599
probable HspC2 heat shock protein,SMa1118,1.45645
"ABC transporter, ATP binding protein, hypothetical",SMa1120,1.28183
hypothetical protein,SMa1122,1.47634
hypothetical protein,SMa1124,0.801292
hypothetical protein,SMa1126,1.70696
DegP4 protease like protein,SMa1128,2.08101
hypothetical protein,SMa1131,1.95953
hypothetical protein,SMa1132,2.35113
hypothetical protein,SMa1134,1.83253
hypothetical protein,SMa1136,1.7851
hypothetical protein,SMa1146,1.67721
hypothetical protein,SMa1147,2.17554
hypothetical protein,SMa1149,1.63024
hypothetical protein,SMa1151,2.88744
hypothetical protein,SMa1153,1.8275
hypothetical protein,SMa1154,1.31402
"Cation transport P-type ATPase, hypothetical",SMa1155,1.0093
probable alcohol,SMa1156,1.69736
hypothetical protein,SMa1158,2.13889
hypothetical protein,SMa1162,0.672483
Putative cation transport P-type ATPase,SMa1163,1.52975
Putative hydrolase protein,SMa1166,2.04123
hypothetical protein,SMa1168,1.73887
hypothetical protein,SMa1169,2.91787
putative CycB2 cytochrome c552,SMa1170,1.60671
hypothetical protein,SMa1171,0.897568
hypothetical protein,SMa1174,0.99123
hypothetical protein,SMa1176,2.13671
hypothetical protein,SMa1178,1.87903
NosR Regulatory protein for N2O reductase,SMa1179,1.99748
nitrous-oxide reductase precurser,SMa1182,0.652046
hypothetical protein,SMa1194,1.05196
hypothetical protein,SMa1195,1.49127
possible Copper export protein,SMa1198,1.02159
hypothetical protein,SMa1200,1.28386
hypothetical protein,SMa1201,2.14973
FixK-like regulatory protein,SMa1207,2.17463
FixI1 copper transport ATPase,SMa1209,1.4401
FixH nitrogen fixation protein,SMa1210,1.80359
FixG Iron sulfur membrane protein,SMa1211,1.73779
FixP1 Di-heme cytochrome c,SMa1213,1.11083
FixQ1 cbb3-type cytochrome oxidase,SMa1214,1.25191
FixO1 c-type cytochrome,SMa1216,1.43893
FixN1 Heme b / copper cytochrome c oxidase subunit,SMa1220,1.65016
Conserved hypothetical protein (ORF151),SMa1223,0.970337
transcriptional regulator FixK,SMa1225,0.821882
FixT1 Inhibitor of FixL autophosphorylation,SMa1226,2.04911
hypothetical protein,SMa1231,2.21801
"NapC membrane protein, e-donor to periplasmic nitrate reductase",SMa1232,1.77892
NapA periplasmic nitrate reductase,SMa1236,1.0995
NapE component of periplasmic nitrate reductase,SMa1241,1.24474
Azu1 pseudoazurin (blue copper protein),SMa1243,1.56526
NirV periplasmic nitrate reductase,SMa1247,0.72727
putative NirK Cu-nitrite reductase,SMa1250,1.02218
hypothetical protein,SMa1252,1.09224
hypothetical protein,SMa1253,1.34379
hypothetical protein,SMa1254,0.966781
hypothetical protein,SMa1255,1.60934
hypothetical protein,SMa1256,1.01433
hypothetical protein,SMa1259,0.756569
hypothetical protein,SMa1261,1.67821
hypothetical protein,SMa1262,0.766353
coproporphyrinogen III oxidase,SMa1266,1.14583
NorB nitric oxide reductase,SMa1273,0.604916
NorC nitric oxide reductase,SMa1276,1.06808
NorE protein involved in nitric oxide reduction,SMa1279,1.7446
Probable NnrU protein,SMa1283,1.54296
hypothetical protein,SMa1288,1.08165
hypothetical protein,SMa1289,1.37457
hypothetical protein,SMa1291,1.0476
hypothetical protein,SMa1292,0.850243
AdhA1 alcohol,SMa1296,1.52187
hypothetical protein,SMa1298,0.981937
putative transmembrane transport protein,SMa1301,-1.09555
hypothetical protein,SMa1335,-0.818956
"probable ABC transporter, periplasmic solute-binding protein",SMa1375,0.56798
"putative ABC transporter, periplasmic solute-binding protein",SMa1379,0.79699
hypothetical protein,SMa1381,1.07146
Putative transmembrane transport protein,SMa1447,1.55023
Probable thiolase,SMa1450,2.23952
Probable,SMa1452,0.581285
Putative ABC transporter permease,SMa1465,0.867205
hypothetical protein,SMa1471,1.30538
hypothetical protein,SMa1503,-0.590082
hypothetical protein,SMa1521,0.785899
NuoD2 NADH I CHAIN D,SMa1529,0.70774
NADH dehydrogenase subunit N,SMa1538,0.82693
putative oxidoreductase,SMa1541,0.961508
putative response regulator of two-component system,SMa1550,-0.638223
putative methyltransferase - chemotaxis,SMa1552,1.10874
hypothetical protein,SMa1608,1.85304
putative LysR-family transcriptional regulator,SMa1625,-1.17035
probable NreA protein,SMa1639,-1.52032
putative acetyltransferase,SMa1660,-0.62996
hypothetical protein,SMa1676,0.798322
hypothetical protein,SMa1677,-0.619505
putative integral membrane transporter,SMa1717,0.813144
putative AdeC4 adenine deaminase,SMa1718,0.570658
putative ferrichrome-iron receptor,SMa1747,-1.00139
"Putative ABC Transporter, ATP-binding protein",SMa1754,0.829907
"Putative ABC transporter, periplasmic solute-binding protein",SMa1755,1.12077
hypothetical protein,SMa1765,0.674262
hypothetical protein,SMa1769,0.598153
hypothetical protein,SMa1793,2.99277
hypothetical protein,SMa1881,-0.914677
Probable cation efflux protein,SMa1884,-0.735148
methionine sulfoxide reductase B,SMa1894,0.681569
putative MrcB penicillin binding protein B,SMa1905,1.54623
hypothetical protein,SMa1927,0.669435
Putative transcriptional regulator,SMa1943,-0.689393
hypothetical protein,SMa1948,-0.613407
Putative POLYHYDROXYALKANOATE DEPOLYMERASE,SMa1961,-0.587045
hypothetical protein,SMa1990,0.589721
"Putative ABC transporter, ATP-binding protein",SMa1998,0.767616
Putative transcriptional regulator,SMa2008,-0.647597
hypothetical protein,SMa2009,-0.933702
hypothetical protein,SMa2012,0.58502
Conservative hypothetical protein,SMa2023,-0.658144
hypothetical protein,SMa2034,0.903837
Putative oxidoreductase,SMa2037,0.888417
hypothetical protein,SMa2099,-0.763768
hypothetical protein,SMa2129,0.768396
hypothetical protein,SMa2171,0.865067
hypothetical protein,SMa2229,-0.631668
hypothetical protein,SMa2245,0.497419
probable MrcA2 penicillin-binding protein,SMa2294,2.19667
hypothetical protein,SMa2297,-0.953251
putative response regulator,SMa2301,0.738433
putative stress-induced protein Ohr,SMa2389,0.694528
putative transcriptional regulator protein,SMb20009,-1.0955
hypothetical protein,SMb20013,1.20808
putative transcriptional regulator protein,SMb20014,0.840389
putative sugar ABC transporter periplasmic sugar-binding protein ABC TRANSPORTER,SMb20018,1.1228
putative dihydrolipoamide succinyltransferase protein,SMb20019,0.66708
"putative pyruvate dehydrogenase E1 component,alpha and beta subunits protein",SMb20020,0.75177
hypothetical protein,SMb20024,-0.844426
hypothetical protein,SMb20028,0.602098
hypothetical protein,SMb20029,0.892525
RNA polymerase sigma-70 factor,SMb20030,0.873754
hypothetical protein,SMb20031,1.22963
hypothetical protein,SMb20043,-0.656139
putative transcriptional regulator protein,SMb20048,0.584171
putative elongation factor G protein,SMb20049,0.766935
putative ABC transporter periplasmic solute-binding protein,SMb20056,0.883826
probable ISRm5 transposase protein,SMb20060,0.566872
hypothetical protein,SMb20068,1.25252
putative sulfate permease protein,SMb20070,-1.07878
putative rhizopine binding protein,SMb20072,-2.58218
hypothetical fusion protein,SMb20088,1.00149
hypothetical oxidoreductase protein,SMb20097,0.939977
putative acetoin catabolism regulatory protein,SMb20102,0.68039
dihydroxy-acid dehydratase,SMb20115,-0.626215
hypothetical protein,SMb20116,0.750844
hypothetical sugar transferase protein,SMb20117,0.88679
hypothetical protein,SMb20118,0.607911
hypothetical protein,SMb20127,0.739553
putative transcriptional regulator protein,SMb20148,0.632601
hypothetical protein,SMb20149,-0.807671
putative inositol monophosphatase protein,SMb20150,-0.874625
hypothetical protein,SMb20152,-0.67775
putative transcriptional regulator protein,SMb20154,-0.806785
putative ABC transporter permease protein,SMb20155,-1.33855
putative ABC transporter ATP-binding protein,SMb20156,-1.45757
hypothetical ABC transporter periplasmic solute-binding protein,SMb20157,-0.850931
hypothetical protein,SMb20163,1.15201
putative sensor histidine kinase protein,SMb20164,1.20288
hypothetical protein,SMb20165,0.887034
hypothetical protein,SMb20166,1.21075
putative S-formylglutathione hydrolase protein,SMb20171,1.11243
putative cytochrome c protein,SMb20172,1.39555
"putative methanol dehydrogenase protein, large subunit",SMb20173,0.976292
hypothetical protein,SMb20179,0.672479
glutathione-dependent formaldehyde-activating enzyme,SMb20186,1.16793
putative phosphoribulokinase protein,SMb20201,1.90548
putative malate dehydrogenase protein,SMb20261,-0.645626
putative semialdehyde dehydrogenase protein,SMb20262,-0.946766
putative ABC transporter periplasmic amino acid-binding protein,SMb20263,-0.707827
putative amino acid ABC transporter permease protein,SMb20264,-1.08629
putative D-amino acid dehydrogenase protein,SMb20267,-0.798278
putative proline racemase protein,SMb20268,-0.666651
hypothetical protein,SMb20275,-0.984569
hypothetical protein,SMb20278,0.574946
putative ABC transporter periplasmic spermidineputrescine-binding protein,SMb20284,0.589252
hypothetical protein,SMb20286,-0.573541
hypothetical protein TRANSMEMBRANE,SMb20291,0.499482
transcriptional regulator NanR,SMb20294,-0.724257
hypothetical protein,SMb20303,1.60478
putative ABC transporter periplasmic sugar-binding protein,SMb20316,0.662801
hypothetical protein,SMb20319,-0.747103
putative transcriptional regulator protein,SMb20323,-0.736247
probable trehalosemaltose transporter ATP-binding protein,SMb20328,0.614234
putative efflux protein,SMb20338,-0.634943
putative efflux protein,SMb20345,0.728587
putative efflux protein,SMb20346,1.0677
hypothetical protein,SMb20360,0.816679
putative ionic voltage-gated channel protein,SMb20361,0.933783
putative transcriptional regulator protein,SMb20375,-0.887556
hypothetical protein,SMb20386,-0.782704
putative transcriptional regulator protein,SMb20387,-0.851503
hypothetical protein,SMb20389,-0.731701
"putative ribulose bisphosphate carboxylaseoxygenase, large subunit protein",SMb20393,-0.643047
putative hydantoin utilization protein A,SMb20406,0.586914
probable ABC transporter periplasmic glycerol-3-phosphate-binding protein precursor,SMb20416,0.684968
putative oxidoreductase protein,SMb20422,-0.638223
hypothetical protein,SMb20423,-0.70621
putative amino acid ABC transporter ATP-binding protein,SMb20427,-0.663688
putative amino acid ABC transporter permease protein,SMb20430,0.913096
hypothetical protein,SMb20447,0.568651
putative transcriptional regulator protein,SMb20455,-0.640035
hypothetical protein,SMb20473,-1.14813
hypothetical protein,SMb20495,-1.25375
putative sugar ABC transporter ATP-binding protein,SMb20507,0.763336
putative transcriptional regulator protein,SMb20509,-0.962241
hypothetical protein,SMb20522,1.05842
hypothetical protein,SMb20536,-0.782972
hypothetical protein,SMb20550,1.02546
hypothetical protein,SMb20551,1.64518
putative maltooligosyl trehalose synthase protein,SMb20574,1.12421
"putative protocatechuate 3,4-dioxygenase alpha chain protein",SMb20576,1.25756
"putative protocatechuate 3,4-dioxygenase beta chain protein",SMb20577,1.23603
"putative transcriptional regulator, LysR family protein",SMb20582,0.735801
putative CoA-transferase subunit A protein,SMb20587,-0.801704
putative cell division protein FtsK like protein,SMb20595,-0.549469
hypothetical protein,SMb20596,-1.29137
probable replication protein,SMb20598,-0.786977
putative smb01f11-replication protein,SMb20599,-0.842314
putative two-component sensor histidine kinase protein,SMb20609,0.795479
C4-dicarboxylate transport protein,SMb20611,-2.33949
C4-dicarboxylate transport transcriptional regulatory protein,SMb20613,0.613156
hypothetical protein,SMb20614,-1.0762
putative sugar uptake ABC transporter periplasmic solute-binding protein precursor,SMb20620,0.80673
hypothetical membrane protein,SMb20625,-0.625534
putative sugar uptake ABC transporter periplasmic solute-binding protein precursor,SMb20634,0.863952
hypothetical protein,SMb20647,-1.26244
putative sugar uptake ABC transporter permease protein,SMb20659,-0.736994
putative sugar uptake ABC transporter periplasmic solute-binding protein precursor,SMb20660,0.806075
putative sugar uptake ABC transporter ATP-binding protein,SMb20661,0.954374
putative oxidoreductase protein,SMb20662,1.03006
hypothetical protein,SMb20663,1.65572
hypothetical protein,SMb20668,-0.926363
"conserved hypothetical protein, possibly hydroxypyruvate isomerase",SMb20669,-0.842483
putative sugar uptake ABC transporter periplasmic solute-binding protein precursor,SMb20671,1.46872
putative sugar uptake ABC transporter permease protein,SMb20672,2.11341
putative sugar uptake ABC transporter ATP-binding protein,SMb20673,2.25288
"putative transcriptional regulator, LacI family protein",SMb20674,1.91402
hypothetical protein,SMb20675,0.625018
putative acetate operon repressor IclR protein,SMb20682,-0.840283
putative 5-keto-D-gluconate 5-reductase protein,SMb20692,-0.825003
hypothetical protein,SMb20705,-0.862787
putative amino acid uptake ABC transporter periplasmic solute-binding protein precursor,SMb20706,1.18324
putative adenylate cyclase protein,SMb20707,0.847917
putative methylated-DNA--protein-cysteine methyltransferase,SMb20708,0.719177
putative rhizopine uptake ABC transporter periplasmic solute-binding protein precursor,SMb20712,-2.66276
putative sugar uptake ABC transporter ATP-binding protein,SMb20713,-1.57584
putative sugar uptake ABC transporter permease protein,SMb20714,-1.6385
hypothetical protein,SMb20716,-0.594814
"putative transcriptional regulator, LacI family protein",SMb20717,-0.58024
hypothetical protein,SMb20727,-0.639127
hypothetical protein,SMb20728,-1.10754
hypothetical protein,SMb20729,-0.782017
putative glutatmine synthetase II protein,SMb20745,-1.01855
hypothetical protein,SMb20746,-0.627888
"putative transcriptional regulator, GntR or ArsR family protein",SMb20758,-0.72587
putative phosphonate uptake ABC transporter ATP-binding protein,SMb20764,-0.792603
putative dihydroxyacetone (glycerone) kinase protein,SMb20767,-0.736162
putative branched-chain amino acid uptake ABC transporter permease protein,SMb20787,0.970379
"putative protein involved in assembly, operation or regulation of an export machinery for a cell surface saccharide",SMb20809,0.646145
"putative exported protein, slightly similar to protein involved in assembly of outer membrane proteins",SMb20816,-0.563507
"putative transcriptional regulator, LacI family protein",SMb20817,-0.559043
putative hydrocarbon oxygenase protein,SMb20818,1.0115
putative ferredoxin of the Rieseke type protein,SMb20819,1.94787
putative ferredoxin reductase protein,SMb20820,0.759977
"putative membrane protein, slightly similar to carrier proteins",SMb20824,-1.13266
"putative protein, probably encoded by an unidentifed IS element",SMb20826,0.710098
"putative protein involved in assembly, operation or regulation of an export machinery for a cell surface saccharide",SMb20830,-0.71727
putative secreted calcium-binding protein,SMb20838,-0.912164
hypothetical protein,SMb20865,-0.958265
hypothetical protein,SMb20876,-0.769698
"putative oxidoreductase, possibly D-amino acid oxidase protein",SMb20877,-0.879484
hypothetical protein,SMb20878,-0.943633
putative ATP-dependent RNA helicase protein,SMb20880,-1.57627
hypothetical protein,SMb20887,0.929293
hypothetical protein,SMb20888,0.756338
"putative dehydrogenase, possibly aldehyde dehydrogenase protein",SMb20891,-0.594749
probable sugar uptake ABC transporter periplasmic solute-binding protein precursor,SMb20895,0.579336
hypothetical protein,SMb20898,0.910946
hypothetical myo-inositol dehydrogenase protein,SMb20899,-3.34664
hypothetical protein,SMb20900,-2.76956
hypothetical protein,SMb20910,0.835578
hypothetical protein,SMb20913,-0.940746
hypothetical protein,SMb20926,1.17094
putative sugar uptake ABC transporter permease protein,SMb20929,0.67721
putative two-component response regulator protein,SMb20934,-0.785818
putative transcriptional regulator protein,SMb20935,-0.833666
hypothetical protein,SMb20940,-1.023
putative periplasmatic protein,SMb20951,0.753481
succinyltransferase protein,SMb20954,0.666067
"putative nitrate reductase, large subunit protein",SMb20986,2.3787
hypothetical protein,SMb20994,-0.72925
GTP-binding protein EngA,SMb20995,-0.917091
hypothetical protein,SMb20996,-0.63047
hypothetical protein,SMb21001,0.764362
hypothetical protein,SMb21004,-0.726113
hypothetical membrane protein,SMb21006,-0.802546
"probable glycerol kinase, similar to sugar kinase protein",SMb21009,-1.23516
hypothetical protein,SMb21013,0.77776
"probable sugar kinase, probably EGGY family protein",SMb21022,-0.552192
hypothetical exopeptide protein,SMb21026,1.33326
"conserved hypothetical protein, similar to Y20302",SMb21028,1.15747
putative oligopeptidemurein peptide ABC transporter permease protein,SMb21038,-1.11337
putative oligopeptidemurein peptide ABC transporter ATP-binding protein,SMb21040,-1.02235
putative UDPglucoseGDPmannose dehydrogenase protein,SMb21051,-0.570325
"putative bifunctional enzyme 2-hydroxyhepta-2,4-diene-1,7-dioatesomerase 5-carboxymethyl-2-oxo-hex-3-ene-1,7-dioatedecarboxylase protein",SMb21112,-0.706742
putative enzyme similar to human rTSbeta protein,SMb21113,-1.00034
putative isovaleryl-CoA dehydrogenase protein,SMb21121,0.973768
putative methylcrotonoyl-CoA carboxylase non-biotinylated subunit protein,SMb21122,1.3034
"hypothetical membrane-anchored protein, similar to putative translation initiation inhibitor",SMb21123,1.12754
putative methylcrotonoyl-CoA carboxylase biotinylated subunit protein,SMb21124,0.93622
putative oxidoreductase protein,SMb21129,-0.628824
putative sulfate uptake ABC transporter ATP-binding protein,SMb21130,-0.622532
putative amino acid uptake ABC transporter permease protein,SMb21136,1.44157
putative amino acid uptake ABC transporter permease protein,SMb21137,1.22018
urocanate hydratase,SMb21163,1.14761
putative formiminoglutamase protein,SMb21164,1.34577
histidine ammonia-lyase,SMb21165,0.883845
imidazolonepropionase,SMb21166,1.08307
putative enzyme protein,SMb21171,-0.951494
phosphate uptake ABC transporter permease protein,SMb21175,-0.705873
phosphate uptake ABC transporter ATP-binding protein,SMb21177,-0.81644
heat shock protein 90,SMb21183,0.733767
"putative acyltransferase, possibly surface-saccharide specific acetyltransferase protein",SMb21188,0.870214
putative two-component sensor histidine kinase protein,SMb21201,1.02661
"putative transcriptional regulator, TetR family protein",SMb21208,-1.4401
"putative formyltransferase, similar to methionyl-tRNA(fMet) N-formyltransferase protein",SMb21235,-0.80647
"hypothetical adenylate cyclase, truncated protein",SMb21257,1.25166
putative ATP-binding component of an ABC transporter with an unusual central domain protein,SMb21269,0.773421
putative spermidineputrescine ABC transporter periplasmic solute-binding protein precursor,SMb21273,-0.716816
putative spermidineputrescine ABC transporter permeasee protein,SMb21274,-1.29027
putative spermidineputrescine ABC transporter permease protein,SMb21275,-1.50017
putative spermidineputrescine ABC transporter ATP-binding protein,SMb21276,-1.46842
putative inosine-uridine preferring nucleoside hydrolase protein,SMb21277,-1.60483
probable adenine deaminase protein,SMb21278,-1.14971
"putative amidohydrolase, similar to hippurate hydrolase protein",SMb21279,-0.830636
phosphoribosyltransferase,SMb21280,-1.23077
putative allantoicase protein,SMb21283,0.835491
putative xanthine dehydrogenase protein,SMb21287,0.65076
"putative small heat shock protein, hsp20 family",SMb21294,0.948059
"putative small heat shock protein, hsp20 family",SMb21295,1.58531
hypothetical protein,SMb21296,1.43222
probable bifunctional penicillin-binding protein,SMb21297,0.624657
"transcriptional activator of exopolysaccharide II synthesis, MarR family protein",SMb21317,0.566478
hypothetical exported peptide protein,SMb21329,-1.42543
hypothetical protein with amino acid permeases signature,SMb21330,0.926619
putative sugar uptake ABC transporter permease protein,SMb21343,0.972889
putative sugar uptake ABC transporter ATP-binding protein,SMb21344,1.19679
putative 4-deoxy-L-threo-5-hexulose-uronate ketol-isomerase protein,SMb21349,-0.93535
putative periplasmic C4-dicarboxylate transport protein,SMb21353,1.21109
putative oxidoreductase protein,SMb21355,-1.201
"putative transcriptional activator, LysR family, N-terminus protein",SMb21359,-0.74523
hypothetical membrane protein,SMb21365,-1.42011
hypothetical protein,SMb21369,0.831031
putative sugar kinase protein,SMb21373,-0.660445
"putative sugar kinase, PfkB family protein",SMb21374,-0.936534
putative sugar uptake ABC transporter periplasmic solute-binding protein precursor,SMb21377,-0.710054
hypothetical protein,SMb21379,1.48575
hypothetical protein,SMb21395,1.21751
putative glucose-1-phosphate cytidylyltransferase protein,SMb21416,-0.821905
"putative CDP-glucose 4,6-dehydratase protein",SMb21417,-0.809108
putative NDP-hexose 3-C-methyltransferase protein,SMb21418,-0.992354
hypothetical protein,SMb21425,-0.73117
putative iron ABC transporter permease protein,SMb21430,-0.738246
"hypothetical protein, possibly C terminus of iron ABC transporter periplasmatic solute-binding protein",SMb21431,-0.645926
N-carbamoyl-L-amino acid amidohydrolase,SMb21435,-0.83895
hypothetical protein,SMb21440,1.04133
hypothetical protein,SMb21475,0.828476
hypothetical protein,SMb21479,-0.565054
putative cytochrome o ubiquinol oxidase chain II protein,SMb21487,-0.64736
ornithine cyclodeaminase,SMb21494,0.980716
putative protease protein,SMb21495,0.658641
putative acriflavin resistence protein,SMb21498,0.664842
hypothetical protein,SMb21516,-0.617741
putative outer membrane secretion protein,SMb21543,0.564345
putative two-component response regulator protein,SMb21545,1.13388
hypothetical protein,SMb21550,-0.741446
"putative aminoglycoside 6'-N-acetyltransferase, similar to amikacin resistance protein",SMb21552,-0.668651
chaperonin GroEL,SMb21566,0.6648
hypothetical protein,SMb21567,1.02749
putative sugar uptake ABC transporter ATP-binding protein,SMb21592,0.87445
putative transcriptional regulator protein,SMb21598,-0.653037
hypothetical protein,SMb21599,0.808751
putative exported beta-lactamase protein,SMb21600,0.890461
putative sugar uptake ABC transporter permease protein,SMb21602,0.581559
putative sugar uptake ABC transporter permease protein,SMb21603,0.629348
putative phenylacetic acid degradation protein,SMb21637,1.45915
putative phenylacetic acid degradation protein,SMb21638,1.30164
putative phenylacetic acid degradation protein,SMb21639,0.947967
putative phenylacetic acid degradation protein,SMb21640,0.635691
hypothetical protein,SMb21671,0.828021
hypothetical protein,SMb21676,2.87608
hypothetical protein,SMb21689,1.21515
tRNA-Arg-CCG,SMb21712,1.03327
PUTATIVE CHAPERONE PROTEIN,SMc00003,-0.530504
enoyl-(acyl carrier protein) reductase,SMc00005,-1.12769
hypothetical protein,SMc00006,-0.66778
chorismate synthase,SMc00007,-0.796181
"PROBABLE RIBOFLAVIN BIOSYNTHESIS PROTEIN RIBA INCLUDES: GTP CYCLOHYDROLASE II 3,4-DIHYDROXY-2-BUTANONE 4-PHOSPHATE SYNTHASE",SMc00008,-0.814207
PUTATIVE CYTOCHROME C OXIDASE POLYPEPTIDE I TRANSMEMBRANE PROTEIN,SMc00010,-0.761792
PUTATIVE CYTOCHROME C OXIDASE SUBUNIT III TRANSMEMBRANE PROTEIN,SMc00013,-0.50328
ADENINE DNA METHYLTRANSFERASE PROTEIN,SMc00021,-0.795241
hypothetical protein,SMc00022,-0.563986
hypothetical protein,SMc00026,-0.607087
HYPOTHETICAL/UNKNOWN TRANSMEMBRANE PROTEIN,SMc00031,-2.26849
hypothetical protein,SMc00035,-0.795858
PROBABLE SUPEROXIDE DISMUTASE FE PROTEIN,SMc00043,0.817481
hypothetical protein,SMc00049,0.73462
hypothetical protein,SMc00064,0.921099
CONSERVED HYPOTHETICAL SIGNAL PEPTIDE PROTEIN,SMc00065,-1.14923
HYPOTHETICAL PEROXIREDOXIN PROTEIN,SMc00072,0.546404
threonine synthase,SMc00077,-0.896766
PROBABLE LEU/ILE/VAL-BINDING PROTEIN,SMc00078,-0.614796
hypothetical protein,SMc00079,-0.978124
hypothetical protein,SMc00080,-0.776616
HYPOTHETICAL/UNKNOWN TRANSMEMBRANE PROTEIN,SMc00088,-1.0462
choline dehydrogenase,SMc00093,-3.86377
BETAINE ALDEHYDE DEHYDROGENASE BADH OXIDOREDUCTASE NAD PROTEIN,SMc00094,-3.55237
transcriptional regulator BetI,SMc00095,-4.85309
HYPOTHETICAL/UNKNOWN PROTEIN,SMc00096,0.632474
PUTATIVE TRANSCRIPTION REGULATOR PROTEIN,SMc00098,-0.992783
hypothetical protein,SMc00106,0.894524
PUTATIVE ACETYLTRANSFERASE PROTEIN,SMc00108,-1.47499
PUTATIVE TRANSCRIPTION REGULATOR PROTEIN,SMc00109,1.0077
PROBABLE PROTEASE II OLIGOPEPTIDASE B HYDROLASE SERINE PROTEASE PROTEIN,SMc00114,-0.589513
hypothetical protein,SMc00117,1.58081
hypothetical protein,SMc00118,0.791535
hypothetical protein,SMc00120,-0.730585
tRNA-Gln-TTG,SMc00125,1.78985
CHOLINE SULFATASE PROTEIN,SMc00127,-3.2563
PUTATIVE OXIDOREDUCTASE PROTEIN,SMc00133,-0.578812
hypothetical protein,SMc00134,-0.720242
PUTATIVE OXIDOREDUCTASE PROTEIN,SMc00136,0.587895
hypothetical protein,SMc00141,-1.81022
molybdenum cofactor biosynthesis protein A,SMc00144,0.552559
hypothetical protein,SMc00147,-1.07984
fumarate hydratase,SMc00149,-1.24166
hypothetical protein,SMc00153,-0.707592
glutathione reductase,SMc00154,-0.491318
PROBABLE DAHP SYNTHETASE PROTEIN,SMc00155,-0.894253
HYPOTHETICAL SIGNAL PEPTIDE PROTEIN,SMc00159,-0.692113
short chain dehydrogenase,SMc00165,0.664124
CONSERVED HYPOTHETICAL SIGNAL PEPTIDE PROTEIN,SMc00167,-0.566336
PUTATIVE AUTOINDUCER SYNTHASE PROTEIN,SMc00168,1.12326
phosphate acetyltransferase,SMc00169,-0.868346
HYPOTHETICAL/UNKNOWN PROTEIN,SMc00179,-0.87982
coproporphyrinogen III oxidase,SMc00180,-0.628228
PUTATIVE TRNA/RRNA METHYLTRANSFERASE PROTEIN,SMc00184,-0.747035
PROBABLE UBIQUINOL-CYTOCHROME C REDUCTASE IRON-SULFUR SUBUNIT PROTEIN,SMc00187,-0.648962
PROBABLE CYTOCHROME B TRANSMEMBRANE PROTEIN,SMc00188,-0.822606
hypothetical protein,SMc00190,-0.603696
HYPOTHETICAL/UNKNOWN PROTEIN,SMc00193,0.710107
HYPOTHETICAL/UNKNOWN PROTEIN,SMc00198,-2.4925
PROBABLE TRANS-ACONITATE METHYLTRANSFERASE PROTEIN,SMc00225,0.618522
hypothetical protein,SMc00227,-0.755523
D-fructose-6-phosphate amidotransferase,SMc00231,-0.733069
PROBABLE UDP-N-ACETYLGLUCOSAMINE PYROPHOSPHORYLASE PROTEIN,SMc00232,-0.658674
PUTATIVE PEPTIDYL-PROLYL CIS-TRANS ISOMERASE PROTEIN,SMc00234,-0.682923
anthranilate phosphoribosyltransferase,SMc00235,-0.745291
hypothetical protein,SMc00239,0.642065
hypothetical protein,SMc00240,0.790488
PHOSPHATIDYLCHOLINE SYNTHASE PROTEIN,SMc00247,-0.641469
hypothetical protein,SMc00254,-0.610155
HYPOTHETICAL SIGNAL PEPTIDE PROTEIN,SMc00258,1.26825
hypothetical protein,SMc00259,0.81075
PUTATIVE OXIDOREDUCTASE PROTEIN,SMc00264,0.953123
PUTATIVE PERIPLASMIC BINDING PROTEIN,SMc00265,1.11782
hypothetical protein,SMc00272,1.61135
PUTATIVE TRANSCRIPTION REGULATOR PROTEIN,SMc00275,-0.701271
hypothetical protein,SMc00279,0.863953
homoserine dehydrogenase,SMc00293,-1.02276
hypothetical protein,SMc00294,-0.965879
hypothetical protein,SMc00295,-0.60563
sugar fermentation stimulation protein,SMc00297,0.699799
ribosome-binding factor A,SMc00320,-1.12511
tRNA pseudouridine synthase B,SMc00321,-1.3875
hypothetical protein,SMc00322,-0.548655
30S ribosomal protein S15,SMc00323,-0.73231
PROBABLE POLYRIBONUCLEOTIDE NUCLEOTIDYLTRANSFERASE PROTEIN,SMc00324,-0.805516
hypothetical protein,SMc00325,-1.18653
enoyl-(acyl carrier protein) reductase,SMc00326,-0.869295
3-oxoacyl-(acyl carrier protein) synthase,SMc00327,-0.827998
3-hydroxydecanoyl-ACP dehydratase,SMc00328,-0.493421
hypothetical protein,SMc00332,-0.775487
3-phosphoshikimate 1-carboxyvinyltransferase,SMc00333,-0.936235
30S ribosomal protein S1,SMc00335,-1.13745
hypothetical protein,SMc00342,-1.01439
hypothetical protein,SMc00345,0.972109
GTP-binding protein LepA,SMc00349,-0.573861
hypothetical protein,SMc00355,-1.04983
PUTATIVE LYSYL-TRNA SYNTHETASE PROTEIN,SMc00356,-0.915522
hypothetical protein,SMc00361,-0.583538
translation initiation factor IF-3,SMc00362,0.540374
50S ribosomal protein L20,SMc00364,-0.569081
phenylalanyl-tRNA synthetase alpha subunit,SMc00365,-1.15802
phenylalanyl-tRNA synthetase beta subunit,SMc00366,-1.19964
hypothetical protein,SMc00367,0.746
hypothetical protein,SMc00371,0.864839
PUTATIVE OXIDOREDUCTASE TRANSMEMBRANE PROTEIN,SMc00374,-0.645408
PROBABLE AMINOPEPTIDASE PROTEIN,SMc00382,-0.520373
PROBABLE GMP SYNTHASE GLUTAMINE-HYDROLYZING PROTEIN,SMc00394,-0.624972
hypothetical protein,SMc00397,0.921122
PROBABLE MAGNESIUM AND COBALT TRANSPORT TRANSMEMBRANE PROTEIN,SMc00399,-1.36651
HYPOTHETICAL NOL1/NOP2/SUN FAMILY SIGNATURE PROTEIN,SMc00403,-0.560082
PUTATIVE GLUTATHIONE S-TRANSFERASE PROTEIN,SMc00407,-0.569232
PUTATIVE OXIDOREDUCTASE PROTEIN,SMc00410,-0.92768
hypothetical protein,SMc00411,-0.919002
DNA polymerase III subunit beta,SMc00415,-0.540275
glutathione synthetase,SMc00419,0.922062
PUTATIVE AMINO ACID EFFLUX PROTEIN,SMc00422,-0.573714
PROBABLE PEPTIDE CHAIN RELEASE FACTOR RF-3 PROTEIN,SMc00427,-1.38393
PUTATIVE TRANSMEMBRANE PROTEIN,SMc00428,-1.02341
PUTATIVE TRANSCRIPTION REGULATOR PROTEIN,SMc00429,-0.931934
hypothetical protein,SMc00431,-1.1889
PUTATIVE MYO-INOSITOL CATABOLISM PROTEIN,SMc00432,-2.05928
PUTATIVE MYO-INOSITOL CATABOLISM PROTEIN,SMc00433,-1.93169
tRNA-Leu-CAG,SMc00434,1.26053
tRNA-Ala-GGC,SMc00435,1.60137
PROBABLE DIHYDROPTEROATE SYNTHASE ANTIBIOTIC RESISTANCE TRANSFERASE FOLATE PROTEIN,SMc00462,-0.700197
hypothetical protein,SMc00472,-0.901567
alanyl-tRNA synthetase,SMc00475,-0.902227
isocitrate dehydrogenase,SMc00480,-0.790873
hypothetical protein,SMc00484,-0.903633
30S ribosomal protein S4,SMc00485,-0.924461
glutaminase,SMc00486,-0.810589
hypothetical protein,SMc00487,0.843665
phosphoribosylformylglycinamidine synthase subunit II,SMc00488,-1.18036
PUTATIVE TRANSCRIPTION REGULATOR PROTEIN,SMc00490,-0.622523
hypothetical protein,SMc00491,-0.937427
hypothetical protein,SMc00492,-1.47207
phosphoribosylformylglycinamidine synthase,SMc00494,-0.951867
phosphoribosylaminoimidazole-succinocarboxamide synthase,SMc00495,-0.734353
adenylosuccinate lyase,SMc00508,-1.20192
PROBABLE D-RIBULOSE-5-PHOSPHATE 3-EPIMERASE PROTEIN,SMc00511,-0.751052
hypothetical protein,SMc00516,1.00867
hypothetical protein,SMc00521,-0.706559
PUTATIVE ATP-DEPENDENT RNA HELICASE PROTEIN,SMc00522,-0.521286
PUTATIVE BACTERIOFERRITIN COMIGRATORY PROTEIN,SMc00524,-0.595529
tyrosyl-tRNA synthetase,SMc00526,-1.10782
hypothetical protein,SMc00528,-0.660918
PUTATIVE ABC TRANSPORTER ATP-BINDING PROTEIN,SMc00531,-0.753455
hypothetical protein,SMc00532,-0.753851
PUTATIVE TRANSPORT PROTEIN,SMc00536,-1.06346
hypothetical protein,SMc00538,0.531406
phosphatidylserine decarboxylase,SMc00551,-0.569401
PUTATIVE COLICIN V PRODUCTION HOMOLOG TRANSMEMBRANE PROTEIN,SMc00555,-0.976082
PUTATIVE ALANINE RACEMASE PROTEIN,SMc00557,-0.834141
50S ribosomal protein L9,SMc00565,-1.41529
hypothetical protein,SMc00566,-1.72706
30S ribosomal protein S18,SMc00567,-1.60236
30S ribosomal protein S6,SMc00568,-1.75715
acyl-carrier-protein S-malonyltransferase,SMc00571,-0.744658
3-ketoacyl-(acyl-carrier-protein) reductase,SMc00572,-0.751132
3-oxoacyl-(acyl carrier protein) synthase,SMc00574,-1.01064
hypothetical protein,SMc00575,-0.969782
hypothetical protein,SMc00576,-0.885773
guanylate kinase,SMc00577,-1.00298
4-hydroxythreonine-4-phosphate dehydrogenase,SMc00580,-0.648883
leucyl aminopeptidase,SMc00585,-0.842007
DNA polymerase III subunit chi,SMc00586,-0.859194
hypothetical protein,SMc00589,0.840969
PUTATIVE ABC TRANSPORTER ATP-BINDING PROTEIN,SMc00590,-1.89677
PUTATIVE BETA-ETHERASE (BETA-ARYL ETHER CLEAVING ENZYME) PROTEIN,SMc00594,-0.649915
hypothetical protein,SMc00596,-0.719369
hypothetical protein,SMc00608,-0.79164
phosphoribosylglycinamide formyltransferase,SMc00614,-0.887385
phosphoribosylaminoimidazole synthetase,SMc00615,-0.975585
hypothetical protein,SMc00617,-0.604242
HYPOTHETICAL SIGNAL PEPTIDE PROTEIN,SMc00620,-0.680454
PROBABLE RIBONUCLEASE D PROTEIN,SMc00622,-0.62923
PUTATIVE HEAT RESISTANT AGGLUTININ 1 PROTEIN,SMc00638,-0.534668
phosphoserine aminotransferase,SMc00640,-0.552819
hypothetical protein,SMc00644,-0.588364
RNA polymerase sigma factor,SMc00646,1.29484
PUTATIVE RIBOSOMAL LARGE SUBUNIT PSEUDOURIDINE SYNTHASE PROTEIN,SMc00647,-0.559904
hypothetical protein,SMc00648,-0.600391
PUTATIVE TRNA/RRNA METHYLTRANSFERASE PROTEIN,SMc00649,-0.619007
PUTATIVE TRANSCRIPTION REGULATOR PROTEIN,SMc00658,-0.607255
HISTIDINE TRANSPORT ATP-BINDING ABC TRANSPORTER PROTEIN,SMc00670,0.997406
HISTIDINE-BINDING PERIPLASMIC SIGNAL PEPTIDE PROTEIN,SMc00672,1.37846
atrazine chlorohydrolase,SMc00673,0.96798
PUTATIVE HISTIDINE UTILIZATION REPRESSOR TRANSCRIPTION REGULATOR PROTEIN,SMc00674,0.610805
PUTATIVE TRANSCRIPTION REGULATOR PROTEIN,SMc00678,-0.702633
acetyl-CoA carboxylase alpha subunit,SMc00690,-0.682585
hypothetical protein,SMc00699,0.578269
hypothetical protein,SMc00703,-1.41552
50S ribosomal protein L28,SMc00704,-0.769674
histidinol-phosphate aminotransferase,SMc00710,-0.722624
PROBABLE DIAMINOPIMELATE DAP DECARBOXYLASE PROTEIN,SMc00723,-0.927036
HYPOTHETICAL/UNKNOWN PROTEIN,SMc00724,-0.940078
argininosuccinate lyase,SMc00725,-1.06134
PUTATIVE ELECTRON TRANSFER FLAVOPROTEIN ALPHA-SUBUNIT ALPHA-ETF FLAVOPROTEIN,SMc00728,-0.526823
hypothetical protein,SMc00738,-0.676571
hypothetical protein,SMc00740,-0.710231
tRNA-Met-CAT,SMc00758,1.85218
tRNA-Leu-CAA,SMc00759,1.07638
PUTATIVE OXIDOREDUCTASE PROTEIN,SMc00761,0.613625
PROBABLE METHYL-ACCEPTING CHEMOTAXIS PROTEIN,SMc00765,-0.71603
PROBABLE PUTRESCINE-BINDING PERIPLASMIC PROTEIN,SMc00770,0.532331
PUTATIVE FAD-DEPENDENT OXIDOREDUCTASE PROTEIN,SMc00779,0.598474
PUTATIVE MALONIC SEMIALDEHYDE OXIDATIVE DECARBOXYLASE PROTEIN,SMc00781,-1.93702
hypothetical protein,SMc00785,0.966772
PROBABLE DIPEPTIDE TRANSPORT SYSTEM PERMEASE PROTEIN,SMc00787,-1.32658
PROBABLE DIPEPTIDE TRANSPORT SYSTEM PERMEASE PROTEIN,SMc00788,-1.40904
PROBABLE DIPEPTIDE TRANSPORT ATP-BINDING ABC TRANSPORTER PROTEIN,SMc00789,-1.21614
PROBABLE DIPEPTIDE TRANSPORT ATP-BINDING ABC TRANSPORTER PROTEIN,SMc00790,-1.20584
hypothetical protein,SMc00791,-0.517313
hypothetical protein,SMc00801,0.994374
PUTATIVE SIGNAL PEPTIDE PROTEIN,SMc00809,-1.26483
hypothetical protein,SMc00810,-0.938863
PROBABLE CELL DIVISION PROTEIN,SMc00811,-0.830794
hypothetical protein,SMc00812,-0.674508
PUTATIVE TRANSPORT TRANSMEMBRANE PROTEIN,SMc00813,-0.607802
inositol-5-monophosphate dehydrogenase,SMc00815,-1.29545
hypothetical protein,SMc00816,-1.19306
PUTATIVE CARBOXYMETHYLENEBUTENOLIDASE (DIENELACTONE HYDROLASE) PROTEIN,SMc00817,-1.16484
CATALASE HYDROPEROXIDASE HPII(III) PROTEIN,SMc00819,0.565849
tRNA-His-GTG,SMc00841,1.99745
tRNA-Gln-CTG,SMc00842,1.14257
hypothetical protein,SMc00850,-0.688841
glycyl-tRNA synthetase beta subunit,SMc00851,-0.944237
HYPOTHETICAL TRANSMEMBRANE SIGNAL PEPTIDE PROTEIN,SMc00852,-0.531354
hypothetical protein,SMc00853,-0.602797
HYPOTHETICAL/UNKNOWN SIGNAL PEPTIDE PROTEIN,SMc00854,-0.953299
hypothetical protein,SMc00856,0.643766
PUTATIVE PROTEASE PROTEIN,SMc00857,1.07057
hypothetical protein,SMc00866,-0.67332
ribonuclease HII,SMc00867,-0.669432
ATP synthase subunit B,SMc00868,-0.628188
ATP synthase subunit B,SMc00869,-0.656157
ATP synthase subunit A,SMc00871,-0.998306
PROBABLE KUP SYSTEM POTASSIUM UPTAKE TRANSMEMBRANE PROTEIN,SMc00873,-0.758938
PUTATIVE MRP PROTEIN HOMOLOG ATP-BINDING,SMc00876,0.802159
hypothetical protein,SMc00902,-0.67256
hypothetical protein,SMc00904,-1.08476
PUTATIVE ACETYLTRANSFERASE PROTEIN,SMc00906,-0.611408
hypothetical protein,SMc00907,-0.811039
isoleucyl-tRNA synthetase,SMc00908,-1.70952
hypothetical protein,SMc00910,-0.515374
ATP phosphoribosyltransferase regulatory subunit,SMc00918,-1.17171
histidyl-tRNA synthetase,SMc00919,-0.931842
hypothetical protein,SMc00924,-0.581034
PUTATIVE SIGNAL PEPTIDE PROTEIN,SMc00925,-0.551809
HYPOTHETICAL/UNKNOWN PROTEIN,SMc00931,-1.06341
DNA mismatch repair protein,SMc00932,-0.547454
threonine dehydratase,SMc00936,-0.846516
HYPOTHETICAL/UNKNOWN PROTEIN,SMc00941,0.845526
hypothetical protein,SMc00944,-1.00736
xanthine phosphoribosyltransferase,SMc00945,-0.970506
GLUTAMINE SYNTHETASE I PROTEIN,SMc00948,-0.520505
hypothetical protein,SMc00949,1.53818
PUTATIVE SIGNAL PEPTIDE PROTEIN,SMc00950,-0.587535
PROBABLE EXODEOXYRIBONUCLEASE III PROTEIN,SMc00956,1.09458
tRNA-Leu-TAA,SMc00957,0.935712
HYPOTHETICAL/UNKNOWN PROTEIN,SMc00959,0.899617
hypothetical protein,SMc00964,-0.91319
hypothetical protein,SMc00973,-1.01701
PROBABLE CHEMORECEPTOR (METHYL-ACCEPTING CHEMOTAXIS) TRANSMEMBRANE PROTEIN,SMc00975,-1.3465
enoyl-CoA hydratase,SMc00976,0.767095
PUTATIVE ACYL-COA DEHYDROGENASE PROTEIN,SMc00977,1.23966
hypothetical protein,SMc00978,-0.840583
PUTATIVE FOSMIDOMYCIN RESISTANCE ANTIBIOTIC RESISTANCE TRANSMEMBRANE PROTEIN,SMc00990,-1.85878
hypothetical protein,SMc00995,-0.564081
hypothetical protein,SMc00996,-0.512066
CONSERVED HYPOTHETICAL SIGNAL PEPTIDE PROTEIN,SMc00998,-0.587
hypothetical protein,SMc01008,1.04919
hypothetical protein,SMc01009,1.17239
threonyl-tRNA synthetase,SMc01010,-0.908477
hypothetical protein,SMc01015,-0.644177
DNA topoisomerase IV subunit B,SMc01018,-0.747777
protein-export membrane protein,SMc01024,-0.664252
CTP synthetase,SMc01025,-1.00139
2-dehydro-3-deoxyphosphooctonate aldolase,SMc01027,-0.581811
PROBABLE ENOLASE PROTEIN,SMc01028,-0.776628
DIHYDROLIPOAMIDE S-ACETYLTRANSFERASE PROTEIN,SMc01032,-0.633976
hypothetical protein,SMc01051,-0.806165
hypothetical protein,SMc01052,-0.559167
PROBABLE SIROHEME SYNTHASE PROTEIN,SMc01053,-0.566714
PUTATIVE ATP-DEPENDENT RNA HELICASE PROTEIN,SMc01090,-1.12511
PUTATIVE TRANSCRIPTION REGULATOR PROTEIN,SMc01092,0.784166
PUTATIVE MULTIDRUG EFFLUX SYSTEM TRANSMEMBRANE PROTEIN,SMc01094,-0.627388
PROBABLE MULTIDRUG-EFFLUX SYSTEM TRANSMEMBRANE PROTEIN,SMc01095,-0.742668
succinyl-diaminopimelate desuccinylase,SMc01096,-0.923861
hypothetical protein,SMc01102,-0.764232
PROBABLE CHEMORECEPTOR (METHYL-ACCEPTING CHEMOTAXIS) TRANSMEMBRANE PROTEIN,SMc01104,-1.01598
PROBABLE SMALL HEAT SHOCK PROTEIN,SMc01106,1.07696
hypothetical protein,SMc01107,0.80925
hypothetical protein,SMc01112,0.527245
hypothetical protein,SMc01113,0.607876
hypothetical protein,SMc01115,-0.683055
hypothetical protein,SMc01119,0.916139
tryptophanyl-tRNA synthetase,SMc01121,-0.89602
DNA mismatch repair protein,SMc01125,-0.535785
hypothetical protein,SMc01132,0.996774
hypothetical protein,SMc01133,0.925399
integration host factor beta subunit,SMc01134,0.633526
PROBABLE SIGMA54 MODULATION PROTEIN,SMc01140,0.544206
hypothetical protein,SMc01145,-1.09301
putative deoxyribonucleotide triphosphate pyrophosphatase,SMc01146,-0.802663
formamidopyrimidine-DNA glycosylase,SMc01154,0.677937
ubiquinone/menaquinone biosynthesis methyltransferase,SMc01155,-0.62186
PUTATIVE OXIDOREDUCTASE PROTEIN,SMc01157,-0.636466
PUTATIVE OXIDOREDUCTASE PROTEIN,SMc01163,-2.73054
hypothetical protein,SMc01164,-2.0156
PUTATIVE SUGAR KINASE PROTEIN,SMc01165,-2.31929
PUTATIVE MALONIC SEMIALDEHYDE OXIDATIVE DECARBOXYLASE PROTEIN,SMc01166,-1.94559
chromosomal replication initiation protein,SMc01167,-0.878834
PUTATIVE MULTIDRUG TRANSMEMBRANE RESISTANCE SIGNAL PEPTIDE PROTEIN,SMc01179,-0.81336
hypothetical protein,SMc01180,1.91686
PUTATIVE TRANSMEMBRANE PROTEIN,SMc01181,0.692416
LexA repressor,SMc01183,-0.692682
HYPOTHETICAL SIGNAL PEPTIDE PROTEIN,SMc01185,0.656171
hypothetical protein,SMc01198,-0.545259
queuine tRNA-ribosyltransferase,SMc01206,-0.848491
S-adenosylmethionine:tRNA ribosyltransferase-isomerase,SMc01207,-0.813778
hypothetical protein,SMc01211,-0.900399
carbamoyl-phosphate synthase large subunit,SMc01215,-2.28862
hypothetical protein,SMc01216,-1.16513
transcription elongation factor GreA,SMc01218,-0.897341
PUTATIVE LIPOPOLYSACCHARIDE CORE BIOSYNTHESIS MANNOSYLTRANSFERASE PROTEIN,SMc01219,-0.676314
PUTATIVE TRANSCRIPTION REGULATOR PROTEIN,SMc01225,0.593194
PUTATIVE TRANSCRIPTION REGULATOR PROTEIN,SMc01226,-2.33046
PUTATIVE GLYCEROL TRINITRATE (GTN) REDUCTASE PROTEIN,SMc01227,-1.48184
PUTATIVE ANTIBIOTIC RESISTANCE (KINASE) PROTEIN,SMc01228,-1.31784
PUTATIVE TRANSGLYCOSYLASE TRANSMEMBRANE PROTEIN,SMc01230,-0.81307
DNA gyrase subunit A,SMc01231,-0.626255
hypothetical protein,SMc01232,-0.741252
single-strand DNA-binding protein,SMc01233,-0.738187
ribonucleotide-diphosphate reductase alpha subunit,SMc01237,-1.26218
HYPOTHETICAL/UNKNOWN TRANSMEMBRANE PROTEIN,SMc01239,0.683586
hypothetical protein,SMc01241,-2.81182
SIGNAL PEPTIDE PROTEIN,SMc01242,-3.79477
tRNA-Asn-GTT,SMc01245,1.57716
tRNA-Cys-GCA,SMc01251,1.24833
hypothetical protein,SMc01257,-0.645174
hypothetical protein,SMc01258,-0.6597
hypothetical protein,SMc01265,0.5865
lipoyltransferase,SMc01268,0.653006
PROBABLE ALCOHOL DEHYDROGENASE CLASS III + GLUTATHIONE-DEPENDENT FORMALDEHYDE DEHYDROGENASE PROTEIN,SMc01270,-0.621034
hypothetical protein,SMc01271,-0.641254
hypothetical protein,SMc01272,-0.894537
PROBABLE CHAPERONE HOMOLOGUE TRANSMEMBRANE PROTEIN,SMc01278,-0.830143
50S ribosomal protein L17,SMc01283,-1.43757
DNA-directed RNA polymerase alpha subunit,SMc01285,-1.54755
30S ribosomal protein S11,SMc01286,-1.26263
30S ribosomal protein S13,SMc01287,-0.515484
adenylate kinase,SMc01288,-0.560249
preprotein translocase SecY,SMc01289,-0.948012
PROBABLE 50S RIBOSOMAL PROTEIN L15,SMc01290,-1.13279
50S ribosomal protein L30,SMc01291,-1.26798
30S ribosomal protein S5,SMc01292,-1.20635
50S ribosomal protein L18,SMc01293,-1.2133
50S ribosomal protein L6,SMc01294,-1.29078
30S ribosomal protein S8,SMc01295,-1.28051
30S ribosomal protein S14,SMc01296,-1.25938
50S ribosomal protein L5,SMc01297,-1.3936
50S ribosomal protein L24,SMc01298,-1.36479
50S ribosomal protein L14,SMc01299,-1.29343
30S ribosomal protein S17,SMc01300,-0.987638
PROBABLE 50S RIBOSOMAL PROTEIN L29,SMc01301,-1.18895
50S ribosomal protein L16,SMc01302,-1.38637
30S ribosomal protein S3,SMc01303,-1.41932
50S ribosomal protein L22,SMc01304,-1.62774
30S ribosomal protein S19,SMc01305,-1.59231
50S ribosomal protein L2,SMc01306,-1.61731
50S ribosomal protein L23,SMc01307,-1.73552
50S ribosomal protein L4,SMc01308,-1.92775
50S ribosomal protein L3,SMc01309,-2.00182
30S ribosomal protein S10,SMc01310,-1.85465
elongation factor EF-2,SMc01312,-1.72541
30S ribosomal protein S7,SMc01313,-1.89096
30S ribosomal protein S12,SMc01314,-1.59325
DNA-directed RNA polymerase beta' subunit,SMc01316,-1.10712
DNA-directed RNA polymerase beta subunit,SMc01317,-1.33654
50S ribosomal protein L7/L12,SMc01318,-0.893366
50S ribosomal protein L10,SMc01319,-1.04136
50S ribosomal protein L1,SMc01320,-1.53483
50S ribosomal protein L11,SMc01321,-1.65332
HYPOTHETICAL/UNKNOWN PROTEIN,SMc01325,-1.00622
PUTATIVE TRNA/RRNA METHYLTRANSFERASE PROTEIN,SMc01327,-0.786936
PUTATIVE TRANSCRIPTION REGULATOR PROTEIN,SMc01330,-1.23726
peptide chain release factor 2,SMc01333,-0.560234
PUTATIVE AMINOTRANSFERASE PROTEIN,SMc01340,-0.660795
PUTATIVE OUTER MEMBRANE PROTEIN,SMc01342,-0.495521
3-dehydroquinate dehydratase,SMc01343,-0.595744
acetyl-CoA carboxylase,SMc01344,-1.26029
acetyl-CoA carboxylase,SMc01345,-1.12277
PROBABLE LEUCYL/PHENYLALANYL-TRNA--PROTEIN TRANSFERASE,SMc01346,-0.525662
hypothetical protein,SMc01349,-0.725128
aspartyl/glutamyl-tRNA amidotransferase subunit B,SMc01350,-0.692329
glutamyl-tRNA amidotransferase subunit A,SMc01352,-0.811875
PUTATIVE GLUTAMYL-TRNA(GLN) AMIDOTRANSFERASE SUBUNIT C PROTEIN,SMc01353,-0.591362
PUTATIVE OXIDOREDUCTASE PROTEIN,SMc01359,-0.62984
aspartate carbamoyltransferase catalytic subunit,SMc01360,-1.0975
dihydroorotase,SMc01361,-1.06946
DNA polymerase IV,SMc01373,-0.619647
DNA polymerase III subunit alpha,SMc01375,-0.842204
tRNA-Tyr-GTA,SMc01378,1.23957
tRNA-Gly-TCC,SMc01379,1.34247
tRNA-Leu-GAG,SMc01380,1.09857
tRNA-Trp-CCA,SMc01381,1.23994
pyridoxal phosphate biosynthetic protein,SMc01407,-0.837235
PUTATIVE LIPOPROTEIN TRANSMEMBRANE,SMc01410,-1.05537
hypothetical protein,SMc01412,0.893814
HYPOTHETICAL SIGNAL PEPTIDE PROTEIN,SMc01418,0.842778
hypothetical protein,SMc01425,0.759179
hypothetical protein,SMc01427,1.5476
PROBABLE COLD SHOCK TRANSCRIPTION REGULATOR PROTEIN,SMc01428,1.08939
acetolactate synthase small subunit,SMc01430,-0.969699
acetolactate synthase III large subunit,SMc01431,-1.17193
hypothetical protein,SMc01447,1.05681
hypothetical protein,SMc01449,1.0914
hypothetical protein,SMc01464,-0.704079
PUTATIVE CREA PROTEIN,SMc01465,1.46918
HYPOTHETICAL SIGNAL PEPTIDE PROTEIN,SMc01470,-1.05738
ribosomal protein L11 methyltransferase,SMc01472,-0.573785
HYPOTHETICAL SIGNAL PEPTIDE PROTEIN,SMc01489,0.747053
PUTATIVE PHOSPHOSERINE PHOSPHATASE PROTEIN,SMc01494,-0.926888
PROBABLE SORBITOL-BINDING PERIPLASMIC PROTEIN,SMc01496,0.757444
PROBABLE SORBITOL/MANNITOL TRANSPORT INNER MEMBRANE TRANSMEMBRANE PROTEIN,SMc01497,0.551335
PROBABLE SORBITOL/MANNITOL TRANSPORT INNER MEMBRANE PROTEIN,SMc01498,0.567961
PROBABLE MANNITOL 2-DEHYDROGENASE PROTEIN,SMc01501,0.664468
PUTATIVE SUGAR KINASE PROTEIN,SMc01503,0.52876
PUTATIVE HEMIN TRANSPORT SYSTEM ATP-BINDING ABC TRANSPORTER PROTEIN,SMc01510,-0.758588
PUTATIVE HEMIN TRANSPORT SYSTEM PERMEASE TRANSMEMBRANE PROTEIN,SMc01511,-1.14098
PUTATIVE HEMIN BINDING PERIPLASMIC TRANSMEMBRANE PROTEIN,SMc01512,-0.818289
hypothetical protein,SMc01514,-0.818377
hypothetical protein,SMc01515,-0.915238
hypothetical protein,SMc01516,-0.799948
hypothetical protein,SMc01517,-1.20382
hypothetical protein,SMc01522,-0.62871
PUTATIVE METHYL VIOLOGEN/ETHIDIUM RESISTANCE TRANSMEMBRANE PROTEIN,SMc01523,1.03116
PUTATIVE DIPEPTIDE BINDING PERIPLASMIC PROTEIN,SMc01525,0.529453
hypothetical protein,SMc01547,0.910148
hypothetical protein,SMc01550,0.7119
HYPOTHETICAL SIGNAL PEPTIDE PROTEIN,SMc01557,-0.746667
hypothetical protein,SMc01559,0.600053
hypothetical protein,SMc01560,0.605848
DNA primase,SMc01567,-0.577584
carbamoyl-phosphate synthase small subunit,SMc01569,-1.21919
aspartate aminotransferase,SMc01578,-0.773487
hypothetical protein,SMc01580,1.37211
hypothetical protein,SMc01581,1.16553
hypothetical protein,SMc01583,0.585017
hypothetical protein,SMc01584,-0.56653
PUTATIVE COLD SHOCK TRANSCRIPTION REGULATOR PROTEIN,SMc01585,1.10142
hypothetical protein,SMc01591,0.668931
hypothetical protein,SMc01594,0.681101
PUTATIVE AMINO-ACID PERMEASE PROTEIN,SMc01597,0.876193
PUTATIVE PERMEASE PROTEIN,SMc01606,-0.830887
PUTATIVE FERRICHROME-IRON RECEPTOR PRECURSOR PROTEIN,SMc01611,-1.41
ribose-5-phosphate isomerase B,SMc01613,0.68522
PUTATIVE ERYTHRITOL PHOSPHATE DEHYDROGENASE PROTEIN,SMc01620,-0.646691
PUTATIVE PERIPLASMIC BINDING ABC TRANSPORTER PROTEIN,SMc01628,1.31864
PROBABLE ATP-BINDING ABC TRANSPORTER PROTEIN,SMc01631,-0.881524
PUTATIVE PERMEASE ABC TRANSPORTER PROTEIN,SMc01634,1.02974
hypothetical protein,SMc01637,3.42813
3-hydroxybutyryl-CoA dehydrogenase,SMc01638,3.58704
PUTATIVE ACYL-COA DEHYDROGENASE PROTEIN,SMc01639,2.98456
PUTATIVE PERIPLASMIC BINDING PROTEIN,SMc01647,0.984595
hypothetical protein,SMc01648,0.854695
PUTATIVE ESTERASE/LIPASE PROTEIN,SMc01650,-0.561254
PUTATIVE ATP-BINDING ABC TRANSPORTER PROTEIN,SMc01653,1.08556
PUTATIVE FERRICHROME-IRON RECEPTOR PRECURSOR PROTEIN,SMc01657,-1.07927
PUTATIVE TRANSPORT PROTEIN,SMc01658,-1.0974
methionine gamma-lyase,SMc01666,-0.814548
enoyl-CoA hydratase,SMc01669,-0.901137
hypothetical protein,SMc01671,-0.675709
hypothetical protein,SMc01711,0.672319
putative inner membrane protein translocase component YidC,SMc01721,-0.655217
GTP-binding protein,SMc01722,-0.682948
acetylglutamate kinase,SMc01726,-0.635803
hypothetical protein,SMc01731,-0.799125
tRNA-Arg-ACG,SMc01733,1.32856
PUTATIVE L-LACTATE DEHYDROGENASE (CYTOCHROME) PROTEIN,SMc01740,0.654781
hypothetical protein,SMc01742,-0.626713
aspartyl-tRNA synthetase,SMc01756,-1.39374
chaperonin GroEL,SMc01758,1.31733
hypothetical protein,SMc01759,1.83388
DNA topoisomerase IV subunit A,SMc01761,-0.645424
delta-aminolevulinic acid dehydratase,SMc01766,-0.553546
serine hydroxymethyltransferase,SMc01770,-0.696167
hypothetical protein,SMc01771,-0.596884
riboflavin synthase subunit alpha,SMc01773,0.643787
riboflavin synthase subunit beta,SMc01777,-1.37932
transcription antitermination protein NusB,SMc01778,-1.40423
PUTATIVE TRANSPORT TRANSMEMBRANE PROTEIN,SMc01779,-1.1716
membrane-bound proton-translocating pyrophosphatase,SMc01780,0.670061
hypothetical protein,SMc01782,-0.613654
hypothetical protein,SMc01783,-0.850743
3-oxoacyl-(acyl carrier protein) synthase,SMc01785,-0.729188
integration host factor alpha subunit,SMc01786,0.607163
hypothetical protein,SMc01788,0.731071
PUTATIVE POLYSACCHARIDE SYNTHESIS/TRANSPORT TRANSMEMBRANE PROTEIN,SMc01795,-0.774787
hypothetical protein,SMc01798,-0.723026
30S ribosomal protein S9,SMc01803,-1.51644
50S ribosomal protein L13,SMc01804,-1.58292
PUTATIVE CYTOCHROME P450-LIKE MONOOXYGENASE PROTEIN,SMc01812,-0.691788
hypothetical protein,SMc01813,1.00649
dihydropyrimidine dehydrogenase,SMc01815,0.62327
PUTATIVE TRANSCRIPTION REGULATOR PROTEIN,SMc01817,-0.750423
PUTATIVE TRANSCRIPTION REGULATOR PROTEIN,SMc01819,0.621716
hypothetical protein,SMc01822,0.685118
hypothetical protein,SMc01824,0.759811
hypothetical protein,SMc01827,0.595235
hypothetical protein,SMc01834,-0.900454
UREASE ALPHA SUBUNIT PROTEIN,SMc01837,0.598473
PUTATIVE METHYLTRANSFERASE TRANSCRIPTION REGULATOR PROTEIN,SMc01842,-0.709132
hypothetical protein,SMc01844,-1.11336
PUTATIVE TRANSGLYCOSYLASE TRANSMEMBRANE PROTEIN,SMc01845,-0.524249
hypothetical protein,SMc01848,-1.153
hypothetical protein,SMc01850,-0.49545
PUTATIVE AMINO ACID EFFLUX PROTEIN,SMc01851,-0.832624
diphosphate--fructose-6-phosphate 1-phosphotransferase,SMc01852,-0.935101
PUTATIVE TRANSPORT TRANSMEMBRANE PROTEIN,SMc01869,-2.0343
cell division protein FtsZ,SMc01874,-0.568677
DNA ligase,SMc01878,-0.557722
NADH dehydrogenase delta subunit,SMc01915,-0.543753
ATP synthase subunit E,SMc01917,-0.683978
NADH DEHYDROGENASE I CHAIN F TRANSMEMBRANE PROTEIN,SMc01918,-0.692761
hypothetical protein,SMc01919,-0.717129
NADH dehydrogenase gamma subunit,SMc01920,-0.580357
NADH dehydrogenase subunit H,SMc01921,-0.642352
NADH dehydrogenase subunit I,SMc01922,-0.517257
NADH dehydrogenase subunit J,SMc01923,-0.916593
NADH dehydrogenase kappa subunit,SMc01924,-0.745176
NADH dehydrogenase subunit L,SMc01925,-0.821338
NADH dehydrogenase subunit N,SMc01927,-0.606988
prolyl-tRNA synthetase,SMc01934,-0.675642
tRNA-Val-TAC,SMc01938,1.14891
PUTATIVE SPERMIDINE/PUTRESCINE-BINDING PERIPLASMIC ABC TRANSPORTER PROTEIN,SMc01966,1.09956
PUTATIVE AGMATINASE PROTEIN,SMc01967,1.71718
PUTATIVE ALDEHYDE DEHYDROGENASE PROTEIN,SMc01971,0.605453
PROBABLE ALTERNATIVE CYTOCHROME C OXIDASE POLYPEPTIDE II TRANSMEMBRANE PROTEIN,SMc01982,0.891124
PROBABLE ALTERNATIVE CYTOCHROME C OXIDASE POLYPEPTIDE I TRANSMEMBRANE PROTEIN,SMc01983,0.837144
hypothetical protein,SMc01988,-0.558655
PUTATIVE PERMEASE PROTEIN,SMc02031,-0.996752
trigger factor,SMc02050,-1.08685
hypothetical protein,SMc02051,0.638613
glucose-inhibited division protein A,SMc02053,-0.884167
PUTATIVE PHYTOENE SYNTHASE PROTEIN,SMc02055,-0.724328
PUTATIVE PROTEIN-EXPORT MEMBRANE PROTEIN,SMc02057,-0.74076
PROBABLE YAJC PROTEIN,SMc02058,-0.826316
hypothetical protein,SMc02059,-0.887228
seryl-tRNA synthetase,SMc02064,-0.841257
hypothetical protein,SMc02072,-0.545118
arginyl-tRNA synthetase,SMc02073,-1.23753
hypothetical protein,SMc02075,0.720548
PUTATIVE OUTER MEMBRANE PROTEIN,SMc02079,0.513804
valyl-tRNA synthetase,SMc02080,-0.597241
PUTATIVE OUTER MEMBRANE SECRETION PROTEIN,SMc02082,-0.532861
PUTATIVE METHYLTRANSFERASE (PCM-LIKE) TRANSMEMBRANE PROTEIN,SMc02083,-0.67598
PROBABLE BIOPOLYMER TRANSPORT TRANSMEMBRANE PROTEIN,SMc02084,-0.689858
PROBABLE BIOPOLYMER TRANSPORT TRANSMEMBRANE PROTEIN,SMc02085,-0.73488
UDP-3-O-[3-hydroxymyristoyl] glucosamine N-acyltransferase,SMc02093,-0.700141
ribosome releasing factor,SMc02098,-0.776219
uridylate kinase,SMc02099,-1.20697
elongation factor Ts,SMc02100,-1.77873
30S ribosomal protein S2,SMc02101,-1.88997
PROBABLE ATP-DEPENDENT CLP PROTEASE ATP-BINDING SUBUNIT PROTEIN,SMc02109,0.641328
hypothetical protein,SMc02111,0.540995
cystathionine beta-lyase,SMc02117,-0.612636
PROBABLE GENERAL L-AMINO ACID TRANSPORT PERMEASE ABC TRANSPORTER PROTEIN,SMc02119,0.50469
PROBABLE PHOSPHATE TRANSPORT ATP-BINDING ABC TRANSPORTER PROTEIN,SMc02142,0.547535
hypothetical protein,SMc02148,1.05299
hypothetical protein,SMc02156,0.766066
PUTATIVE TRANSPORT TRANSMEMBRANE PROTEIN,SMc02161,-0.880903
acyl-CoA synthase,SMc02162,0.785914
glucose-6-phosphate isomerase,SMc02163,-0.836861
orotate phosphoribosyltransferase,SMc02165,-0.570649
dihydroorotase,SMc02166,-0.751681
PUTATIVE PERIPLASMIC BINDING ABC TRANSPORTER PROTEIN,SMc02171,1.19821
PUTATIVE TRANSCRIPTION REGULATOR PROTEIN,SMc02172,0.755088
hypothetical protein,SMc02173,1.18531
hypothetical protein,SMc02174,0.965999
PUTATIVE ADENYLATE CYCLASE TRANSMEMBRANE PROTEIN,SMc02176,1.34068
hypothetical protein,SMc02178,-1.36672
BIFUNCTIONAL: PROLINE DEHYDROGENASE AND DELTA-1-PYRROLINE-5-CARBOXYLATE DEHYDROGENASE PROTEIN,SMc02181,-0.945433
tRNA-Thr-CGT,SMc02183,1.45596
PUTATIVE INTEGRASE DNA PROTEIN,SMc02187,0.778885
hypothetical protein,SMc02202,0.95094
tRNA-Gly-CCC,SMc02206,2.05347
tRNA-Thr-GGT,SMc02208,1.21271
O-succinylhomoserine sulfhydrylase,SMc02217,-1.22476
hypothetical protein,SMc02221,0.727139
PUTATIVE TRANSCRIPTION REGULATOR PROTEIN,SMc02223,-0.742884
PUTATIVE ACYL-COA DEHYDROGENASE PROTEIN,SMc02229,1.12629
hypothetical protein,SMc02230,-0.519747
hypothetical protein,SMc02242,0.661572
dihydroorotate dehydrogenase,SMc02245,-0.7668
PUTATIVE HIPPURATE HYDROLASE PROTEIN,SMc02256,0.659989
PUTATIVE TRANSPORT SYSTEM PERMEASE ABC TRANSPORTER PROTEIN,SMc02257,0.937916
PUTATIVE PERIPLASMIC BINDING ABC TRANSPORTER PROTEIN,SMc02259,1.02404
PUTATIVE PROTEIN-EXPORT MEMBRANE PROTEIN,SMc02265,-0.564754
hypothetical protein,SMc02266,0.86531
HYPOTHETICAL UNKNOWN TRANSMEMBRANE PROTEIN,SMc02278,0.915394
HYPOTHETICAL SIGNAL PEPTIDE PROTEIN,SMc02279,0.725788
PUTATIVE COPPER-CONTAINING OXIDOREDUCTASE PROTEIN,SMc02282,-0.845356
PUTATIVE TYPE I RESTRICTION ENZYME R PROTEIN,SMc02292,1.03837
PUTATIVE INTEGRASE/RESOLVASE RECOMBINASE PROTEIN,SMc02297,0.59035
hypothetical protein,SMc02304,-0.779522
UDP-N-acetylglucosamine 1-carboxyvinyltransferase,SMc02305,-1.07367
HYPOTHETICAL UNKNOWN PROTEIN,SMc02315,1.16833
short chain dehydrogenase,SMc02322,-0.760828
PUTATIVE PERIPLASMIC BINDING ABC TRANSPORTER PROTEIN,SMc02324,0.776233
hypothetical protein,SMc02326,0.602725
PUTATIVE TRANSPORT TRANSMEMBRANE PROTEIN,SMc02343,-1.1604
hypothetical protein,SMc02351,0.765581
PUTATIVE HIGH-AFFINITY BRANCHED-CHAIN AMINO ACID TRANSPORT ATP-BINDING ABC TRANSPORTER PROTEIN,SMc02357,-0.813518
PUTATIVE HIGH-AFFINITY BRANCHED-CHAIN AMINO ACID TRANSPORT ATP-BINDING ABC TRANSPORTER PROTEIN,SMc02358,-0.889091
PUTATIVE HIGH-AFFINITY BRANCHED-CHAIN AMINO ACID TRANSPORT PERMEASE ABC TRANSPORTER PROTEIN,SMc02359,-0.957824
PUTATIVE BRANCHED CHAIN AMINO ACID TRANSPORT SYSTEM PERMEASE ABC TRANSPORTER PROTEIN,SMc02360,-1.1093
PROBABLE AMINOPEPTIDASE N PROTEIN,SMc02370,-0.58283
HYPOTHETICAL UNKNOWN PROTEIN,SMc02373,-0.831676
HYPOTHETICAL UNKNOWN PROTEIN,SMc02374,-0.745998
PUTATIVE HEAT SHOCK PROTEIN,SMc02376,-1.09557
hypothetical protein,SMc02382,1.37379
AMP nucleosidase,SMc02386,-0.721843
HYPOTHETICAL UNKNOWN TRANSMEMBRANE PROTEIN,SMc02389,-1.52771
PUTATIVE GLUTATHIONE S-TRANSFERASE PROTEIN,SMc02390,1.43148
hypothetical protein,SMc02391,0.92635
hypothetical protein,SMc02392,-0.673972
histidinol-phosphate aminotransferase,SMc02393,-0.798401
PUTATIVE INTEGRASE PROTEIN,SMc02397,-0.729109
hypothetical protein,SMc02401,0.734894
DNA-directed RNA polymerase omega subunit,SMc02408,-0.648193
tRNA-Ser-GCT,SMc02409,1.68664
PUTATIVE PEPTIDE TRANSPORT SYSTEM PERMEASE ABC TRANSPORTER PROTEIN,SMc02418,0.648795
PROBABLE ATP-DEPENDENT PROTEASE (HEAT SHOCK PROTEIN),SMc02433,1.05585
hypothetical protein,SMc02434,-0.910217
PUTATIVE METHYLTRANSFERASE PROTEIN,SMc02435,0.766434
peptide chain release factor 1,SMc02436,-0.816291
PROBABLE PHOSPHOENOLPYRUVATE PHOSPHOTRANSFERASE PTSP (ENZYME I-NTR) PROTEIN,SMc02437,-0.496882
aspartate kinase,SMc02438,-0.823548
hypothetical protein,SMc02441,0.958753
PUTATIVE HYDROLASE PROTEIN,SMc02442,0.795531
PROBABLE GLUTAREDOXIN 3 PROTEIN,SMc02443,1.11046
"PUTATIVE MUTATOR PROTEIN 7,8-DIHYDRO-8-OXOGUANINE-TRIPHOSPHATASE",SMc02448,-0.824641
PUTATIVE ACETYLTRANSFERASE PROTEIN,SMc02449,-1.21208
bifunctional ornithine acetyltransferase/N-acetylglutamate synthase protein,SMc02450,-1.2417
PROBABLE SUCCINATE DEHYDROGENASE CYTOCHROME B-556 SUBUNIT TRANSMEMBRANE PROTEIN,SMc02463,-0.574901
PROBABLE SUCCINATE DEHYDROGENASE MEMBRANE ANCHOR SUBUNIT PROTEIN,SMc02464,-0.715266
succinate dehydrogenase,SMc02465,-0.686235
PUTATIVE OXIDOREDUCTASE PROTEIN,SMc02469,0.632242
malate dehydrogenase,SMc02479,-1.11515
succinyl-CoA synthetase subunit beta,SMc02480,-0.962101
succinyl-CoA synthetase alpha subunit,SMc02481,-1.15301
PROBABLE 2-OXOGLUTARATE DEHYDROGENASE E1 COMPONENT PROTEIN,SMc02482,-0.830672
dihydrolipoamide acetyltransferase,SMc02483,-0.953349
PUTATIVE AMINO ACID EFFLUX TRANSMEMBRANE PROTEIN,SMc02484,-1.0682
dihydrolipoamide dehydrogenase,SMc02487,-0.986623
hypothetical protein,SMc02490,0.978359
hypothetical protein,SMc02491,0.809134
hypothetical protein,SMc02492,1.00974
transaldolase,SMc02495,-0.549217
ATP synthase subunit A,SMc02499,-0.971283
ATP synthase subunit C,SMc02500,-0.920758
ATP synthase subunit B,SMc02501,-0.554192
hypothetical protein,SMc02505,1.46558
PUTATIVE IRON TRANSPORT ATP-BINDING ABC TRANSPORTER PROTEIN,SMc02508,1.32186
PUTATIVE IRON-BINDING PERIPLASMIC ABC TRANSPORTER PROTEIN,SMc02509,0.808122
PROBABLE FERRIC UPTAKE REGULATION PROTEIN,SMc02510,0.564839
PUTATIVE PERMEASE TRANSMEMBRANE PROTEIN,SMc02512,1.15436
PUTATIVE ATP-BINDING ABC TRANSPORTER PROTEIN,SMc02518,-0.677762
PUTATIVE ATP-BINDING ABC TRANSPORTER PROTEIN,SMc02519,-1.30743
PUTATIVE GLYCEROL-3-PHOSPHATE DEHYDROGENASE PROTEIN,SMc02520,-2.02578
PUTATIVE GLYCEROL-3-PHOSPHATE REGULON REPRESSOR TRANSCRIPTION REGULATOR PROTEIN,SMc02521,-1.93261
PUTATIVE OXIDOREDUCTASE PROTEIN,SMc02522,-1.13954
hypothetical protein,SMc02545,-0.815005
HYPOTHETICAL UNKNOWN PROTEIN,SMc02552,0.586602
phosphoenolpyruvate carboxykinase,SMc02562,-0.98178
ATP-dependent protease peptidase subunit,SMc02575,1.34553
HYPOTHETICAL ACETYLTRANSFERASE PROTEIN,SMc02576,1.2906
ATP-dependent protease ATP-binding subunit,SMc02577,1.07358
hypothetical protein,SMc02578,-0.710847
malate synthase,SMc02581,-0.855979
hypothetical protein,SMc02582,-0.974604
hypothetical protein,SMc02589,0.646701
hypothetical protein,SMc02594,1.14544
PUTATIVE TRANSPORT TRANSMEMBRANE PROTEIN,SMc02603,-0.57158
GLUTAMINE SYNTHETASE III PROTEIN,SMc02613,1.23144
hypothetical protein,SMc02619,1.27882
hypothetical protein,SMc02631,-0.582632
DNA repair protein RecO,SMc02635,-0.562864
hypothetical protein,SMc02636,-0.731926
hypothetical protein,SMc02637,-0.899082
hypothetical protein,SMc02644,-0.974373
PUTATIVE CYCLOPROPANE-FATTY-ACYL-PHOSPHOLIPID SYNTHASE PROTEIN,SMc02645,0.61338
hypothetical protein,SMc02646,0.749419
hypothetical protein,SMc02683,-0.659684
ribose-phosphate pyrophosphokinase,SMc02686,-1.22763
hypothetical protein,SMc02687,-1.25376
PROBABLE ALDEHYDE DEHYDROGENASE PROTEIN,SMc02689,0.509682
PUTATIVE MEMBRANE TRANSPORT PROTEIN,SMc02691,-0.992834
50S ribosomal protein L25,SMc02692,-1.23425
peptidyl-tRNA hydrolase,SMc02693,-0.7464
PUTATIVE GTP-BINDING PROTEIN,SMc02695,-1.13319
hypothetical protein,SMc02696,0.82106
hypothetical protein,SMc02699,0.614642
hypothetical protein,SMc02703,-0.742292
hypothetical protein,SMc02707,-1.55941
PUTATIVE RNA POLYMERASE SIGMA-E FACTOR (SIGMA-24) PROTEIN,SMc02713,-0.693644
hypothetical protein,SMc02716,-0.779274
2-isopropylmalate synthase,SMc02717,-1.48186
HYPOTHETICAL/UNKNOWN PROTEIN,SMc02718,-1.28607
ATP-dependent Clp protease proteolytic subunit,SMc02720,0.661928
ANTHRANILATE SYNTHASE INCLUDES: GLUTAMINE AMIDOTRANSFERASE PROTEIN,SMc02725,-1.28798
PUTATIVE IRON TRANSPORT PROTEIN,SMc02726,-2.01767
hypothetical protein,SMc02727,0.936017
PROBABLE FORMATE--TETRAHYDROFOLATE LIGASE PROTEIN,SMc02728,0.694365
hypothetical protein,SMc02729,0.517872
hypothetical protein,SMc02732,0.981662
hypothetical protein,SMc02733,0.631847
hypothetical protein,SMc02734,1.23442
hypothetical protein,SMc02735,1.29571
thymidine kinase,SMc02736,-1.03565
S-adenosyl-L-homocysteine hydrolase,SMc02755,-0.658621
PROBABLE THIOREDOXIN PROTEIN,SMc02761,0.946552
tryptophan synthase subunit alpha,SMc02765,-0.675837
tryptophan synthase subunit beta,SMc02766,-0.572065
hypothetical protein,SMc02769,1.92013
PUTATIVE ZINC-TYPE ALCOHOL DEHYDROGENASE PROTEIN,SMc02771,0.692495
PUTATIVE SUGAR ABC TRANSPORTER PERMEASE PROTEIN,SMc02772,0.876699
PUTATIVE TRANSLOCASE TRANSMEMBRANE PROTEIN,SMc02786,0.608384
export protein SecB,SMc02788,-0.730633
tRNA modification GTPase,SMc02797,-1.05179
glucose-inhibited division protein A,SMc02798,-0.688054
glucose-inhibited division protein B,SMc02799,-0.625516
PROBABLE CHROMOSOME PARTITIONING PROTEIN PARB,SMc02801,-0.499771
hypothetical protein,SMc02803,-0.676209
leucyl-tRNA synthetase,SMc02804,-0.967195
PUTATIVE RIBONUCLEASE PROTEIN,SMc02819,-0.652185
PUTATIVE HYDROXYACID DEHYDROGENASE PROTEIN,SMc02828,0.731817
PUTATIVE PERIPLASMIC BINDING PROTEIN,SMc02832,0.498795
PUTATIVE TRANSCRIPTION REGULATOR PROTEIN,SMc02844,-1.14617
PUTATIVE SUGAR KINASE PROTEIN,SMc02846,-0.65243
hypothetical protein,SMc02847,-0.770433
HYPOTHETICAL SIGNAL PEPTIDE PROTEIN,SMc02854,0.746598
PROBABLE CHAPERONE PROTEIN,SMc02858,0.562165
recombination protein F,SMc02863,0.570504
PUTATIVE MULTIDRUG-EFFLUX SYSTEM TRANSMEMBRANE PROTEIN,SMc02867,-0.754808
PUTATIVE MULTIDRUG EFFLUX SYSTEM PROTEIN,SMc02868,-0.834749
PUTATIVE ATP-BINDING ABC TRANSPORTER PROTEIN,SMc02869,2.00237
PUTATIVE OXIDOREDUCTASE PROTEIN,SMc02870,2.11865
PUTATIVE PERMEASE ABC TRANSPORTER PROTEIN,SMc02871,2.44014
PUTATIVE PERMEASE ABC TRANSPORTER PROTEIN,SMc02872,2.24293
PUTATIVE PERIPLASMIC BINDING (SIGNAL PEPTIDE) ABC TRANSPORTER PROTEIN,SMc02873,2.85364
hypothetical protein,SMc02874,3.12822
hypothetical protein,SMc02875,3.24018
PUTATIVE TRANSCRIPTION REGULATOR PROTEIN,SMc02876,3.23198
hypothetical protein,SMc02877,1.98066
PROBABLE N-ACETYLGLUCOSAMINE-6-PHOSPHATE DEACETYLASE PROTEIN,SMc02878,1.86804
hypothetical protein,SMc02881,-0.877753
PUTATIVE TRANSMEMBRANE PROTEIN,SMc02882,1.34732
hypothetical protein,SMc02883,1.13879
PROBABLE PEPTIDE METHIONINE SULFOXIDE REDUCTASE PROTEIN,SMc02885,0.894443
CONSERVED HYPOTHETICAL SIGNAL PEPTIDE PROTEIN,SMc02886,1.16034
3-deoxy-manno-octulosonate cytidylyltransferase,SMc02898,-1.15282
prephenate dehydratase,SMc02899,-0.937155
hypothetical protein,SMc02901,-0.768352
recombination protein RecR,SMc02908,-0.748172
hypothetical protein,SMc02913,-0.731101
translation initiation factor IF-2,SMc02914,-0.799789
tRNA-Ser-GGA,SMc02915,1.62973
PROBABLE PEPTIDOGLYCAN-ASSOCIATED LIPOPROTEIN PRECURSOR,SMc02942,-0.593451
PUTATIVE AMINO ACID EFFLUX TRANSMEMBRANE PROTEIN,SMc02981,0.6982
hypothetical protein,SMc02982,-1.22249
"PUTATIVE ORNITHINE, DAP, OR ARGININE DECARBOXYLASE PROTEIN",SMc02983,-0.520856
PUTATIVE CHEMORECEPTOR (METHYL-ACCEPTING CHEMOTAXIS PROTEIN),SMc03004,-0.819946
hypothetical protein,SMc03005,-0.913526
CHEMOTAXIS PROTEIN (SENSORY TRANSDUCTION HISTIDINE KINASE),SMc03007,-0.595307
FLAGELLIN B PROTEIN,SMc03038,-0.821519
PROBABLE FLAGELLIN D PROTEIN,SMc03039,-0.50181
ALPHA-GLUCOSIDES-BINDING PERIPLASMIC ABC TRANSPORTER PROTEIN,SMc03061,0.734263
ALPHA-GLUCOSIDES TRANSPORT SYSTEM PERMEASE ABC TRANSPORTER PROTEIN,SMc03062,0.812417
ALPHA-GLUCOSIDES TRANSPORT SYSTEM PERMEASE ABC TRANSPORTER PROTEIN,SMc03063,0.743424
tRNA-Arg-CCT,SMc03076,1.47927
PUTATIVE CHEMOTAXIS PROTEIN,SMc03090,0.543822
PROBABLE ARGINASE PROTEIN,SMc03091,1.32988
hypothetical protein,SMc03093,-0.875512
hypothetical protein,SMc03100,-0.913351
PUTATIVE CARBON MONOXIDE DEHYDROGENASE LARGE SUBUNIT TRANSMEMBRANE PROTEIN,SMc03102,0.927992
PUTATIVE CARBON MONOXIDE DEHYDROGENASE MEDIUM SUBUNIT TRANSMEMBRANE PROTEIN,SMc03103,0.86495
HYPOTHETICAL CALCIUM-BINDING PROTEIN,SMc03108,-1.08873
PUTATIVE PERMEASE ABC TRANSPORTER PROTEIN,SMc03117,1.21063
PUTATIVE PERMEASE ABC TRANSPORTER PROTEIN,SMc03118,0.597411
PUTATIVE PERIPLASMIC BINDING ABC TRANSPORTER PROTEIN,SMc03121,1.00684
PUTATIVE TRANSPORT SYSTEM PERMEASE ABC TRANSPORTER PROTEIN,SMc03127,0.826827
PUTATIVE AMINO ACID-BINDING PERIPLASMIC ABC TRANSPORTER PROTEIN,SMc03131,0.633627
PUTATIVE AMINO-ACID TRANSPORT SYSTEM ATP-BINDING ABC TRANSPORTER PROTEIN,SMc03135,0.928211
PUTATIVE TRANSPORT PROTEIN,SMc03146,0.681452
PUTATIVE TRANSCRIPTION REGULATOR PROTEIN,SMc03150,1.06578
hypothetical protein,SMc03151,0.523899
hypothetical protein,SMc03152,1.19745
hypothetical protein,SMc03154,0.86911
hypothetical protein,SMc03155,0.963935
hypothetical protein,SMc03156,-0.607183
PUTATIVE OUTER MEMBRANE LIPOPROTEIN TRANSMEMBRANE,SMc03157,-1.73934
PUTATIVE PERMEASE ABC TRANSPORTER PROTEIN,SMc03158,-1.39765
PUTATIVE ATP-BINDING ABC TRANSPORTER PROTEIN,SMc03159,-1.22413
PROBABLE BETA-GLUCOSIDASE PROTEIN,SMc03160,-0.835897
hypothetical protein,SMc03162,0.580373
hypothetical protein,SMc03171,1.08627
glutamyl-tRNA synthetase,SMc03172,-1.42734
LYSYL-TRNA SYNTHETASE PROTEIN,SMc03173,-1.28458
DNA ligase,SMc03177,0.570376
PROBABLE COBALAMIN BIOSYNTHESIS PROTEIN,SMc03193,-0.613992
PUTATIVE AMINO ACID DEAMINASE TRANSMEMBRANE PROTEIN,SMc03200,-0.623511
PROBABLE 2-OXOISOVALERATE DEHYDROGENASE ALPHA SUBUNIT PROTEIN,SMc03201,1.1908
PROBABLE 2-OXOISOVALERATE DEHYDROGENASE BETA SUBUNIT PROTEIN,SMc03202,1.53916
dihydrolipoamide acetyltransferase,SMc03203,1.33226
dihydrolipoamide dehydrogenase,SMc03204,1.12227
MALEYLACETOACETATE ISOMERASE (GLUTATHIONE TRANSFERASE ZETA 1) PROTEIN,SMc03206,0.873372
PUTATIVE AROMATIC AMINO ACID DEGRADATION PROTEIN,SMc03207,0.547242
"homogentisate 1,2-dioxygenase",SMc03208,1.03456
PUTATIVE 4-HYDROXYPHENYLPYRUVATE DIOXYGENASE PROTEIN,SMc03211,0.542767
hypothetical protein,SMc03228,-0.606431
PROBABLE O-SIALOGLYCOPROTEIN ENDOPEPTIDASE,SMc03230,-0.728415
glutamine amidotransferase,SMc03236,0.587909
PUTATIVE TRANSPORT TRANSMEMBRANE PROTEIN,SMc03237,-0.594815
hypothetical protein,SMc03238,0.823374
PROBABLE GTP-BINDING PROTEIN (TYROSINE PHOSPHORYLATED PROTEIN A),SMc03242,-0.842947
hypothetical protein,SMc03244,-0.774334
PUTATIVE INTEGRASE DNA PROTEIN,SMc03246,0.848298
hypothetical protein,SMc03251,1.4099
gamma-glutamyl kinase,SMc03252,2.05986
PUTATIVE L-PROLINE 3-HYDROXYLASE PROTEIN,SMc03253,1.49681
PUTATIVE PEPTIDE TRANSPORT SYSTEM ATP-BINDING ABC TRANSPORTER PROTEIN,SMc03268,0.717
PUTATIVE PEPTIDE-BINDING PERIPLASMIC ABC TRANSPORTER PROTEIN,SMc03269,0.678486
hypothetical protein,SMc03744,1.19237
HYPOTHETICAL/UNKNOWN PROTEIN,SMc03746,1.28407
hypothetical protein,SMc03748,0.932405
PUTATIVE PEPTIDE TRANSPORT SYSTEM PERMEASE ABC TRANSPORTER PROTEIN,SMc03754,0.615504
hypothetical protein,SMc03761,0.876116
"PROBABLE DNA MISMATCH ENDONUCLEASE, PATCH REPAIR PROTEIN",SMc03764,0.797451
hypothetical protein,SMc03765,0.621682
PROBABLE 50S RIBOSOMAL PROTEIN L21,SMc03770,-1.13526
50S ribosomal protein L27,SMc03772,-1.03557
hypothetical protein,SMc03773,-1.42998
PUTATIVE GTP-BINDING PROTEIN,SMc03775,-0.576575
gamma-glutamyl kinase,SMc03776,-0.80453
tRNA-Ser-CGA,SMc03779,0.7742
hypothetical protein,SMc03780,1.56361
hypothetical protein,SMc03781,1.21448
hypothetical protein,SMc03787,0.924348
hypothetical protein,SMc03791,0.562782
HYPOTHETICAL/UNKNOWN TRANSMEMBRANE PROTEIN,SMc03794,1.19061
homoserine O-succinyltransferase,SMc03797,-0.769962
hypothetical protein,SMc03802,0.85348
hypothetical protein,SMc03803,1.21663
PUTATIVE PERIPLASMIC BINDING ABC TRANSPORTER PROTEIN,SMc03813,0.699371
PUTATIVE ATP BINDING ABC TRANSPORTER PROTEIN,SMc03815,0.776721
PUTATIVE EXODEOXYRIBONUCLEASE III PROTEIN,SMc03818,-1.0742
isopropylmalate isomerase large subunit,SMc03823,-1.21013
PUTATIVE AMINO ACID EFFLUX TRANSMEMBRANE PROTEIN,SMc03827,-0.740877
PUTATIVE TRANSPORT SYSTEM PERMEASE ABC TRANSPORTER PROTEIN,SMc03829,-0.918308
hypothetical protein,SMc03830,-0.946476
hypothetical protein,SMc03831,-1.29482
hypothetical protein,SMc03833,1.8212
PUTATIVE PTERIN-4-ALPHA-CARBINOLAMINE DEHYDRATASE PROTEIN,SMc03834,0.81914
PUTATIVE ACYL-COA THIOESTERASE I PROTEIN,SMc03836,0.585532
PUTATIVE ATP-BINDING ABC TRANSPORTER PROTEIN,SMc03837,1.10188
hypothetical protein,SMc03838,1.02311
hypothetical protein,SMc03839,0.954103
hypothetical protein,SMc03845,-0.864854
aconitate hydratase,SMc03846,-0.956258
PROBABLE SIGNAL RECOGNITION PARTICLE PROTEIN (FIFTY-FOUR HOMOLOG),SMc03857,-0.676498
chorismate mutase,SMc03858,-1.17701
PROBABLE 30S RIBOSOMAL PROTEIN S16,SMc03859,-1.63212
16S rRNA-processing protein,SMc03860,-0.603899
50S ribosomal protein L19,SMc03863,-1.67121
PUTATIVE ATP-BINDING ABC TRANSPORTER PROTEIN,SMc03866,-0.982654
hypothetical protein,SMc03867,-0.933039
hypothetical protein,SMc03868,-1.06751
PUTATIVE PERIPLASMIC BINDING ABC TRANSPORTER PROTEIN,SMc03869,0.59484
thiamin ABC transporter membrane component,SMc03870,0.796777
ACETOACETYL-COA REDUCTASE PROTEIN,SMc03878,0.85781
hypothetical protein,SMc03880,0.528279
PROBABLE GERANYLTRANSTRANSFERASE PROTEIN,SMc03884,-0.554913
PUTATIVE TRANSCRIPTION REGULATOR PROTEIN,SMc03890,-0.873484
BETA-1-->2GLUCAN EXPORT ATP-BINDING PROTEIN,SMc03900,-1.62156
tRNA-Gly-GCC,SMc03902,1.1211
glycogen branching enzyme,SMc03922,1.15288
glucose-1-phosphate adenylyltransferase,SMc03923,1.15646
glycogen synthase,SMc03924,-0.784929
PUTATIVE SARCOSINE OXIDASE ALPHA SUBUNIT TRANSMEMBRANE PROTEIN,SMc03931,-0.818897
PROBABLE NAD(P) TRANSHYDROGENASE SUBUNIT ALPHA PART 2 TRANSMEMBRANE PROTEIN,SMc03939,0.584544
Holliday junction DNA helicase motor protein,SMc03966,-0.91529
Holliday junction resolvase,SMc03967,-1.15757
PUTATIVE OXIDOREDUCTASE PROTEIN,SMc03968,0.831726
hypothetical protein,SMc03969,-1.39205
transketolase,SMc03978,-0.760231
PROBABLE FRUCTOSE-BISPHOSPHATE ALDOLASE CLASS I PROTEIN,SMc03983,-0.721604
50S ribosomal protein L31,SMc03990,-0.639027
PUTATIVE INOSITOL MONOPHOSPHATASE PROTEIN,SMc03994,-0.631139
hypothetical protein,SMc03999,1.07054
PROBABLE HOMOSPERMIDINE SYNTHASE PROTEIN,SMc04016,-0.975599
PUTATIVE MEMBRANE-BOUND LYTIC MUREIN TRANSGLYCOSYLASE PROTEIN,SMc04024,-0.486288
PROBABLE GLUTAMATE SYNTHASE NADPH LARGE CHAIN PROTEIN,SMc04028,-0.548273
PUTATIVE LOW SPECIFICITY L-THREONINE ALDOLASE PROTEIN,SMc04029,-0.795265
hypothetical protein,SMc04030,-0.538267
PROBABLE HEAT SHOCK PROTEIN,SMc04040,2.21459
dihydroxy-acid dehydratase,SMc04045,-0.853271
hypothetical protein,SMc04046,0.869309
PUTATIVE TRANSCRIPTION REGULATOR PROTEIN,SMc04052,-0.911717
PUTATIVE OXIDOREDUCTASE PROTEIN,SMc04056,-0.695956
hypothetical protein,SMc04059,-0.553816
tRNA-Val-GAC,SMc04060,1.10125
bifunctional phosphoribosylaminoimidazolecarboxamide formyltransferase/IMP cyclohydrolase,SMc04088,-1.29283
heat shock protein HtpX,SMc04091,0.851754
hypothetical protein,SMc04094,-0.692351
N/A,SMc04108,0.913875
PUTATIVE PILIN SUBUNIT PROTEIN,SMc04114,0.847165
PUTATIVE OXIDOREDUCTASE PROTEIN,SMc04149,0.666995
PUTATIVE TRANSCRIPTION REGULATOR PROTEIN,SMc04163,-0.610898
PUTATIVE HISTIDINE-RICH TRANSPORTER TRANSMEMBRANE PROTEIN,SMc04167,-0.942059
hypothetical protein,SMc04173,0.677665
PUTATIVE TRANSMEMBRANE PROTEIN,SMc04175,-0.84575
PUTATIVE TRANSMEMBRANE PROTEIN,SMc04180,-0.677504
PUTATIVE TRANSMEMBRANE PROTEIN,SMc04202,0.935105
hypothetical protein,SMc04210,-1.06043
hypothetical protein,SMc04211,-0.865052
DIACYLGLYCEROL KINASE PROTEIN,SMc04213,-0.783877
nicotinate-nucleotide--dimethylbenzimidazole phosphoribosyltransferase,SMc04214,-1.08363
hypothetical protein,SMc04216,1.28197
HYPOTHETICAL TRANSMEMBRANE SIGNAL PEPTIDE PROTEIN,SMc04217,1.15878
hypothetical protein,SMc04221,-0.910809
hypothetical protein,SMc04222,-1.25552
hypothetical protein,SMc04239,0.690103
hypothetical protein,SMc04240,-0.619104
PUTATIVE OXIDOREDUCTASE PROTEIN,SMc04252,-0.676805
PUTATIVE PERIPLASMIC BINDING ABC TRANSPORTER SIGNAL PEPTIDE PROTEIN,SMc04259,0.894849
PUTATIVE TRANSCRIPTION REGULATOR PROTEIN,SMc04260,-0.933387
hypothetical protein,SMc04261,-0.545124
6-phosphogluconate dehydrogenase,SMc04262,-0.702254
PUTATIVE AMINO ACID CARRIER TRANSMEMBRANE PROTEIN,SMc04263,-1.37582
PUTATIVE TRANSCRIPTION REGULATOR PROTEIN,SMc04264,-0.887304
hypothetical protein,SMc04267,0.577549
PUTATIVE DEHYDROGENASE PROTEIN,SMc04270,-0.773942
3-oxoacyl-(acyl carrier protein) synthase,SMc04273,-0.879135
3-oxoacyl-(acyl carrier protein) synthase,SMc04275,-0.821628
PROBABLE COBALAMIN BIOSYNTHESIS PROTEIN,SMc04285,-0.5466
cell division protein FtsZ,SMc04296,-0.535467
"cob(I)yrinic acid a,c-diamide adenosyltransferase",SMc04302,0.975326
cobyric acid synthase,SMc04309,-0.952992
PUTATIVE TRANSCRIPTION REGULATOR PROTEIN,SMc04315,-0.686352
PROBABLE FERRIC IRON TRANSPORT SYSTEM PERMEASE PROTEIN,SMc04316,-0.598175
IRON-BINDING PERIPLASMIC PROTEIN,SMc04317,-0.919904
COLD SHOCK TRANSCRIPTION REGULATOR PROTEIN,SMc04318,1.1404
hypothetical protein,SMc04319,1.12347
30S ribosomal protein S21,SMc04320,1.07497
PUTATIVE GLUTATHIONE S-TRANSFERASE PROTEIN,SMc04321,-0.594629
methionine synthase I,SMc04325,-1.41997
PUTATIVE FORMYLTRANSFERASE PROTEIN,SMc04334,-0.595962
HYPOTHETICAL TRANSMEMBRANE SIGNAL PEPTIDE PROTEIN,SMc04336,-1.16583
HYPOTHETICAL SIGNAL PEPTIDE PROTEIN,SMc04344,1.2406
hypothetical protein,SMc04345,-0.543169
PUTATIVE MULTIDRUG EFFLUX SYSTEM TRANSMEMBRANE PROTEIN,SMc04350,0.96227
PROBABLE TRANSMEMBRANE ATP-BINDING ABC TRANSPORTER PROTEIN,SMc04351,0.658824
tRNA-Lys-CTT,SMc04364,1.21575
PUTATIVE ALDEHYDE DEHYDROGENASE TRANSMEMBRANE PROTEIN,SMc04385,-0.904834
ASPARTATE AMINOTRANSFERASE B PROTEIN,SMc04386,-1.09776
beta alanine-pyruvate transaminase,SMc04388,-1.0502
PUTATIVE HYDROXYPYRUVATE REDUCTASE PROTEIN,SMc04389,-0.825513
PUTATIVE PERIPLASMIC BINDING PROTEIN,SMc04396,0.663639
PUTATIVE AMINO ACID EFFLUX TRANSMEMBRANE PROTEIN,SMc04404,-0.664122
3-isopropylmalate dehydrogenase,SMc04405,-1.02102
PUTATIVE TRANSPORT TRANSMEMBRANE PROTEIN,SMc04407,0.659416
aspartate-semialdehyde dehydrogenase,SMc04410,-1.20646
PUTATIVE MEMBRANE-BOUND LYTIC MUREIN TRANSGLYCOSYLASE SIGNAL PEPTIDE PROTEIN,SMc04411,-0.756797
PUTATIVE PARTIAL TRANSPOSASE PROTEIN,SMc04433,0.975331
50S ribosomal protein L34,SMc04434,-0.690358
hypothetical protein,SMc04448,0.702263
PROBABLE TRANSCRIPTION-REPAIR COUPLING FACTOR (TRCF) PROTEIN,SMc04450,-0.670311
PUTATIVE NADH DEHYDROGENASE TRANSMEMBRANE PROTEIN,SMc04452,-0.790707
hypothetical protein,SMc04453,-1.06002
PUTATIVE ATP-BINDING ABC TRANSPORTER PROTEIN,SMc04454,-0.827219
acetolactate synthase II large subunit,SMc04455,0.535812
RF00169,SMc_R0063,2.73958
RF00174,SMc_R0065,0.736834
RF00050,SMc_R0070,1.037
RF00520,SMc_R0077,2.33167
RF00059,SMc_R0078,2.47397
