"","strain","media","time","avg","dev"
"1","1021","pos","0.5","0.239393939393939","0.0502692749102272"
"3","1021","pos","1","0.241727272727273","0.0641274772101112"
"5","1021","pos","1.5","0.244727272727273","0.0595427017638042"
"7","1021","pos","2","0.237393939393939","0.037322915213043"
"9","1021","pos","2.5","0.229393939393939","0.0281602556806574"
"11","1021","pos","3","0.223393939393939","0.0288444102037119"
"13","1021","pos","3.5","0.223727272727273","0.0300055550412475"
"15","1021","pos","4","0.222060606060606","0.0331712727119918"
"17","1021","pos","4.5","0.224393939393939","0.0373229152130431"
"19","1021","pos","5","0.224727272727273","0.032316146634977"
"21","1021","pos","5.5","0.225060606060606","0.0328684245642126"
"23","1021","pos","6","0.228060606060606","0.0352325606979302"
"25","1021","pos","6.5","0.233393939393939","0.0365102725270573"
"27","1021","pos","7","0.234060606060606","0.0383709959908957"
"29","1021","pos","7.5","0.241060606060606","0.0417652167878168"
"31","1021","pos","8","0.249060606060606","0.0434664621672081"
"33","1021","pos","8.5","0.252393939393939","0.0425323406362735"
"35","1021","pos","9","0.259393939393939","0.0449777722880981"
"37","1021","pos","9.5","0.267060606060606","0.0459383645043371"
"39","1021","pos","10","0.274060606060606","0.0468757222166585"
"41","1021","pos","10.5","0.283393939393939","0.0474447046571058"
"43","1021","pos","11","0.290727272727273","0.0480138868800822"
"45","1021","pos","11.5","0.303060606060606","0.0510718448201485"
"47","1021","pos","12","0.317060606060606","0.0520032050294339"
"49","1021","pos","12.5","0.332060606060606","0.0546473543122934"
"51","1021","pos","13","0.350727272727273","0.0564387573687917"
"53","1021","pos","13.5","0.365393939393939","0.0550726792520575"
"55","1021","pos","14","0.382393939393939","0.0507148893324239"
"57","1021","pos","14.5","0.397060606060606","0.058071794645364"
"59","1021","pos","15","0.410060606060606","0.0545007645206316"
"61","1021","pos","15.5","0.427393939393939","0.0575847201955519"
"63","1021","pos","16","0.443393939393939","0.0603572696532903"
"65","1021","pos","16.5","0.460727272727273","0.0659570567364352"
"67","1021","pos","17","0.473393939393939","0.0661891229734917"
"69","1021","pos","17.5","0.487727272727273","0.0624045938479959"
"71","1021","pos","18","0.499393939393939","0.0610245852095694"
"73","1021","pos","18.5","0.510060606060606","0.0572916515151495"
"75","1021","pos","19","0.520393939393939","0.0577148161220323"
"77","1021","pos","19.5","0.524727272727273","0.0539289656245448"
"79","1021","pos","20","0.538393939393939","0.0533572862878164"
"81","1021","pos","20.5","0.548393939393939","0.0575847201955519"
"83","1021","pos","21","0.555060606060606","0.0588585875920696"
"85","1021","pos","21.5","0.563060606060606","0.0588585875920696"
"87","1021","pos","22","0.569727272727273","0.0600027777134803"
"89","1021","pos","22.5","0.577393939393939","0.0605061980296234"
"91","1021","pos","23","0.582727272727273","0.06278800310038"
"93","1021","pos","23.5","0.587393939393939","0.063"
"95","1021","pos","24","0.595060606060606","0.0642910050732864"
"97","1021","pos","24.5","0.599060606060606","0.0652252507341546"
"99","1021","pos","25","0.606393939393939","0.0642105910267146"
"101","1021","pos","25.5","0.613393939393939","0.065184353950929"
"103","1021","pos","26","0.617727272727273","0.0657368491284252"
"105","1021","pos","26.5","0.622060606060606","0.0679509627108648"
"107","1021","pos","27","0.624060606060606","0.0682373309364701"
"109","1021","pos","27.5","0.628727272727273","0.0706139740655724"
"111","1021","pos","28","0.631060606060606","0.0708119575589698"
"113","1021","pos","28.5","0.635727272727273","0.0745273998830855"
"115","1021","pos","29","0.633393939393939","0.0756240702422185"
"117","1021","pos","29.5","0.638727272727273","0.078487790982632"
"119","1021","pos","30","0.640727272727273","0.0801082600818002"
"121","1021","pos","30.5","0.634727272727273","0.0668904577150832"
"123","1021","pos","31","0.635393939393939","0.0693469537903432"
"125","1021","pos","31.5","0.640393939393939","0.0703420215802759"
"127","1021","pos","32","0.646393939393939","0.0635059052372297"
"129","1021","pos","32.5","0.649727272727273","0.065363088462322"
"131","1021","pos","33","0.650727272727273","0.0673226064062684"
"133","1021","pos","33.5","0.653393939393939","0.0657951365983839"
"135","1021","pos","34","0.652393939393939","0.0667757440991862"
"137","1021","pos","34.5","0.654727272727273","0.0673226064062684"
"139","1021","pos","35","0.661393939393939","0.0783517708797957"
"141","1021","pos","35.5","0.662727272727273","0.0794753630588331"
"143","1021","pos","36","0.663393939393939","0.0789240140895026"
"145","1021","pos","36.5","0.666060606060606","0.0859786795277372"
"147","1021","pos","37","0.662727272727273","0.0745273998830855"
"149","1021","pos","37.5","0.659727272727273","0.0775263396100534"
"151","1021","pos","38","0.665393939393939","0.0759407663906548"
"153","1021","pos","38.5","0.667060606060606","0.0731186250782476"
"155","1021","pos","39","0.666727272727273","0.0767094083755919"
"157","1021","pos","39.5","0.666060606060606","0.0750755175362337"
"159","1021","pos","40","0.669727272727273","0.0751953012716442"
"161","1021","pos","40.5","0.672060606060606","0.0773972437063061"
"163","1021","pos","41","0.671727272727273","0.0751953012716442"
"165","1021","pos","41.5","0.672393939393939","0.0759407663906548"
"167","1021","pos","42","0.673393939393939","0.0749599893276407"
"169","1021","pos","42.5","0.675060606060606","0.0750755175362337"
"171","1021","pos","43","0.676393939393939","0.0756240702422185"
"173","1021","pos","43.5","0.676727272727273","0.0761730486020701"
"175","1021","pos","44","0.679727272727273","0.0761730486020701"
"177","1021","pos","44.5","0.678393939393939","0.0779037868142493"
"179","1021","pos","45","0.678393939393939","0.0766028720088222"
"181","1021","pos","45.5","0.681060606060606","0.0770346242499653"
"183","1021","pos","46","0.682060606060606","0.0767224434786415"
"185","1021","pos","46.5","0.683393939393939","0.0759407663906548"
"187","1021","pos","47","0.682393939393939","0.0792212092813534"
"189","1021","pos","47.5","0.680393939393939","0.0842555636145175"
"191","1021","pos","48","0.683393939393939","0.0778267306264371"
"193","1021","pos","48.5","0.684393939393939","0.0780832888651599"
"195","1021","pos","49","0.685727272727273","0.0779380095546027"
"197","1021","pos","49.5","0.687727272727273","0.0789071183945614"
"199","1021","pos","50","0.688393939393939","0.0776595132614157"
"201","1021","pos","50.5","0.689393939393939","0.0776595132614157"
"203","1021","pos","51","0.690060606060606","0.0771059876620054"
"205","1021","pos","51.5","0.691393939393939","0.0776595132614157"
"207","1021","pos","52","0.691060606060606","0.0777002788497785"
"209","1021","pos","52.5","0.691727272727273","0.0775263396100534"
"211","1021","pos","53","0.691727272727273","0.0771513663737288"
"213","1021","pos","53.5","0.692393939393939","0.079227520471109"
"215","1021","pos","54","0.694727272727273","0.0771513663737288"
"217","1021","pos","54.5","0.693727272727273","0.076846166679499"
"219","1021","pos","55","0.696060606060606","0.0770346242499653"
"221","1021","pos","55.5","0.696727272727273","0.0758309523435736"
"223","1021","pos","56","0.698393939393939","0.0762692598626734"
"225","1021","pos","56.5","0.691393939393939","0.0811911325207378"
"227","1021","pos","57","0.699727272727273","0.0751953012716442"
"229","1021","pos","57.5","0.696060606060606","0.0783985544084413"
"231","1021","pos","58","0.698727272727273","0.0748487363509454"
"233","1021","pos","58.5","0.693393939393939","0.0824560488987922"
"235","1021","pos","59","0.694727272727273","0.0906108897061128"
"237","1021","pos","59.5","0.691060606060606","0.0819288309042265"
"239","1021","pos","60","0.694060606060606","0.0813469933884058"
"241","1021","pos","60.5","0.693393939393939","0.0798811617341661"
"243","1021","pos","61","0.692727272727273","0.0798268960522288"
"245","1021","pos","61.5","0.690060606060606","0.079776771890904"
"247","1021","pos","62","0.692393939393939","0.0793032155716274"
"249","1021","pos","62.5","0.695060606060606","0.085101899704609"
"251","1021","pos","63","0.687727272727273","0.0782581199194904"
"253","1021","pos","63.5","0.692393939393939","0.0759012516365837"
"255","1021","pos","64","0.692727272727273","0.0762648892566778"
"257","1021","pos","64.5","0.691060606060606","0.0763697147653004"
"259","1021","pos","65","0.690393939393939","0.0727530068107154"
"261","1021","pos","65.5","0.687060606060606","0.0715984171147193"
"263","1021","pos","66","0.680727272727273","0.0748954827298238"
"265","1021","pos","66.5","0.686727272727273","0.0721479960451663"
"267","1021","pos","67","0.684727272727273","0.0707130351019763"
"269","1021","pos","67.5","0.683393939393939","0.0703420215802759"
"271","1021","pos","68","0.678727272727273","0.0706139740655724"
"273","1021","pos","68.5","0.683727272727273","0.0670621602197046"
"275","1021","pos","69","0.680393939393939","0.0757165767847438"
"277","1021","pos","69.5","0.680060606060606","0.065041012702243"
"279","1021","pos","70","0.679060606060606","0.0635164020811423"
"281","1021","pos","70.5","0.671060606060606","0.0632877028602977"
"283","1021","pos","71","0.676727272727273","0.0641664502160851"
"285","1021","pos","71.5","0.669727272727273","0.061760289291205"
"287","phbA","pos","0.5","0.128727272727273","0.0106926766215636"
"289","phbA","pos","1","0.113393939393939","0.0199749843554382"
"291","phbA","pos","1.5","0.113393939393939","0.0206639783197718"
"293","phbA","pos","2","0.114393939393939","0.0212837966537928"
"295","phbA","pos","2.5","0.116060606060606","0.0213853532431273"
"297","phbA","pos","3","0.118393939393939","0.0212837966537928"
"299","phbA","pos","3.5","0.121060606060606","0.0213853532431273"
"301","phbA","pos","4","0.120727272727273","0.0208406653764541"
"303","phbA","pos","4.5","0.120727272727273","0.0215019378971602"
"305","phbA","pos","5","0.127393939393939","0.0257099202643649"
"307","phbA","pos","5.5","0.127060606060606","0.0232450711621482"
"309","phbA","pos","6","0.126727272727273","0.0225018517756502"
"311","phbA","pos","6.5","0.128060606060606","0.0232450711621482"
"313","phbA","pos","7","0.127727272727273","0.0234378611083293"
"315","phbA","pos","7.5","0.129393939393939","0.0227156333832011"
"317","phbA","pos","8","0.133727272727273","0.0232880512996114"
"319","phbA","pos","8.5","0.134727272727273","0.0225018517756502"
"321","phbA","pos","9","0.136393939393939","0.0227156333832011"
"323","phbA","pos","9.5","0.138393939393939","0.0217944947177034"
"325","phbA","pos","10","0.138393939393939","0.0217944947177034"
"327","phbA","pos","10.5","0.140393939393939","0.0217944947177034"
"329","phbA","pos","11","0.140060606060606","0.0229419557434263"
"331","phbA","pos","11.5","0.144727272727273","0.0223681320930768"
"333","phbA","pos","12","0.148393939393939","0.0219317121994613"
"335","phbA","pos","12.5","0.149727272727273","0.021733231083604"
"337","phbA","pos","13","0.156393939393939","0.0211660104885167"
"339","phbA","pos","13.5","0.162727272727273","0.0200333056017556"
"341","phbA","pos","14","0.170727272727273","0.0183393929379719"
"343","phbA","pos","14.5","0.177727272727273","0.0176162803489651"
"345","phbA","pos","15","0.186393939393939","0.0160934769394311"
"347","phbA","pos","15.5","0.196727272727273","0.0152752523165194"
"349","phbA","pos","16","0.208060606060606","0.0148436293854749"
"351","phbA","pos","16.5","0.224393939393939","0.014422205101856"
"353","phbA","pos","17","0.240060606060606","0.0125830573921179"
"355","phbA","pos","17.5","0.255393939393939","0.0121243556529822"
"357","phbA","pos","18","0.270393939393939","0.0121243556529821"
"359","phbA","pos","18.5","0.288393939393939","0.00953939201416946"
"361","phbA","pos","19","0.304393939393939","0.00754983443527076"
"363","phbA","pos","19.5","0.318727272727273","0.00896288643983251"
"365","phbA","pos","20","0.332727272727273","0.00896288643983248"
"367","phbA","pos","20.5","0.340727272727273","0.00802080627701062"
"369","phbA","pos","21","0.349060606060606","0.00709459888459759"
"371","phbA","pos","21.5","0.360060606060606","0.00776745346515404"
"373","phbA","pos","22","0.370060606060606","0.00808290376865477"
"375","phbA","pos","22.5","0.383393939393939","0.00655743852430201"
"377","phbA","pos","23","0.392060606060606","0.00680685928555405"
"379","phbA","pos","23.5","0.402060606060606","0.00680685928555405"
"381","phbA","pos","24","0.419060606060606","0.00585946527708232"
"383","phbA","pos","24.5","0.425727272727273","0.0064291005073286"
"385","phbA","pos","25","0.430727272727273","0.00642910050732858"
"387","phbA","pos","25.5","0.439060606060606","0.00680685928555405"
"389","phbA","pos","26","0.445393939393939","0.0062449979983984"
"391","phbA","pos","26.5","0.453393939393939","0.00608276253029822"
"393","phbA","pos","27","0.458727272727273","0.00723417813807024"
"395","phbA","pos","27.5","0.464727272727273","0.00642910050732864"
"397","phbA","pos","28","0.470393939393939","0.00608276253029822"
"399","phbA","pos","28.5","0.475727272727273","0.00550757054728611"
"401","phbA","pos","29","0.479393939393939","0.00519615242270664"
"403","phbA","pos","29.5","0.487060606060606","0.00493288286231625"
"405","phbA","pos","30","0.491393939393939","0.00608276253029822"
"407","phbA","pos","30.5","0.492393939393939","0.00608276253029822"
"409","phbA","pos","31","0.497727272727273","0.00461880215351701"
"411","phbA","pos","31.5","0.505727272727273","0.00472581562625261"
"413","phbA","pos","32","0.507060606060606","0.00585946527708232"
"415","phbA","pos","32.5","0.511727272727273","0.00461880215351701"
"417","phbA","pos","33","0.513393939393939","0.00435889894354068"
"419","phbA","pos","33.5","0.518393939393939","0.00435889894354068"
"421","phbA","pos","34","0.521060606060606","0.00416333199893227"
"423","phbA","pos","34.5","0.527393939393939","0.00360555127546399"
"425","phbA","pos","35","0.526727272727273","0.00378593889720019"
"427","phbA","pos","35.5","0.530727272727273","0.00288675134594813"
"429","phbA","pos","36","0.533727272727273","0.0030550504633039"
"431","phbA","pos","36.5","0.531393939393939","0.00264575131106459"
"433","phbA","pos","37","0.538060606060606","0.00321455025366432"
"435","phbA","pos","37.5","0.540060606060606","0.00321455025366432"
"437","phbA","pos","38","0.542727272727273","0.0030550504633039"
"439","phbA","pos","38.5","0.544393939393939","0.003"
"441","phbA","pos","39","0.548060606060606","0.00230940107675851"
"443","phbA","pos","39.5","0.546060606060606","0.00251661147842359"
"445","phbA","pos","40","0.549393939393939","0.00264575131106459"
"447","phbA","pos","40.5","0.550060606060606","0.00208166599946613"
"449","phbA","pos","41","0.553060606060606","0.00251661147842353"
"451","phbA","pos","41.5","0.553060606060606","0.00305505046330384"
"453","phbA","pos","42","0.557060606060606","0.00208166599946613"
"455","phbA","pos","42.5","0.558393939393939","0.00264575131106459"
"457","phbA","pos","43","0.560393939393939","0.00173205080756888"
"459","phbA","pos","43.5","0.560060606060606","0.00152752523165195"
"461","phbA","pos","44","0.562727272727273","0.00152752523165195"
"463","phbA","pos","44.5","0.561393939393939","0.002"
"465","phbA","pos","45","0.562727272727273","0.00230940107675851"
"467","phbA","pos","45.5","0.564727272727273","0.00152752523165195"
"469","phbA","pos","46","0.565060606060606","0.00152752523165195"
"471","phbA","pos","46.5","0.567727272727273","0.00152752523165195"
"473","phbA","pos","47","0.568060606060606","0.00115470053837925"
"475","phbA","pos","47.5","0.571393939393939","0.00173205080756888"
"477","phbA","pos","48","0.571393939393939","0.001"
"479","phbA","pos","48.5","0.571393939393939","0.001"
"481","phbA","pos","49","0.572060606060606","0.00152752523165195"
"483","phbA","pos","49.5","0.573060606060606","0.00152752523165195"
"485","phbA","pos","50","0.574727272727273","0.00208166599946613"
"487","phbA","pos","50.5","0.576060606060606","0.00251661147842359"
"489","phbA","pos","51","0.577393939393939","0.00264575131106459"
"491","phbA","pos","51.5","0.576727272727273","0.00115470053837925"
"493","phbA","pos","52","0.576060606060606","0.00152752523165195"
"495","phbA","pos","52.5","0.576727272727273","0.00208166599946613"
"497","phbA","pos","53","0.577393939393939","0.00173205080756888"
"499","phbA","pos","53.5","0.578727272727273","0.00208166599946613"
"501","phbA","pos","54","0.579727272727273","0.00208166599946613"
"503","phbA","pos","54.5","0.580727272727273","0.0030550504633039"
"505","phbA","pos","55","0.580060606060606","0.00230940107675851"
"507","phbA","pos","55.5","0.582393939393939","0.00264575131106459"
"509","phbA","pos","56","0.582727272727273","0.00208166599946613"
"511","phbA","pos","56.5","0.580393939393939","0.00173205080756888"
"513","phbA","pos","57","0.584060606060606","0.00230940107675851"
"515","phbA","pos","57.5","0.583393939393939","0.00173205080756888"
"517","phbA","pos","58","0.584727272727273","0.00288675134594813"
"519","phbA","pos","58.5","0.584393939393939","0.00264575131106459"
"521","phbA","pos","59","0.580393939393939","0.00360555127546399"
"523","phbA","pos","59.5","0.582060606060606","0.00404145188432738"
"525","phbA","pos","60","0.585060606060606","0.00321455025366432"
"527","phbA","pos","60.5","0.586727272727273","0.0030550504633039"
"529","phbA","pos","61","0.586727272727273","0.00351188458428425"
"531","phbA","pos","61.5","0.583727272727273","0.0030550504633039"
"533","phbA","pos","62","0.586060606060606","0.00251661147842359"
"535","phbA","pos","62.5","0.585060606060606","0.00416333199893227"
"537","phbA","pos","63","0.583060606060606","0.0045092497528229"
"539","phbA","pos","63.5","0.587393939393939","0.004"
"541","phbA","pos","64","0.587393939393939","0.00360555127546399"
"543","phbA","pos","64.5","0.589060606060606","0.00351188458428425"
"545","phbA","pos","65","0.589060606060606","0.00321455025366432"
"547","phbA","pos","65.5","0.587727272727273","0.00378593889720019"
"549","phbA","pos","66","0.588727272727273","0.0030550504633039"
"551","phbA","pos","66.5","0.588727272727273","0.00404145188432738"
"553","phbA","pos","67","0.589393939393939","0.004"
"555","phbA","pos","67.5","0.589393939393939","0.004"
"557","phbA","pos","68","0.589060606060606","0.00351188458428425"
"559","phbA","pos","68.5","0.591060606060606","0.00351188458428425"
"561","phbA","pos","69","0.591393939393939","0.00360555127546399"
"563","phbA","pos","69.5","0.586727272727273","0.00251661147842359"
"565","phbA","pos","70","0.591393939393939","0.00360555127546399"
"567","phbA","pos","70.5","0.592393939393939","0.00360555127546399"
"569","phbA","pos","71","0.587727272727273","0.00351188458428425"
"571","phbA","pos","71.5","0.593727272727273","0.00351188458428425"
"573","phbB","pos","0.5","0.144060606060606","0.0560832714214616"
"575","phbB","pos","1","0.115060606060606","0.0195021366350801"
"577","phbB","pos","1.5","0.115060606060606","0.0145716619962629"
"579","phbB","pos","2","0.117060606060606","0.0109696551146029"
"581","phbB","pos","2.5","0.118727272727273","0.00873689494805411"
"583","phbB","pos","3","0.121393939393939","0.00793725393319378"
"585","phbB","pos","3.5","0.123393939393939","0.00435889894354068"
"587","phbB","pos","4","0.123393939393939","0.00435889894354068"
"589","phbB","pos","4.5","0.128060606060606","0.00321455025366432"
"591","phbB","pos","5","0.130393939393939","0.001"
"593","phbB","pos","5.5","0.133060606060606","0.00152752523165195"
"595","phbB","pos","6","0.137727272727273","0.00288675134594813"
"597","phbB","pos","6.5","0.140060606060606","0.00404145188432738"
"599","phbB","pos","7","0.138060606060606","0.00351188458428425"
"601","phbB","pos","7.5","0.143727272727273","0.00472581562625261"
"603","phbB","pos","8","0.148060606060606","0.00251661147842356"
"605","phbB","pos","8.5","0.153393939393939","0.00556776436283"
"607","phbB","pos","9","0.156727272727273","0.00404145188432738"
"609","phbB","pos","9.5","0.165727272727273","0.00611010092660779"
"611","phbB","pos","10","0.171393939393939","0.005"
"613","phbB","pos","10.5","0.183060606060606","0.00568624070307733"
"615","phbB","pos","11","0.193727272727273","0.00650640709864772"
"617","phbB","pos","11.5","0.211727272727273","0.00923760430703399"
"619","phbB","pos","12","0.230393939393939","0.00871779788708136"
"621","phbB","pos","12.5","0.248393939393939","0.0103923048454133"
"623","phbB","pos","13","0.266060606060606","0.0107857931249089"
"625","phbB","pos","13.5","0.284060606060606","0.0115902257671425"
"627","phbB","pos","14","0.298393939393939","0.005"
"629","phbB","pos","14.5","0.303393939393939","0.00529150262212919"
"631","phbB","pos","15","0.312393939393939","0.00781024967590666"
"633","phbB","pos","15.5","0.320727272727273","0.00680685928555405"
"635","phbB","pos","16","0.330060606060606","0.00665832811847937"
"637","phbB","pos","16.5","0.342060606060606","0.00832666399786452"
"639","phbB","pos","17","0.353060606060606","0.00763762615825974"
"641","phbB","pos","17.5","0.366393939393939","0.00916515138991169"
"643","phbB","pos","18","0.376060606060606","0.0090184995056458"
"645","phbB","pos","18.5","0.387727272727273","0.00757187779440037"
"647","phbB","pos","19","0.393727272727273","0.00513160143944689"
"649","phbB","pos","19.5","0.395393939393939","0.00818535277187246"
"651","phbB","pos","20","0.401727272727273","0.00763762615825974"
"653","phbB","pos","20.5","0.409727272727273","0.00862167810425172"
"655","phbB","pos","21","0.413393939393939","0.00818535277187246"
"657","phbB","pos","21.5","0.420393939393939","0.00854400374531754"
"659","phbB","pos","22","0.423727272727273","0.00750555349946508"
"661","phbB","pos","22.5","0.430060606060606","0.00702376916856844"
"663","phbB","pos","23","0.432393939393939","0.0075498344352707"
"665","phbB","pos","23.5","0.433727272727273","0.00802080627701059"
"667","phbB","pos","24","0.439393939393939","0.00754983443527076"
"669","phbB","pos","24.5","0.442727272727273","0.00750555349946514"
"671","phbB","pos","25","0.444393939393939","0.0088881944173156"
"673","phbB","pos","25.5","0.444393939393939","0.00754983443527076"
"675","phbB","pos","26","0.446060606060606","0.00802080627701065"
"677","phbB","pos","26.5","0.450393939393939","0.00916515138991169"
"679","phbB","pos","27","0.449393939393939","0.00854400374531754"
"681","phbB","pos","27.5","0.453727272727273","0.00873689494805411"
"683","phbB","pos","28","0.455060606060606","0.00763762615825974"
"685","phbB","pos","28.5","0.456727272727273","0.00750555349946514"
"687","phbB","pos","29","0.454727272727273","0.00808290376865477"
"689","phbB","pos","29.5","0.457060606060606","0.0090184995056458"
"691","phbB","pos","30","0.460393939393939","0.00700000000000001"
"693","phbB","pos","30.5","0.456393939393939","0.00953939201416946"
"695","phbB","pos","31","0.458060606060606","0.00929157324317758"
"697","phbB","pos","31.5","0.463727272727273","0.0101159939369957"
"699","phbB","pos","32","0.461727272727273","0.00971253485622232"
"701","phbB","pos","32.5","0.462060606060606","0.00862167810425172"
"703","phbB","pos","33","0.461393939393939","0.00984885780179611"
"705","phbB","pos","33.5","0.462727272727273","0.00971253485622232"
"707","phbB","pos","34","0.463060606060606","0.00832666399786454"
"709","phbB","pos","34.5","0.464060606060606","0.00832666399786454"
"711","phbB","pos","35","0.463727272727273","0.0104083299973307"
"713","phbB","pos","35.5","0.464393939393939","0.00818535277187246"
"715","phbB","pos","36","0.464393939393939","0.00818535277187246"
"717","phbB","pos","36.5","0.458727272727273","0.00850490054811539"
"719","phbB","pos","37","0.464393939393939","0.0088881944173156"
"721","phbB","pos","37.5","0.462060606060606","0.00763762615825974"
"723","phbB","pos","38","0.464060606060606","0.00907377172587747"
"725","phbB","pos","38.5","0.463727272727273","0.0104083299973307"
"727","phbB","pos","39","0.463393939393939","0.00818535277187246"
"729","phbB","pos","39.5","0.460393939393939","0.00984885780179611"
"731","phbB","pos","40","0.461727272727273","0.00873689494805411"
"733","phbB","pos","40.5","0.459393939393939","0.00818535277187246"
"735","phbB","pos","41","0.460727272727273","0.00971253485622232"
"737","phbB","pos","41.5","0.458727272727273","0.00873689494805411"
"739","phbB","pos","42","0.460060606060606","0.0102632028788938"
"741","phbB","pos","42.5","0.463060606060606","0.00907377172587747"
"743","phbB","pos","43","0.459727272727273","0.00873689494805411"
"745","phbB","pos","43.5","0.457060606060606","0.00907377172587747"
"747","phbB","pos","44","0.459393939393939","0.00871779788708136"
"749","phbB","pos","44.5","0.456393939393939","0.00818535277187246"
"751","phbB","pos","45","0.457727272727273","0.0128582010146573"
"753","phbB","pos","45.5","0.456393939393939","0.00916515138991169"
"755","phbB","pos","46","0.452727272727273","0.00776745346515404"
"757","phbB","pos","46.5","0.455393939393939","0.0088881944173156"
"759","phbB","pos","47","0.452727272727273","0.00808290376865477"
"761","phbB","pos","47.5","0.455060606060606","0.00763762615825974"
"763","phbB","pos","48","0.453727272727273","0.00929157324317758"
"765","phbB","pos","48.5","0.452060606060606","0.00814452781524708"
"767","phbB","pos","49","0.452060606060606","0.00896288643983251"
"769","phbB","pos","49.5","0.449727272727273","0.00838649708360609"
"771","phbB","pos","50","0.451393939393939","0.00692820323027551"
"773","phbB","pos","50.5","0.451393939393939","0.00793725393319378"
"775","phbB","pos","51","0.452393939393939","0.00556776436283003"
"777","phbB","pos","51.5","0.448727272727273","0.00945163125250523"
"779","phbB","pos","52","0.446060606060606","0.00763762615825974"
"781","phbB","pos","52.5","0.446060606060606","0.0100166528008778"
"783","phbB","pos","53","0.442727272727273","0.00850490054811539"
"785","phbB","pos","53.5","0.444393939393939","0.00800000000000001"
"787","phbB","pos","54","0.444727272727273","0.00802080627701065"
"789","phbB","pos","54.5","0.440060606060606","0.00832666399786454"
"791","phbB","pos","55","0.440060606060606","0.00862167810425172"
"793","phbB","pos","55.5","0.441060606060606","0.0070237691685685"
"795","phbB","pos","56","0.439393939393939","0.00721110255092799"
"797","phbB","pos","56.5","0.435727272727273","0.00776745346515399"
"799","phbB","pos","57","0.437393939393939","0.00818535277187246"
"801","phbB","pos","57.5","0.435727272727273","0.00850490054811535"
"803","phbB","pos","58","0.436060606060606","0.007371114795832"
"805","phbB","pos","58.5","0.435727272727273","0.00850490054811535"
"807","phbB","pos","59","0.432393939393939","0.00692820323027545"
"809","phbB","pos","59.5","0.432393939393939","0.00793725393319372"
"811","phbB","pos","60","0.432727272727273","0.00757187779440031"
"813","phbB","pos","60.5","0.432727272727273","0.00776745346515399"
"815","phbB","pos","61","0.432393939393939","0.00793725393319372"
"817","phbB","pos","61.5","0.429060606060606","0.00737111479583194"
"819","phbB","pos","62","0.432060606060606","0.00737111479583194"
"821","phbB","pos","62.5","0.429727272727273","0.00680685928555399"
"823","phbB","pos","63","0.426060606060606","0.00814452781524702"
"825","phbB","pos","63.5","0.428727272727273","0.00665832811847933"
"827","phbB","pos","64","0.429393939393939","0.00699999999999994"
"829","phbB","pos","64.5","0.430727272727273","0.00680685928555399"
"831","phbB","pos","65","0.429393939393939","0.00608276253029816"
"833","phbB","pos","65.5","0.430393939393939","0.0104403065089105"
"835","phbB","pos","66","0.428060606060606","0.00763762615825968"
"837","phbB","pos","66.5","0.427727272727273","0.00776745346515397"
"839","phbB","pos","67","0.428727272727273","0.00850490054811533"
"841","phbB","pos","67.5","0.425727272727273","0.00665832811847933"
"843","phbB","pos","68","0.426727272727273","0.00665832811847933"
"845","phbB","pos","68.5","0.427393939393939","0.00699999999999994"
"847","phbB","pos","69","0.427393939393939","0.00699999999999994"
"849","phbB","pos","69.5","0.423060606060606","0.00737111479583194"
"851","phbB","pos","70","0.425727272727273","0.00757187779440031"
"853","phbB","pos","70.5","0.427060606060606","0.00723417813807018"
"855","phbB","pos","71","0.420727272727273","0.00680685928555405"
"857","phbB","pos","71.5","0.427393939393939","0.00699999999999994"
"859","phbAB","pos","0.5","0.139393939393939","0.0496689037527506"
"861","phbAB","pos","1","0.143727272727273","0.0288848287745199"
"863","phbAB","pos","1.5","0.145393939393939","0.0183303027798233"
"865","phbAB","pos","2","0.149060606060606","0.0165630109984064"
"867","phbAB","pos","2.5","0.150393939393939","0.01670329308849"
"869","phbAB","pos","3","0.156727272727273","0.0156950098226581"
"871","phbAB","pos","3.5","0.156060606060606","0.0165025250593154"
"873","phbAB","pos","4","0.158393939393939","0.014"
"875","phbAB","pos","4.5","0.160060606060606","0.0158219257150744"
"877","phbAB","pos","5","0.167393939393939","0.0160934769394311"
"879","phbAB","pos","5.5","0.174727272727273","0.014742229591664"
"881","phbAB","pos","6","0.181393939393939","0.0138924439894498"
"883","phbAB","pos","6.5","0.189393939393939","0.0121243556529822"
"885","phbAB","pos","7","0.195060606060606","0.0125830573921179"
"887","phbAB","pos","7.5","0.205727272727273","0.0138684293751431"
"889","phbAB","pos","8","0.220727272727273","0.0176162803489651"
"891","phbAB","pos","8.5","0.236393939393939","0.0194679223339318"
"893","phbAB","pos","9","0.251727272727273","0.0243378991150291"
"895","phbAB","pos","9.5","0.270060606060606","0.0295691280448601"
"897","phbAB","pos","10","0.289060606060606","0.0360185137579736"
"899","phbAB","pos","10.5","0.308393939393939","0.0390384425918862"
"901","phbAB","pos","11","0.326060606060606","0.0410162569395762"
"903","phbAB","pos","11.5","0.343727272727273","0.0374477413649119"
"905","phbAB","pos","12","0.363393939393939","0.03772267222772"
"907","phbAB","pos","12.5","0.374393939393939","0.035171010790138"
"909","phbAB","pos","13","0.388060606060606","0.031134118476895"
"911","phbAB","pos","13.5","0.402393939393939","0.0304466746952767"
"913","phbAB","pos","14","0.413727272727273","0.0289194283023253"
"915","phbAB","pos","14.5","0.422393939393939","0.027495454169735"
"917","phbAB","pos","15","0.432727272727273","0.0266333124739175"
"919","phbAB","pos","15.5","0.442727272727273","0.0256580071972344"
"921","phbAB","pos","16","0.449060606060606","0.0254230866208911"
"923","phbAB","pos","16.5","0.458727272727273","0.0256580071972344"
"925","phbAB","pos","17","0.466727272727273","0.0253837218179946"
"927","phbAB","pos","17.5","0.475727272727273","0.0276827262626594"
"929","phbAB","pos","18","0.479727272727273","0.0241936630821654"
"931","phbAB","pos","18.5","0.487393939393939","0.0284780617317963"
"933","phbAB","pos","19","0.489393939393939","0.0269072480941474"
"935","phbAB","pos","19.5","0.491393939393939","0.0278747197295327"
"937","phbAB","pos","20","0.501393939393939","0.029137604568667"
"939","phbAB","pos","20.5","0.506060606060606","0.0300055550412475"
"941","phbAB","pos","21","0.509727272727273","0.0315330514434194"
"943","phbAB","pos","21.5","0.514060606060606","0.0323316150746191"
"945","phbAB","pos","22","0.516060606060606","0.033946035605551"
"947","phbAB","pos","22.5","0.519060606060606","0.0372871738448134"
"949","phbAB","pos","23","0.522727272727273","0.0366378674779705"
"951","phbAB","pos","23.5","0.521393939393939","0.0401497197997694"
"953","phbAB","pos","24","0.525060606060606","0.0411015003781289"
"955","phbAB","pos","24.5","0.526727272727273","0.0435239397726508"
"957","phbAB","pos","25","0.526727272727273","0.0450037035513004"
"959","phbAB","pos","25.5","0.528060606060606","0.0475429630264389"
"961","phbAB","pos","26","0.527393939393939","0.0480312398340913"
"963","phbAB","pos","26.5","0.530393939393939","0.0515072810387036"
"965","phbAB","pos","27","0.527727272727273","0.0510522608053094"
"967","phbAB","pos","27.5","0.528727272727273","0.0520512567891817"
"969","phbAB","pos","28","0.526393939393939","0.0515654923374149"
"971","phbAB","pos","28.5","0.523393939393939","0.0495681349255749"
"973","phbAB","pos","29","0.523393939393939","0.0525642464038057"
"975","phbAB","pos","29.5","0.524393939393939","0.0526782687642637"
"977","phbAB","pos","30","0.526393939393939","0.0536749476012786"
"979","phbAB","pos","30.5","0.521060606060606","0.0560743553982864"
"981","phbAB","pos","31","0.521393939393939","0.0571051661410769"
"983","phbAB","pos","31.5","0.524727272727273","0.0600444279957211"
"985","phbAB","pos","32","0.519393939393939","0.0590254182534948"
"987","phbAB","pos","32.5","0.519727272727273","0.0595846736445987"
"989","phbAB","pos","33","0.518393939393939","0.0605557594288107"
"991","phbAB","pos","33.5","0.513393939393939","0.0616522505671934"
"993","phbAB","pos","34","0.516060606060606","0.0635321440952006"
"995","phbAB","pos","34.5","0.514727272727273","0.0635164020811423"
"997","phbAB","pos","35","0.512727272727273","0.0640416531121217"
"999","phbAB","pos","35.5","0.511393939393939","0.0640234332100365"
"1001","phbAB","pos","36","0.509060606060606","0.0640104158190941"
"1003","phbAB","pos","36.5","0.502393939393939","0.0645058136914806"
"1005","phbAB","pos","37","0.507727272727273","0.0645161478494596"
"1007","phbAB","pos","37.5","0.505393939393939","0.0640234332100365"
"1009","phbAB","pos","38","0.503393939393939","0.0645058136914806"
"1011","phbAB","pos","38.5","0.502727272727273","0.0655006361292265"
"1013","phbAB","pos","39","0.501727272727273","0.0650025640519921"
"1015","phbAB","pos","39.5","0.496060606060606","0.0670024875160119"
"1017","phbAB","pos","40","0.493727272727273","0.0665006265634643"
"1019","phbAB","pos","40.5","0.492727272727273","0.065002564051992"
"1021","phbAB","pos","41","0.491727272727273","0.0685152051250912"
"1023","phbAB","pos","41.5","0.490060606060606","0.0645006459915971"
"1025","phbAB","pos","42","0.489060606060606","0.0645161478494596"
"1027","phbAB","pos","42.5","0.490393939393939","0.0650230728280354"
"1029","phbAB","pos","43","0.486060606060606","0.0665006265634643"
"1031","phbAB","pos","43.5","0.479060606060606","0.0658356539675375"
"1033","phbAB","pos","44","0.478727272727273","0.0663048515067588"
"1035","phbAB","pos","44.5","0.477393939393939","0.0657799361507747"
"1037","phbAB","pos","45","0.479727272727273","0.0670099495100044"
"1039","phbAB","pos","45.5","0.480727272727273","0.0620107517559119"
"1041","phbAB","pos","46","0.476393939393939","0.065"
"1043","phbAB","pos","46.5","0.474727272727273","0.0615331888766813"
"1045","phbAB","pos","47","0.470727272727273","0.0633192966901349"
"1047","phbAB","pos","47.5","0.470727272727273","0.0629152869605896"
"1049","phbAB","pos","48","0.475393939393939","0.0620966987850401"
"1051","phbAB","pos","48.5","0.473060606060606","0.0591382560897202"
"1053","phbAB","pos","49","0.472393939393939","0.0585576638878294"
"1055","phbAB","pos","49.5","0.471393939393939","0.0565066367783467"
"1057","phbAB","pos","50","0.472393939393939","0.0615548535860496"
"1059","phbAB","pos","50.5","0.470060606060606","0.056518433571122"
"1061","phbAB","pos","51","0.469727272727273","0.0555007507456731"
"1063","phbAB","pos","51.5","0.469727272727273","0.0570116947067295"
"1065","phbAB","pos","52","0.466727272727273","0.0540030863315545"
"1067","phbAB","pos","52.5","0.463060606060606","0.0565007374583141"
"1069","phbAB","pos","53","0.463060606060606","0.0520032050294338"
"1071","phbAB","pos","53.5","0.464060606060606","0.0530031445608025"
"1073","phbAB","pos","54","0.465060606060606","0.0545924292675581"
"1075","phbAB","pos","54.5","0.463393939393939","0.051"
"1077","phbAB","pos","55","0.458727272727273","0.0504017195473858"
"1079","phbAB","pos","55.5","0.458727272727273","0.0504017195473858"
"1081","phbAB","pos","56","0.457393939393939","0.0478852795752515"
"1083","phbAB","pos","56.5","0.454060606060606","0.0489523577913601"
"1085","phbAB","pos","57","0.456393939393939","0.0508625599041181"
"1087","phbAB","pos","57.5","0.456393939393939","0.0488773976393997"
"1089","phbAB","pos","58","0.453727272727273","0.0482217101867337"
"1091","phbAB","pos","58.5","0.453393939393939","0.0502692749102272"
"1093","phbAB","pos","59","0.448393939393939","0.0502692749102272"
"1095","phbAB","pos","59.5","0.449393939393939","0.0482804308182932"
"1097","phbAB","pos","60","0.452060606060606","0.0497426711519731"
"1099","phbAB","pos","60.5","0.453060606060606","0.0457638867813184"
"1101","phbAB","pos","61","0.452393939393939","0.045902069670114"
"1103","phbAB","pos","61.5","0.448727272727273","0.0458293937700831"
"1105","phbAB","pos","62","0.450727272727273","0.0470885690304275"
"1107","phbAB","pos","62.5","0.448393939393939","0.0461302503786832"
"1109","phbAB","pos","63","0.447727272727273","0.0476480149988783"
"1111","phbAB","pos","63.5","0.448060606060606","0.0456106712659804"
"1113","phbAB","pos","64","0.449727272727273","0.0460904907039764"
"1115","phbAB","pos","64.5","0.449060606060606","0.0435239397726508"
"1117","phbAB","pos","65","0.448727272727273","0.0445458565226142"
"1119","phbAB","pos","65.5","0.451393939393939","0.0452990066116245"
"1121","phbAB","pos","66","0.450060606060606","0.0426184623529912"
"1123","phbAB","pos","66.5","0.449393939393939","0.0430348695827"
"1125","phbAB","pos","67","0.450393939393939","0.0421426150114109"
"1127","phbAB","pos","67.5","0.449393939393939","0.040583247775406"
"1129","phbAB","pos","68","0.448727272727273","0.0401040313850532"
"1131","phbAB","pos","68.5","0.450060606060606","0.0400666112035112"
"1133","phbAB","pos","69","0.450727272727273","0.0410162569395762"
"1135","phbAB","pos","69.5","0.446393939393939","0.0395094925302768"
"1137","phbAB","pos","70","0.448060606060606","0.0410040648391514"
"1139","phbAB","pos","70.5","0.449060606060606","0.0410040648391514"
"1141","phbAB","pos","71","0.443393939393939","0.0375099986670221"
"1143","phbAB","pos","71.5","0.448727272727273","0.0390042732701602"
"1145","phbC","pos","0.5","0.131060606060606","0.0425009803808492"
"1147","phbC","pos","1","0.113727272727273","0.00776745346515404"
"1149","phbC","pos","1.5","0.106060606060606","0.00513160143944687"
"1151","phbC","pos","2","0.113393939393939","0.00458257569495584"
"1153","phbC","pos","2.5","0.115393939393939","0.004"
"1155","phbC","pos","3","0.119060606060606","0.0045092497528229"
"1157","phbC","pos","3.5","0.120393939393939","0.005"
"1159","phbC","pos","4","0.119060606060606","0.00404145188432738"
"1161","phbC","pos","4.5","0.121060606060606","0.00404145188432738"
"1163","phbC","pos","5","0.125393939393939","0.004"
"1165","phbC","pos","5.5","0.130060606060606","0.00404145188432738"
"1167","phbC","pos","6","0.131393939393939","0.004"
"1169","phbC","pos","6.5","0.134060606060606","0.00404145188432738"
"1171","phbC","pos","7","0.134727272727273","0.00404145188432738"
"1173","phbC","pos","7.5","0.136393939393939","0.004"
"1175","phbC","pos","8","0.141727272727273","0.0045092497528229"
"1177","phbC","pos","8.5","0.145727272727273","0.00404145188432736"
"1179","phbC","pos","9","0.149727272727273","0.00472581562625258"
"1181","phbC","pos","9.5","0.155727272727273","0.00461880215351701"
"1183","phbC","pos","10","0.162393939393939","0.00608276253029822"
"1185","phbC","pos","10.5","0.171727272727273","0.00642910050732864"
"1187","phbC","pos","11","0.179727272727273","0.00763762615825974"
"1189","phbC","pos","11.5","0.191727272727273","0.00763762615825974"
"1191","phbC","pos","12","0.205727272727273","0.00862167810425169"
"1193","phbC","pos","12.5","0.213727272727273","0.0102632028788937"
"1195","phbC","pos","13","0.228727272727273","0.0102632028788938"
"1197","phbC","pos","13.5","0.243727272727273","0.0102632028788938"
"1199","phbC","pos","14","0.260060606060606","0.0106926766215636"
"1201","phbC","pos","14.5","0.274393939393939","0.0101488915650922"
"1203","phbC","pos","15","0.289727272727273","0.00907377172587747"
"1205","phbC","pos","15.5","0.302727272727273","0.0098657657246325"
"1207","phbC","pos","16","0.313393939393939","0.0103923048454133"
"1209","phbC","pos","16.5","0.326060606060606","0.0066583281184794"
"1211","phbC","pos","17","0.334393939393939","0.00781024967590663"
"1213","phbC","pos","17.5","0.344393939393939","0.00781024967590663"
"1215","phbC","pos","18","0.353060606060606","0.00750555349946514"
"1217","phbC","pos","18.5","0.360727272727273","0.0098657657246325"
"1219","phbC","pos","19","0.366727272727273","0.0098657657246325"
"1221","phbC","pos","19.5","0.373060606060606","0.0109696551146029"
"1223","phbC","pos","20","0.386060606060606","0.0109696551146029"
"1225","phbC","pos","20.5","0.393393939393939","0.0113578166916006"
"1227","phbC","pos","21","0.399393939393939","0.00953939201416946"
"1229","phbC","pos","21.5","0.405727272727273","0.0100166528008778"
"1231","phbC","pos","22","0.411727272727273","0.0115902257671425"
"1233","phbC","pos","22.5","0.417060606060606","0.0104083299973307"
"1235","phbC","pos","23","0.422060606060606","0.011060440015358"
"1237","phbC","pos","23.5","0.422727272727273","0.0112398102000582"
"1239","phbC","pos","24","0.429727272727273","0.0125033328890073"
"1241","phbC","pos","24.5","0.434060606060606","0.0120554275466834"
"1243","phbC","pos","25","0.435727272727273","0.0126622799421483"
"1245","phbC","pos","25.5","0.438393939393939","0.0125299640861416"
"1247","phbC","pos","26","0.439060606060606","0.0130128141972954"
"1249","phbC","pos","26.5","0.443393939393939","0.0135277492584687"
"1251","phbC","pos","27","0.443060606060606","0.014502873278538"
"1253","phbC","pos","27.5","0.446727272727273","0.0135030860670194"
"1255","phbC","pos","28","0.449393939393939","0.013114877048604"
"1257","phbC","pos","28.5","0.449393939393939","0.0135277492584687"
"1259","phbC","pos","29","0.447060606060606","0.0135030860670194"
"1261","phbC","pos","29.5","0.451727272727273","0.0150111069989303"
"1263","phbC","pos","30","0.456060606060606","0.0135769412362775"
"1265","phbC","pos","30.5","0.451060606060606","0.0132035348802256"
"1267","phbC","pos","31","0.454060606060606","0.0125830573921179"
"1269","phbC","pos","31.5","0.456727272727273","0.014047538337137"
"1271","phbC","pos","32","0.454727272727273","0.0150111069989303"
"1273","phbC","pos","32.5","0.455727272727273","0.0140118997046558"
"1275","phbC","pos","33","0.456393939393939","0.014"
"1277","phbC","pos","33.5","0.456060606060606","0.0160104132780305"
"1279","phbC","pos","34","0.455727272727273","0.0145028732785381"
"1281","phbC","pos","34.5","0.456060606060606","0.0150111069989303"
"1283","phbC","pos","35","0.455727272727273","0.015502687938978"
"1285","phbC","pos","35.5","0.456393939393939","0.01552417469626"
"1287","phbC","pos","36","0.455060606060606","0.0150111069989303"
"1289","phbC","pos","36.5","0.450060606060606","0.0160104132780305"
"1291","phbC","pos","37","0.454727272727273","0.0160416125540213"
"1293","phbC","pos","37.5","0.454060606060606","0.0150111069989303"
"1295","phbC","pos","38","0.453393939393939","0.0165227116418583"
"1297","phbC","pos","38.5","0.453060606060606","0.0160104132780305"
"1299","phbC","pos","39","0.452727272727273","0.0150443787951957"
"1301","phbC","pos","39.5","0.448727272727273","0.015502687938978"
"1303","phbC","pos","40","0.448727272727273","0.0150111069989303"
"1305","phbC","pos","40.5","0.447727272727273","0.0145028732785381"
"1307","phbC","pos","41","0.447393939393939","0.01552417469626"
"1309","phbC","pos","41.5","0.446060606060606","0.0150111069989303"
"1311","phbC","pos","42","0.444727272727273","0.0150443787951957"
"1313","phbC","pos","42.5","0.445727272727273","0.015502687938978"
"1315","phbC","pos","43","0.445727272727273","0.0150111069989303"
"1317","phbC","pos","43.5","0.440393939393939","0.0135277492584686"
"1319","phbC","pos","44","0.440393939393939","0.0125299640861416"
"1321","phbC","pos","44.5","0.438393939393939","0.013114877048604"
"1323","phbC","pos","45","0.437727272727273","0.0125830573921179"
"1325","phbC","pos","45.5","0.439393939393939","0.015"
"1327","phbC","pos","46","0.437727272727273","0.0155026879389779"
"1329","phbC","pos","46.5","0.438060606060606","0.0155026879389779"
"1331","phbC","pos","47","0.437393939393939","0.015"
"1333","phbC","pos","47.5","0.435727272727273","0.0132035348802255"
"1335","phbC","pos","48","0.435060606060606","0.0150443787951956"
"1337","phbC","pos","48.5","0.436393939393939","0.0150996688705415"
"1339","phbC","pos","49","0.433393939393939","0.013076696830622"
"1341","phbC","pos","49.5","0.430393939393939","0.014"
"1343","phbC","pos","50","0.429060606060606","0.0140118997046558"
"1345","phbC","pos","50.5","0.429727272727273","0.0140475383371369"
"1347","phbC","pos","51","0.429060606060606","0.0135769412362775"
"1349","phbC","pos","51.5","0.427393939393939","0.013"
"1351","phbC","pos","52","0.427727272727273","0.0140475383371369"
"1353","phbC","pos","52.5","0.427060606060606","0.0151767365837762"
"1355","phbC","pos","53","0.424060606060606","0.0151767365837762"
"1357","phbC","pos","53.5","0.425393939393939","0.0145258390463339"
"1359","phbC","pos","54","0.423393939393939","0.0125299640861416"
"1361","phbC","pos","54.5","0.425727272727273","0.0146401275039985"
"1363","phbC","pos","55","0.424393939393939","0.013114877048604"
"1365","phbC","pos","55.5","0.423060606060606","0.0130128141972954"
"1367","phbC","pos","56","0.424727272727273","0.0130511813003012"
"1369","phbC","pos","56.5","0.421393939393939","0.0135277492584686"
"1371","phbC","pos","57","0.422393939393939","0.012"
"1373","phbC","pos","57.5","0.422393939393939","0.012"
"1375","phbC","pos","58","0.421393939393939","0.0125299640861416"
"1377","phbC","pos","58.5","0.419393939393939","0.0135277492584686"
"1379","phbC","pos","59","0.413393939393939","0.014525839046334"
"1381","phbC","pos","59.5","0.415060606060606","0.0130128141972954"
"1383","phbC","pos","60","0.417393939393939","0.0145258390463339"
"1385","phbC","pos","60.5","0.418727272727273","0.014502873278538"
"1387","phbC","pos","61","0.417060606060606","0.014502873278538"
"1389","phbC","pos","61.5","0.413393939393939","0.014"
"1391","phbC","pos","62","0.416727272727273","0.0155670592384475"
"1393","phbC","pos","62.5","0.415727272727273","0.0150111069989302"
"1395","phbC","pos","63","0.413060606060606","0.0150443787951957"
"1397","phbC","pos","63.5","0.414727272727273","0.0145716619962629"
"1399","phbC","pos","64","0.417060606060606","0.0140475383371369"
"1401","phbC","pos","64.5","0.418727272727273","0.0130128141972954"
"1403","phbC","pos","65","0.417393939393939","0.012"
"1405","phbC","pos","65.5","0.416060606060606","0.0135030860670194"
"1407","phbC","pos","66","0.416393939393939","0.0150996688705415"
"1409","phbC","pos","66.5","0.417060606060606","0.0140118997046558"
"1411","phbC","pos","67","0.419060606060606","0.014502873278538"
"1413","phbC","pos","67.5","0.417727272727273","0.0140118997046558"
"1415","phbC","pos","68","0.417727272727273","0.0140118997046558"
"1417","phbC","pos","68.5","0.419060606060606","0.0135030860670194"
"1419","phbC","pos","69","0.420060606060606","0.0135030860670194"
"1421","phbC","pos","69.5","0.414727272727273","0.0125033328890074"
"1423","phbC","pos","70","0.418727272727273","0.0130128141972954"
"1425","phbC","pos","70.5","0.418060606060606","0.0130511813003012"
"1427","phbC","pos","71","0.413060606060606","0.0125033328890074"
"1429","phbC","pos","71.5","0.418727272727273","0.0135030860670194"
"1431","phaZ","pos","0.5","0.219393939393939","0.00608276253029822"
"1433","phaZ","pos","1","0.219393939393939","0.00655743852430201"
"1435","phaZ","pos","1.5","0.221393939393939","0.00556776436283003"
"1437","phaZ","pos","2","0.222060606060606","0.00680685928555405"
"1439","phaZ","pos","2.5","0.219060606060606","0.00513160143944689"
"1441","phaZ","pos","3","0.217727272727273","0.00472581562625261"
"1443","phaZ","pos","3.5","0.217393939393939","0.00529150262212919"
"1445","phaZ","pos","4","0.214727272727273","0.00723417813807021"
"1447","phaZ","pos","4.5","0.217727272727273","0.00472581562625261"
"1449","phaZ","pos","5","0.219060606060606","0.00611010092660779"
"1451","phaZ","pos","5.5","0.225727272727273","0.00404145188432738"
"1453","phaZ","pos","6","0.225060606060606","0.00642910050732864"
"1455","phaZ","pos","6.5","0.225060606060606","0.0070237691685685"
"1457","phaZ","pos","7","0.223060606060606","0.00763762615825974"
"1459","phaZ","pos","7.5","0.222060606060606","0.0066583281184794"
"1461","phaZ","pos","8","0.227060606060606","0.00832666399786454"
"1463","phaZ","pos","8.5","0.227060606060606","0.00802080627701065"
"1465","phaZ","pos","9","0.227060606060606","0.00802080627701065"
"1467","phaZ","pos","9.5","0.229393939393939","0.00800000000000001"
"1469","phaZ","pos","10","0.229727272727273","0.00850490054811539"
"1471","phaZ","pos","10.5","0.232060606060606","0.00907377172587747"
"1473","phaZ","pos","11","0.231393939393939","0.0101488915650922"
"1475","phaZ","pos","11.5","0.237727272727273","0.0109696551146029"
"1477","phaZ","pos","12","0.244393939393939","0.0113578166916006"
"1479","phaZ","pos","12.5","0.246060606060606","0.0111504857891185"
"1481","phaZ","pos","13","0.253060606060606","0.0127410099024109"
"1483","phaZ","pos","13.5","0.260393939393939","0.0121243556529822"
"1485","phaZ","pos","14","0.270727272727273","0.0134288247189891"
"1487","phaZ","pos","14.5","0.280393939393939","0.0168226038412607"
"1489","phaZ","pos","15","0.294393939393939","0.017058722109232"
"1491","phaZ","pos","15.5","0.310393939393939","0.017058722109232"
"1493","phaZ","pos","16","0.321393939393939","0.0186815416922694"
"1495","phaZ","pos","16.5","0.340060606060606","0.0176162803489651"
"1497","phaZ","pos","17","0.355727272727273","0.0177857620959388"
"1499","phaZ","pos","17.5","0.373060606060606","0.0162583311976763"
"1501","phaZ","pos","18","0.386393939393939","0.0163707055437449"
"1503","phaZ","pos","18.5","0.402727272727273","0.0165025250593154"
"1505","phaZ","pos","19","0.413727272727273","0.0153079500042734"
"1507","phaZ","pos","19.5","0.430060606060606","0.0188237438713273"
"1509","phaZ","pos","20","0.446393939393939","0.0151327459504215"
"1511","phaZ","pos","20.5","0.462060606060606","0.0188767935130237"
"1513","phaZ","pos","21","0.479393939393939","0.01"
"1515","phaZ","pos","21.5","0.488060606060606","0.00971253485622232"
"1517","phaZ","pos","22","0.498727272727273","0.0100664459136943"
"1519","phaZ","pos","22.5","0.511393939393939","0.00655743852430201"
"1521","phaZ","pos","23","0.517393939393939","0.00608276253029822"
"1523","phaZ","pos","23.5","0.521727272727273","0.0066583281184794"
"1525","phaZ","pos","24","0.531393939393939","0.00600000000000001"
"1527","phaZ","pos","24.5","0.537393939393939","0.00700000000000001"
"1529","phaZ","pos","25","0.539393939393939","0.00916515138991169"
"1531","phaZ","pos","25.5","0.544393939393939","0.00916515138991169"
"1533","phaZ","pos","26","0.550060606060606","0.00802080627701059"
"1535","phaZ","pos","26.5","0.556727272727273","0.00650640709864766"
"1537","phaZ","pos","27","0.558393939393939","0.00999999999999995"
"1539","phaZ","pos","27.5","0.568393939393939","0.0115325625946708"
"1541","phaZ","pos","28","0.569727272727273","0.0109696551146029"
"1543","phaZ","pos","28.5","0.573727272727273","0.00929157324317758"
"1545","phaZ","pos","29","0.575060606060606","0.0100664459136943"
"1547","phaZ","pos","29.5","0.576727272727273","0.0101159939369957"
"1549","phaZ","pos","30","0.580393939393939","0.0117898261225516"
"1551","phaZ","pos","30.5","0.579393939393939","0.01"
"1553","phaZ","pos","31","0.583393939393939","0.00953939201416946"
"1555","phaZ","pos","31.5","0.584393939393939","0.017058722109232"
"1557","phaZ","pos","32","0.586060606060606","0.0177857620959388"
"1559","phaZ","pos","32.5","0.591727272727273","0.0144683562761405"
"1561","phaZ","pos","33","0.595393939393939","0.013076696830622"
"1563","phaZ","pos","33.5","0.590060606060606","0.0174737898961082"
"1565","phaZ","pos","34","0.596393939393939","0.0147309198626562"
"1567","phaZ","pos","34.5","0.599727272727273","0.0133166562369588"
"1569","phaZ","pos","35","0.602060606060606","0.0138684293751432"
"1571","phaZ","pos","35.5","0.604393939393939","0.0157162336455017"
"1573","phaZ","pos","36","0.606060606060606","0.0126622799421484"
"1575","phaZ","pos","36.5","0.601393939393939","0.0147309198626562"
"1577","phaZ","pos","37","0.608727272727273","0.0140118997046558"
"1579","phaZ","pos","37.5","0.608393939393939","0.0157162336455017"
"1581","phaZ","pos","38","0.609727272727273","0.0162890556304942"
"1583","phaZ","pos","38.5","0.612727272727273","0.0127410099024109"
"1585","phaZ","pos","39","0.614393939393939","0.0157162336455017"
"1587","phaZ","pos","39.5","0.611060606060606","0.0141539158303748"
"1589","phaZ","pos","40","0.620727272727273","0.011060440015358"
"1591","phaZ","pos","40.5","0.620393939393939","0.011"
"1593","phaZ","pos","41","0.622727272727273","0.0110151410945722"
"1595","phaZ","pos","41.5","0.624060606060606","0.0100166528008778"
"1597","phaZ","pos","42","0.623727272727273","0.0110151410945722"
"1599","phaZ","pos","42.5","0.629060606060606","0.0115036226178249"
"1601","phaZ","pos","43","0.628393939393939","0.012"
"1603","phaZ","pos","43.5","0.621060606060606","0.0161967074843418"
"1605","phaZ","pos","44","0.628060606060606","0.00873689494805411"
"1607","phaZ","pos","44.5","0.623060606060606","0.0170977581376429"
"1609","phaZ","pos","45","0.628393939393939","0.0165227116418583"
"1611","phaZ","pos","45.5","0.627060606060606","0.0161658075373095"
"1613","phaZ","pos","46","0.627393939393939","0.0165227116418583"
"1615","phaZ","pos","46.5","0.630060606060606","0.0144337567297407"
"1617","phaZ","pos","47","0.630727272727273","0.0159478316185409"
"1619","phaZ","pos","47.5","0.634060606060606","0.0162890556304942"
"1621","phaZ","pos","48","0.639393939393939","0.0104403065089106"
"1623","phaZ","pos","48.5","0.641060606060606","0.0142945210949277"
"1625","phaZ","pos","49","0.645060606060606","0.0130128141972954"
"1627","phaZ","pos","49.5","0.644727272727273","0.0112398102000583"
"1629","phaZ","pos","50","0.646393939393939","0.0121243556529822"
"1631","phaZ","pos","50.5","0.647393939393939","0.0121243556529822"
"1633","phaZ","pos","51","0.650060606060606","0.0126622799421484"
"1635","phaZ","pos","51.5","0.650727272727273","0.0112398102000583"
"1637","phaZ","pos","52","0.650393939393939","0.0121243556529822"
"1639","phaZ","pos","52.5","0.652060606060606","0.0120554275466834"
"1641","phaZ","pos","53","0.650727272727273","0.0125830573921179"
"1643","phaZ","pos","53.5","0.653060606060606","0.0133166562369588"
"1645","phaZ","pos","54","0.655727272727273","0.0105987420637231"
"1647","phaZ","pos","54.5","0.656393939393939","0.013114877048604"
"1649","phaZ","pos","55","0.656727272727273","0.0115902257671425"
"1651","phaZ","pos","55.5","0.657727272727273","0.0125830573921179"
"1653","phaZ","pos","56","0.659060606060606","0.0130511813003013"
"1655","phaZ","pos","56.5","0.656727272727273","0.0145716619962629"
"1657","phaZ","pos","57","0.654393939393939","0.0105830052442584"
"1659","phaZ","pos","57.5","0.659727272727273","0.0106926766215636"
"1661","phaZ","pos","58","0.658727272727273","0.0106926766215636"
"1663","phaZ","pos","58.5","0.658393939393939","0.00866025403784439"
"1665","phaZ","pos","59","0.651727272727273","0.0167431578064992"
"1667","phaZ","pos","59.5","0.653060606060606","0.0161658075373095"
"1669","phaZ","pos","60","0.657727272727273","0.0167431578064992"
"1671","phaZ","pos","60.5","0.657393939393939","0.0164620776331543"
"1673","phaZ","pos","61","0.658393939393939","0.0147986485869488"
"1675","phaZ","pos","61.5","0.656727272727273","0.0181750745069541"
"1677","phaZ","pos","62","0.659393939393939","0.0155884572681199"
"1679","phaZ","pos","62.5","0.656393939393939","0.0147309198626562"
"1681","phaZ","pos","63","0.655060606060606","0.0144683562761405"
"1683","phaZ","pos","63.5","0.657060606060606","0.015373136743467"
"1685","phaZ","pos","64","0.660393939393939","0.0157162336455017"
"1687","phaZ","pos","64.5","0.659393939393939","0.0147309198626562"
"1689","phaZ","pos","65","0.660727272727273","0.0134288247189891"
"1691","phaZ","pos","65.5","0.661393939393939","0.0141774468787578"
"1693","phaZ","pos","66","0.657727272727273","0.0141891977691952"
"1695","phaZ","pos","66.5","0.657060606060606","0.0137961347243833"
"1697","phaZ","pos","67","0.662060606060606","0.0136503968196289"
"1699","phaZ","pos","67.5","0.658393939393939","0.014"
"1701","phaZ","pos","68","0.662060606060606","0.0128582010146573"
"1703","phaZ","pos","68.5","0.659393939393939","0.013228756555323"
"1705","phaZ","pos","69","0.660727272727273","0.0143643076176102"
"1707","phaZ","pos","69.5","0.655060606060606","0.0130511813003013"
"1709","phaZ","pos","70","0.654060606060606","0.00929157324317758"
"1711","phaZ","pos","70.5","0.651393939393939","0.00984885780179611"
"1713","phaZ","pos","71","0.646393939393939","0.00984885780179611"
"1715","phaZ","pos","71.5","0.651060606060606","0.00862167810425172"
"1717","bdhA","pos","0.5","0.203060606060606","0.0030550504633039"
"1719","bdhA","pos","1","0.222727272727273","0.0185831464863551"
"1721","bdhA","pos","1.5","0.227393939393939","0.0115325625946708"
"1723","bdhA","pos","2","0.224393939393939","0.0105830052442584"
"1725","bdhA","pos","2.5","0.219393939393939","0.00793725393319378"
"1727","bdhA","pos","3","0.219060606060606","0.0098657657246325"
"1729","bdhA","pos","3.5","0.218060606060606","0.0115902257671425"
"1731","bdhA","pos","4","0.216060606060606","0.0125033328890073"
"1733","bdhA","pos","4.5","0.219727272727273","0.0113724814061546"
"1735","bdhA","pos","5","0.222393939393939","0.0111355287256601"
"1737","bdhA","pos","5.5","0.228727272727273","0.00850490054811539"
"1739","bdhA","pos","6","0.228393939393939","0.00854400374531754"
"1741","bdhA","pos","6.5","0.228060606060606","0.0104083299973307"
"1743","bdhA","pos","7","0.229060606060606","0.0125033328890074"
"1745","bdhA","pos","7.5","0.233727272727273","0.0170098010962308"
"1747","bdhA","pos","8","0.245393939393939","0.0206639783197718"
"1749","bdhA","pos","8.5","0.255060606060606","0.0265769323537035"
"1751","bdhA","pos","9","0.268393939393939","0.0335111921602321"
"1753","bdhA","pos","9.5","0.283060606060606","0.0402036482589993"
"1755","bdhA","pos","10","0.296393939393939","0.0462925479964108"
"1757","bdhA","pos","10.5","0.313060606060606","0.0537246064046386"
"1759","bdhA","pos","11","0.326393939393939","0.059"
"1761","bdhA","pos","11.5","0.342727272727273","0.0591382560897203"
"1763","bdhA","pos","12","0.361727272727273","0.0590282418282413"
"1765","bdhA","pos","12.5","0.377727272727273","0.0609289203361863"
"1767","bdhA","pos","13","0.396393939393939","0.0646451854355759"
"1769","bdhA","pos","13.5","0.416060606060606","0.0646554973171913"
"1771","bdhA","pos","14","0.433393939393939","0.0599249530663145"
"1773","bdhA","pos","14.5","0.448727272727273","0.0617764788032899"
"1775","bdhA","pos","15","0.463727272727273","0.0601193257890783"
"1777","bdhA","pos","15.5","0.478060606060606","0.0578302112509831"
"1779","bdhA","pos","16","0.489393939393939","0.0578878225536252"
"1781","bdhA","pos","16.5","0.502727272727273","0.057064291227819"
"1783","bdhA","pos","17","0.512060606060606","0.0539845656955146"
"1785","bdhA","pos","17.5","0.524060606060606","0.0520800665642176"
"1787","bdhA","pos","18","0.532060606060606","0.0540030863315545"
"1789","bdhA","pos","18.5","0.535727272727273","0.0430038757943203"
"1791","bdhA","pos","19","0.545060606060606","0.0523195310886225"
"1793","bdhA","pos","19.5","0.550060606060606","0.052175984258405"
"1795","bdhA","pos","20","0.562727272727273","0.0539475053485639"
"1797","bdhA","pos","20.5","0.564060606060606","0.044959240800233"
"1799","bdhA","pos","21","0.573727272727273","0.0546290520998977"
"1801","bdhA","pos","21.5","0.575727272727273","0.0546290520998977"
"1803","bdhA","pos","22","0.581060606060606","0.0566950909103543"
"1805","bdhA","pos","22.5","0.586060606060606","0.059433436156202"
"1807","bdhA","pos","23","0.590727272727273","0.0604345375868248"
"1809","bdhA","pos","23.5","0.591060606060606","0.0618088451059663"
"1811","bdhA","pos","24","0.595727272727273","0.0629629520697159"
"1813","bdhA","pos","24.5","0.600393939393939","0.0640936814358483"
"1815","bdhA","pos","25","0.600727272727273","0.065546421209196"
"1817","bdhA","pos","25.5","0.604060606060606","0.0669800965461631"
"1819","bdhA","pos","26","0.606727272727273","0.0672780300940309"
"1821","bdhA","pos","26.5","0.609727272727273","0.0692122339860037"
"1823","bdhA","pos","27","0.609060606060606","0.0714446172453414"
"1825","bdhA","pos","27.5","0.616060606060606","0.0745743476896267"
"1827","bdhA","pos","28","0.617060606060606","0.0741440040281973"
"1829","bdhA","pos","28.5","0.620060606060606","0.0760548048010994"
"1831","bdhA","pos","29","0.622393939393939","0.0801810451416044"
"1833","bdhA","pos","29.5","0.626060606060606","0.0796073698430826"
"1835","bdhA","pos","30","0.629060606060606","0.0806494471979401"
"1837","bdhA","pos","30.5","0.618060606060606","0.0688064919417734"
"1839","bdhA","pos","31","0.627727272727273","0.0811439050904831"
"1841","bdhA","pos","31.5","0.633727272727273","0.0822334076475816"
"1843","bdhA","pos","32","0.630393939393939","0.0841486779456457"
"1845","bdhA","pos","32.5","0.633060606060606","0.0828029790124325"
"1847","bdhA","pos","33","0.634727272727273","0.0856523982929453"
"1849","bdhA","pos","33.5","0.627727272727273","0.0750755175362337"
"1851","bdhA","pos","34","0.636060606060606","0.0852897023874121"
"1853","bdhA","pos","34.5","0.637727272727273","0.086754442729657"
"1855","bdhA","pos","35","0.637393939393939","0.0854224794770089"
"1857","bdhA","pos","35.5","0.639393939393939","0.0863655023721856"
"1859","bdhA","pos","36","0.639727272727273","0.0882968478108553"
"1861","bdhA","pos","36.5","0.630727272727273","0.0782389502315396"
"1863","bdhA","pos","37","0.643727272727273","0.0943627751464174"
"1865","bdhA","pos","37.5","0.642727272727273","0.091106165177409"
"1867","bdhA","pos","38","0.643727272727273","0.0925004504493537"
"1869","bdhA","pos","38.5","0.646727272727273","0.0945216024691358"
"1871","bdhA","pos","39","0.650060606060606","0.0941293436359424"
"1873","bdhA","pos","39.5","0.648727272727273","0.099218613845051"
"1875","bdhA","pos","40","0.641060606060606","0.0825974172316141"
"1877","bdhA","pos","40.5","0.648727272727273","0.0973361871727742"
"1879","bdhA","pos","41","0.640060606060606","0.0814514170124335"
"1881","bdhA","pos","41.5","0.648393939393939","0.0981478476585198"
"1883","bdhA","pos","42","0.650393939393939","0.0984733466477097"
"1885","bdhA","pos","42.5","0.646060606060606","0.0845004930952082"
"1887","bdhA","pos","43","0.646060606060606","0.0835483891725827"
"1889","bdhA","pos","43.5","0.643727272727273","0.0835304335756336"
"1891","bdhA","pos","44","0.646060606060606","0.0837635561168062"
"1893","bdhA","pos","44.5","0.645060606060606","0.08524279050649"
"1895","bdhA","pos","45","0.647727272727273","0.084884234892784"
"1897","bdhA","pos","45.5","0.647727272727273","0.0858448212377039"
"1899","bdhA","pos","46","0.645393939393939","0.0841130192063036"
"1901","bdhA","pos","46.5","0.646060606060606","0.0897570795722172"
"1903","bdhA","pos","47","0.645060606060606","0.0873746721500764"
"1905","bdhA","pos","47.5","0.650393939393939","0.0864696478540303"
"1907","bdhA","pos","48","0.649060606060606","0.0908423542921106"
"1909","bdhA","pos","48.5","0.646393939393939","0.0896046873773912"
"1911","bdhA","pos","49","0.648393939393939","0.0888988188897918"
"1913","bdhA","pos","49.5","0.647393939393939","0.0901387818865998"
"1915","bdhA","pos","50","0.647060606060606","0.0902791965700478"
"1917","bdhA","pos","50.5","0.649060606060606","0.0880814017448254"
"1919","bdhA","pos","51","0.648060606060606","0.0902791965700478"
"1921","bdhA","pos","51.5","0.650393939393939","0.091804139340228"
"1923","bdhA","pos","52","0.650060606060606","0.0880814017448254"
"1925","bdhA","pos","52.5","0.647727272727273","0.0906936234436211"
"1927","bdhA","pos","53","0.646727272727273","0.0904230796496853"
"1929","bdhA","pos","53.5","0.647060606060606","0.0895842248017659"
"1931","bdhA","pos","54","0.648393939393939","0.091804139340228"
"1933","bdhA","pos","54.5","0.648060606060606","0.0905556918881046"
"1935","bdhA","pos","55","0.648393939393939","0.0908350152749478"
"1937","bdhA","pos","55.5","0.648393939393939","0.0915368778143542"
"1939","bdhA","pos","56","0.645727272727273","0.0901794507265005"
"1941","bdhA","pos","56.5","0.643727272727273","0.0911336015602003"
"1943","bdhA","pos","57","0.646727272727273","0.0923164846240006"
"1945","bdhA","pos","57.5","0.646727272727273","0.0894445824705629"
"1947","bdhA","pos","58","0.648060606060606","0.0886133925167823"
"1949","bdhA","pos","58.5","0.647060606060606","0.0886133925167823"
"1951","bdhA","pos","59","0.644060606060606","0.0893103204189378"
"1953","bdhA","pos","59.5","0.644393939393939","0.0862612311528186"
"1955","bdhA","pos","60","0.647393939393939","0.0868158971617526"
"1957","bdhA","pos","60.5","0.646060606060606","0.0864079471653698"
"1959","bdhA","pos","61","0.645727272727273","0.0853365884795809"
"1961","bdhA","pos","61.5","0.640060606060606","0.0843168626867327"
"1963","bdhA","pos","62","0.643393939393939","0.084870489570875"
"1965","bdhA","pos","62.5","0.641393939393939","0.0825287828578612"
"1967","bdhA","pos","63","0.638060606060606","0.08265792964582"
"1969","bdhA","pos","63.5","0.639727272727273","0.0827909012714159"
"1971","bdhA","pos","64","0.641060606060606","0.0813039564432958"
"1973","bdhA","pos","64.5","0.641060606060606","0.081002057587035"
"1975","bdhA","pos","65","0.640393939393939","0.080876448982383"
"1977","bdhA","pos","65.5","0.641060606060606","0.0809588372775532"
"1979","bdhA","pos","66","0.638060606060606","0.0786786714004077"
"1981","bdhA","pos","66.5","0.637060606060606","0.0773972437063061"
"1983","bdhA","pos","67","0.639393939393939","0.0788859936870925"
"1985","bdhA","pos","67.5","0.635727272727273","0.0771513663737288"
"1987","bdhA","pos","68","0.635727272727273","0.0745408165593411"
"1989","bdhA","pos","68.5","0.634393939393939","0.0743034319530397"
"1991","bdhA","pos","69","0.635060606060606","0.073432508695627"
"1993","bdhA","pos","69.5","0.629727272727273","0.0735481701562543"
"1995","bdhA","pos","70","0.633393939393939","0.0713582510996451"
"1997","bdhA","pos","70.5","0.631727272727273","0.0709248428502548"
"1999","bdhA","pos","71","0.625393939393939","0.0707036066972541"
"2001","bdhA","pos","71.5","0.628393939393939","0.0687386354243376"
"2003","acsA2","pos","0.5","0.262727272727273","0.0356417358350198"
"2005","acsA2","pos","1","0.222727272727273","0.00757187779440037"
"2007","acsA2","pos","1.5","0.215060606060606","0.0162583311976763"
"2009","acsA2","pos","2","0.214727272727273","0.0177857620959388"
"2011","acsA2","pos","2.5","0.213727272727273","0.0177857620959388"
"2013","acsA2","pos","3","0.213727272727273","0.0168027775481714"
"2015","acsA2","pos","3.5","0.213727272727273","0.0177857620959388"
"2017","acsA2","pos","4","0.211060606060606","0.0172433562085034"
"2019","acsA2","pos","4.5","0.211060606060606","0.0162583311976763"
"2021","acsA2","pos","5","0.216393939393939","0.019"
"2023","acsA2","pos","5.5","0.216727272727273","0.0184481254693623"
"2025","acsA2","pos","6","0.219727272727273","0.0161658075373095"
"2027","acsA2","pos","6.5","0.220727272727273","0.0177857620959388"
"2029","acsA2","pos","7","0.222727272727273","0.0187171935218219"
"2031","acsA2","pos","7.5","0.222727272727273","0.015534906930308"
"2033","acsA2","pos","8","0.226060606060606","0.0149777612924406"
"2035","acsA2","pos","8.5","0.227060606060606","0.0172433562085034"
"2037","acsA2","pos","9","0.231727272727273","0.0184481254693623"
"2039","acsA2","pos","9.5","0.238393939393939","0.0185202591774522"
"2041","acsA2","pos","10","0.245393939393939","0.0185202591774522"
"2043","acsA2","pos","10.5","0.256393939393939","0.0185202591774522"
"2045","acsA2","pos","11","0.261727272727273","0.0179536440126603"
"2047","acsA2","pos","11.5","0.273727272727273","0.0172143351115671"
"2049","acsA2","pos","12","0.287060606060606","0.0161967074843418"
"2051","acsA2","pos","12.5","0.297393939393939","0.0165227116418583"
"2053","acsA2","pos","13","0.312727272727273","0.0158850034099252"
"2055","acsA2","pos","13.5","0.330060606060606","0.0161658075373095"
"2057","acsA2","pos","14","0.346393939393939","0.0157162336455017"
"2059","acsA2","pos","14.5","0.361393939393939","0.0157162336455017"
"2061","acsA2","pos","15","0.377393939393939","0.0174355957741627"
"2063","acsA2","pos","15.5","0.393393939393939","0.0181934053986603"
"2065","acsA2","pos","16","0.405727272727273","0.0189032625050105"
"2067","acsA2","pos","16.5","0.418727272727273","0.0179536440126603"
"2069","acsA2","pos","17","0.431393939393939","0.0183575597506858"
"2071","acsA2","pos","17.5","0.442393939393939","0.0213775583264319"
"2073","acsA2","pos","18","0.453727272727273","0.0185831464863552"
"2075","acsA2","pos","18.5","0.462393939393939","0.0192873015219859"
"2077","acsA2","pos","19","0.468060606060606","0.0198578280114753"
"2079","acsA2","pos","19.5","0.474393939393939","0.0208806130178211"
"2081","acsA2","pos","20","0.488060606060606","0.0205507501890645"
"2083","acsA2","pos","20.5","0.494060606060606","0.0205020324195757"
"2085","acsA2","pos","21","0.502393939393939","0.0217025344142107"
"2087","acsA2","pos","21.5","0.508393939393939","0.0219317121994613"
"2089","acsA2","pos","22","0.512727272727273","0.0221434715736565"
"2091","acsA2","pos","22.5","0.516727272727273","0.0220302821891444"
"2093","acsA2","pos","23","0.522727272727273","0.0228108161479009"
"2095","acsA2","pos","23.5","0.524727272727273","0.0228108161479009"
"2097","acsA2","pos","24","0.529727272727273","0.0236713610367747"
"2099","acsA2","pos","24.5","0.535060606060606","0.0239652526240249"
"2101","acsA2","pos","25","0.535060606060606","0.0239652526240249"
"2103","acsA2","pos","25.5","0.539393939393939","0.0225388553391693"
"2105","acsA2","pos","26","0.540727272727273","0.0245424801789333"
"2107","acsA2","pos","26.5","0.544727272727273","0.0245424801789332"
"2109","acsA2","pos","27","0.546393939393939","0.0251197133741609"
"2111","acsA2","pos","27.5","0.549393939393939","0.0251197133741609"
"2113","acsA2","pos","28","0.549727272727273","0.0254034118443435"
"2115","acsA2","pos","28.5","0.552060606060606","0.0248260615751539"
"2117","acsA2","pos","29","0.551393939393939","0.0251197133741609"
"2119","acsA2","pos","29.5","0.556727272727273","0.0254034118443435"
"2121","acsA2","pos","30","0.557727272727273","0.0254034118443435"
"2123","acsA2","pos","30.5","0.555727272727273","0.027153882472555"
"2125","acsA2","pos","31","0.558393939393939","0.026"
"2127","acsA2","pos","31.5","0.565393939393939","0.0225166604983954"
"2129","acsA2","pos","32","0.562727272727273","0.0210792156716831"
"2131","acsA2","pos","32.5","0.565060606060606","0.0213853532431272"
"2133","acsA2","pos","33","0.566393939393939","0.0225166604983954"
"2135","acsA2","pos","33.5","0.568727272727273","0.0237557010701291"
"2137","acsA2","pos","34","0.570727272727273","0.0228546129552292"
"2139","acsA2","pos","34.5","0.570393939393939","0.023388031127053"
"2141","acsA2","pos","35","0.572060606060606","0.0231156512634477"
"2143","acsA2","pos","35.5","0.572060606060606","0.0248461935381123"
"2145","acsA2","pos","36","0.573727272727273","0.0236924741918891"
"2147","acsA2","pos","36.5","0.571060606060606","0.0222785397486759"
"2149","acsA2","pos","37","0.577060606060606","0.0240069434400411"
"2151","acsA2","pos","37.5","0.576727272727273","0.0254230866208911"
"2153","acsA2","pos","38","0.577727272727273","0.0245424801789332"
"2155","acsA2","pos","38.5","0.578727272727273","0.0236924741918891"
"2157","acsA2","pos","39","0.581060606060606","0.0256969518296107"
"2159","acsA2","pos","39.5","0.577393939393939","0.026"
"2161","acsA2","pos","40","0.581060606060606","0.0240069434400411"
"2163","acsA2","pos","40.5","0.581060606060606","0.0239652526240249"
"2165","acsA2","pos","41","0.582393939393939","0.0251197133741609"
"2167","acsA2","pos","41.5","0.580393939393939","0.0260576284415907"
"2169","acsA2","pos","42","0.581727272727273","0.0262741951985847"
"2171","acsA2","pos","42.5","0.586060606060606","0.0248461935381123"
"2173","acsA2","pos","43","0.585727272727273","0.0254230866208911"
"2175","acsA2","pos","43.5","0.586727272727273","0.0254034118443436"
"2177","acsA2","pos","44","0.587060606060606","0.0248260615751539"
"2179","acsA2","pos","44.5","0.586060606060606","0.0248260615751539"
"2181","acsA2","pos","45","0.588060606060606","0.0239652526240249"
"2183","acsA2","pos","45.5","0.589060606060606","0.0256969518296107"
"2185","acsA2","pos","46","0.587727272727273","0.0254230866208911"
"2187","acsA2","pos","46.5","0.589393939393939","0.026"
"2189","acsA2","pos","47","0.591060606060606","0.0256969518296107"
"2191","acsA2","pos","47.5","0.590393939393939","0.025119713374161"
"2193","acsA2","pos","48","0.588393939393939","0.0285832118559129"
"2195","acsA2","pos","48.5","0.589727272727273","0.0262741951985848"
"2197","acsA2","pos","49","0.591393939393939","0.0268514431641951"
"2199","acsA2","pos","49.5","0.587393939393939","0.0270739727413618"
"2201","acsA2","pos","50","0.588393939393939","0.0303150127824482"
"2203","acsA2","pos","50.5","0.589060606060606","0.0300388637157488"
"2205","acsA2","pos","51","0.586727272727273","0.0299388265189758"
"2207","acsA2","pos","51.5","0.587727272727273","0.0289367125522809"
"2209","acsA2","pos","52","0.589393939393939","0.0285832118559129"
"2211","acsA2","pos","52.5","0.589393939393939","0.0277128129211021"
"2213","acsA2","pos","53","0.588060606060606","0.0274286954362276"
"2215","acsA2","pos","53.5","0.589060606060606","0.0291604755333883"
"2217","acsA2","pos","54","0.587393939393939","0.0294618397253124"
"2219","acsA2","pos","54.5","0.588727272727273","0.0297377425729212"
"2221","acsA2","pos","55","0.589393939393939","0.0268514431641951"
"2223","acsA2","pos","55.5","0.587393939393939","0.0277308492477241"
"2225","acsA2","pos","56","0.590060606060606","0.0240069434400411"
"2227","acsA2","pos","56.5","0.584727272727273","0.0288848287745199"
"2229","acsA2","pos","57","0.587060606060606","0.0291947483861966"
"2231","acsA2","pos","57.5","0.589060606060606","0.0232880512996114"
"2233","acsA2","pos","58","0.587393939393939","0.0227156333832011"
"2235","acsA2","pos","58.5","0.585727272727273","0.0229419557434264"
"2237","acsA2","pos","59","0.581393939393939","0.0227156333832011"
"2239","acsA2","pos","59.5","0.583060606060606","0.0225018517756502"
"2241","acsA2","pos","60","0.586060606060606","0.0225018517756502"
"2243","acsA2","pos","60.5","0.586393939393939","0.0217944947177034"
"2245","acsA2","pos","61","0.585727272727273","0.0221434715736565"
"2247","acsA2","pos","61.5","0.580727272727273","0.022300971578237"
"2249","acsA2","pos","62","0.583060606060606","0.0225018517756502"
"2251","acsA2","pos","62.5","0.583727272727273","0.0221434715736565"
"2253","acsA2","pos","63","0.580393939393939","0.0219317121994613"
"2255","acsA2","pos","63.5","0.581393939393939","0.0219317121994613"
"2257","acsA2","pos","64","0.583727272727273","0.0213619599600162"
"2259","acsA2","pos","64.5","0.583393939393939","0.0219317121994613"
"2261","acsA2","pos","65","0.582727272727273","0.0213619599600162"
"2263","acsA2","pos","65.5","0.581727272727273","0.0196553639837408"
"2265","acsA2","pos","66","0.583060606060606","0.0222336081942031"
"2267","acsA2","pos","66.5","0.582393939393939","0.0216564078277077"
"2269","acsA2","pos","67","0.578727272727273","0.018475208614068"
"2271","acsA2","pos","67.5","0.578060606060606","0.0187705443004015"
"2273","acsA2","pos","68","0.576393939393939","0.0181934053986603"
"2275","acsA2","pos","68.5","0.576727272727273","0.018475208614068"
"2277","acsA2","pos","69","0.576727272727273","0.0167729941672122"
"2279","acsA2","pos","69.5","0.571060606060606","0.017925772879665"
"2281","acsA2","pos","70","0.573393939393939","0.0190787840283389"
"2283","acsA2","pos","70.5","0.574060606060606","0.0170391705588427"
"2285","acsA2","pos","71","0.568727272727273","0.0158850034099251"
"2287","acsA2","pos","71.5","0.570060606060606","0.022233608194203"
"2289","glgA1","pos","0.5","0.153060606060606","0.0120138808606267"
"2291","glgA1","pos","1","0.148393939393939","0.00699999999999998"
"2293","glgA1","pos","1.5","0.149727272727273","0.00503322295684714"
"2295","glgA1","pos","2","0.149060606060606","0.00709459888459756"
"2297","glgA1","pos","2.5","0.149060606060606","0.00702376916856847"
"2299","glgA1","pos","3","0.146393939393939","0.00699999999999998"
"2301","glgA1","pos","3.5","0.143393939393939","0.00699999999999998"
"2303","glgA1","pos","4","0.141060606060606","0.00550757054728611"
"2305","glgA1","pos","4.5","0.141060606060606","0.00550757054728611"
"2307","glgA1","pos","5","0.145727272727273","0.00450924975282287"
"2309","glgA1","pos","5.5","0.147060606060606","0.00450924975282287"
"2311","glgA1","pos","6","0.151393939393939","0.00360555127546396"
"2313","glgA1","pos","6.5","0.154727272727273","0.00251661147842359"
"2315","glgA1","pos","7","0.158060606060606","0.00251661147842359"
"2317","glgA1","pos","7.5","0.165393939393939","0.00264575131106459"
"2319","glgA1","pos","8","0.177060606060606","0.00230940107675851"
"2321","glgA1","pos","8.5","0.186393939393939","0.00360555127546399"
"2323","glgA1","pos","9","0.197727272727273","0.00550757054728611"
"2325","glgA1","pos","9.5","0.206727272727273","0.00550757054728611"
"2327","glgA1","pos","10","0.217393939393939","0.005"
"2329","glgA1","pos","10.5","0.226727272727273","0.00568624070307733"
"2331","glgA1","pos","11","0.232393939393939","0.00655743852430201"
"2333","glgA1","pos","11.5","0.245060606060606","0.00808290376865477"
"2335","glgA1","pos","12","0.260393939393939","0.00871779788708136"
"2337","glgA1","pos","12.5","0.269727272727273","0.00832666399786452"
"2339","glgA1","pos","13","0.285060606060606","0.00945163125250523"
"2341","glgA1","pos","13.5","0.300727272727273","0.00929157324317758"
"2343","glgA1","pos","14","0.313727272727273","0.00960902353693306"
"2345","glgA1","pos","14.5","0.325727272727273","0.010785793124909"
"2347","glgA1","pos","15","0.340060606060606","0.0133166562369588"
"2349","glgA1","pos","15.5","0.359393939393939","0.0111355287256601"
"2351","glgA1","pos","16","0.364727272727273","0.0119303534454489"
"2353","glgA1","pos","16.5","0.364727272727273","0.00960902353693306"
"2355","glgA1","pos","17","0.376727272727273","0.0140118997046558"
"2357","glgA1","pos","17.5","0.389060606060606","0.00832666399786454"
"2359","glgA1","pos","18","0.393727272727273","0.0109696551146029"
"2361","glgA1","pos","18.5","0.405060606060606","0.00850490054811539"
"2363","glgA1","pos","19","0.406393939393939","0.00793725393319378"
"2365","glgA1","pos","19.5","0.407727272727273","0.00929157324317758"
"2367","glgA1","pos","20","0.420393939393939","0.0104403065089106"
"2369","glgA1","pos","20.5","0.425060606060606","0.00929157324317754"
"2371","glgA1","pos","21","0.430393939393939","0.0113578166916005"
"2373","glgA1","pos","21.5","0.435060606060606","0.0110151410945721"
"2375","glgA1","pos","22","0.437727272727273","0.0115902257671424"
"2377","glgA1","pos","22.5","0.440727272727273","0.010598742063723"
"2379","glgA1","pos","23","0.446727272727273","0.0133166562369588"
"2381","glgA1","pos","23.5","0.449060606060606","0.0110151410945722"
"2383","glgA1","pos","24","0.454393939393939","0.0122882057274445"
"2385","glgA1","pos","24.5","0.458727272727273","0.0142243921955679"
"2387","glgA1","pos","25","0.459393939393939","0.0149331845230681"
"2389","glgA1","pos","25.5","0.465060606060606","0.015502687938978"
"2391","glgA1","pos","26","0.466060606060606","0.014742229591664"
"2393","glgA1","pos","26.5","0.472060606060606","0.0156950098226581"
"2395","glgA1","pos","27","0.473727272727273","0.0153079500042734"
"2397","glgA1","pos","27.5","0.477727272727273","0.0145716619962629"
"2399","glgA1","pos","28","0.481060606060606","0.0173877351409933"
"2401","glgA1","pos","28.5","0.483393939393939","0.0168226038412607"
"2403","glgA1","pos","29","0.483727272727273","0.0172143351115672"
"2405","glgA1","pos","29.5","0.491393939393939","0.0177763888346312"
"2407","glgA1","pos","30","0.495727272727273","0.0172143351115672"
"2409","glgA1","pos","30.5","0.496060606060606","0.0208406653764541"
"2411","glgA1","pos","31","0.499727272727273","0.0201080415091409"
"2413","glgA1","pos","31.5","0.506060606060606","0.0208406653764541"
"2415","glgA1","pos","32","0.507060606060606","0.0205264057577876"
"2417","glgA1","pos","32.5","0.511393939393939","0.021377558326432"
"2419","glgA1","pos","33","0.514060606060606","0.0205264057577876"
"2421","glgA1","pos","33.5","0.517060606060606","0.0221885856541902"
"2423","glgA1","pos","34","0.520060606060606","0.0221885856541902"
"2425","glgA1","pos","34.5","0.521393939393939","0.021633307652784"
"2427","glgA1","pos","35","0.524727272727273","0.0217791949652262"
"2429","glgA1","pos","35.5","0.527393939393939","0.0229128784747792"
"2431","glgA1","pos","36","0.529393939393939","0.0229128784747792"
"2433","glgA1","pos","36.5","0.527060606060606","0.0231588715902424"
"2435","glgA1","pos","37","0.533727272727273","0.0220529665426975"
"2437","glgA1","pos","37.5","0.534727272727273","0.0243378991150291"
"2439","glgA1","pos","38","0.536393939393939","0.0235796522451032"
"2441","glgA1","pos","38.5","0.540727272727273","0.0223681320930768"
"2443","glgA1","pos","39","0.541727272727273","0.0240069434400411"
"2445","glgA1","pos","39.5","0.540393939393939","0.0245560583156173"
"2447","glgA1","pos","40","0.544393939393939","0.0235796522451032"
"2449","glgA1","pos","40.5","0.544393939393939","0.0245560583156173"
"2451","glgA1","pos","41","0.547060606060606","0.0244404037064311"
"2453","glgA1","pos","41.5","0.548393939393939","0.0242693221990232"
"2455","glgA1","pos","42","0.549727272727273","0.0246846781087648"
"2457","glgA1","pos","42.5","0.553393939393939","0.0252388589282479"
"2459","glgA1","pos","43","0.555060606060606","0.0244404037064311"
"2461","glgA1","pos","43.5","0.555060606060606","0.0251064400768674"
"2463","glgA1","pos","44","0.557060606060606","0.0254230866208911"
"2465","glgA1","pos","44.5","0.550727272727273","0.0257940561628708"
"2467","glgA1","pos","45","0.557393939393939","0.0266270539113887"
"2469","glgA1","pos","45.5","0.559393939393939","0.026229754097208"
"2471","glgA1","pos","46","0.559060606060606","0.0240277617212534"
"2473","glgA1","pos","46.5","0.565393939393939","0.0262106848441623"
"2475","glgA1","pos","47","0.567393939393939","0.0252388589282479"
"2477","glgA1","pos","47.5","0.569727272727273","0.0263502055652955"
"2479","glgA1","pos","48","0.569727272727273","0.0256580071972344"
"2481","glgA1","pos","48.5","0.570393939393939","0.0255342906696074"
"2483","glgA1","pos","49","0.573060606060606","0.0267644042215277"
"2485","glgA1","pos","49.5","0.573727272727273","0.0259679289380831"
"2487","glgA1","pos","50","0.573393939393939","0.0248797106092494"
"2489","glgA1","pos","50.5","0.574060606060606","0.0254230866208911"
"2491","glgA1","pos","51","0.575393939393939","0.0268514431641951"
"2493","glgA1","pos","51.5","0.577393939393939","0.026229754097208"
"2495","glgA1","pos","52","0.578060606060606","0.0264070697604511"
"2497","glgA1","pos","52.5","0.578393939393939","0.0258650343127551"
"2499","glgA1","pos","53","0.576727272727273","0.0269505720409295"
"2501","glgA1","pos","53.5","0.580727272727273","0.0253245598842967"
"2503","glgA1","pos","54","0.580060606060606","0.0257746645629644"
"2505","glgA1","pos","54.5","0.582393939393939","0.0252388589282479"
"2507","glgA1","pos","55","0.582393939393939","0.0250599281722834"
"2509","glgA1","pos","55.5","0.582727272727273","0.0255408170059874"
"2511","glgA1","pos","56","0.580393939393939","0.0252388589282479"
"2513","glgA1","pos","56.5","0.582060606060606","0.0260256283945909"
"2515","glgA1","pos","57","0.584727272727273","0.0261023626006025"
"2517","glgA1","pos","57.5","0.585727272727273","0.0265392790658174"
"2519","glgA1","pos","58","0.587393939393939","0.022"
"2521","glgA1","pos","58.5","0.587060606060606","0.0260256283945909"
"2523","glgA1","pos","59","0.583060606060606","0.0260256283945909"
"2525","glgA1","pos","59.5","0.585060606060606","0.0255016339345802"
"2527","glgA1","pos","60","0.589060606060606","0.0250066657780148"
"2529","glgA1","pos","60.5","0.589727272727273","0.0265392790658174"
"2531","glgA1","pos","61","0.589727272727273","0.0255408170059874"
"2533","glgA1","pos","61.5","0.585393939393939","0.0255147016443462"
"2535","glgA1","pos","62","0.589060606060606","0.0265769323537036"
"2537","glgA1","pos","62.5","0.587060606060606","0.0259679289380831"
"2539","glgA1","pos","63","0.584393939393939","0.0252388589282479"
"2541","glgA1","pos","63.5","0.587393939393939","0.0268514431641951"
"2543","glgA1","pos","64","0.592060606060606","0.0255408170059874"
"2545","glgA1","pos","64.5","0.592727272727273","0.0260256283945909"
"2547","glgA1","pos","65","0.592727272727273","0.0255016339345802"
"2549","glgA1","pos","65.5","0.592727272727273","0.0250266524595946"
"2551","glgA1","pos","66","0.591060606060606","0.0250066657780148"
"2553","glgA1","pos","66.5","0.593727272727273","0.0265015722804013"
"2555","glgA1","pos","67","0.594393939393939","0.024"
"2557","glgA1","pos","67.5","0.595727272727273","0.0235867194271127"
"2559","glgA1","pos","68","0.594060606060606","0.0235442845152138"
"2561","glgA1","pos","68.5","0.596393939393939","0.024"
"2563","glgA1","pos","69","0.595060606060606","0.0247049252849171"
"2565","glgA1","pos","69.5","0.590393939393939","0.023259406699226"
"2567","glgA1","pos","70","0.595393939393939","0.0210713075057055"
"2569","glgA1","pos","70.5","0.597727272727273","0.0221885856541902"
"2571","glgA1","pos","71","0.592060606060606","0.0225462487641145"
"2573","glgA1","pos","71.5","0.595393939393939","0.0225166604983954"
