SMa0005,fdoH,independent induced
SMa0045,cah,independent induced
SMa0355,sma0355,dependent induced
SMa0392,sma0392,independent repressed
SMa0596,sma0596,independent induced
SMa0612,fixN3,independent induced
SMa0617,fixP3,independent induced
SMa0620,sma0620,independent induced
SMa0745,groES2,independent repressed
SMa1081,sma1081,dependent induced
SMa1104,sma1104,independent induced
SMa1573,cpaE2,independent repressed
SMa1746,sma1746,independent repressed
SMa1808,sma1808,dependent induced
SMa1809,sma1809,dependent induced
SMa1814,sma1814,dependent induced
SMa1820,sma1820,dependent induced
SMa1822,sma1822,dependent induced
SMa1961,sma1961,independent induced
SMa2031,sma2031,dependent induced
SMa2037,sma2037,dependent induced
SMa2083,sma2083,dependent induced
SMa2169,sma2169,dependent induced
SMa2337,sma2337,independent repressed
SMa2339,sma2339,independent repressed
SMa2379,sma2379,dependent induced
SMa2400,rhbA,independent repressed
SMa2402,rhbB,independent repressed
SMa2404,rhbC,independent repressed
SMa2406,rhbD,independent repressed
SMa2408,rhbE,independent repressed
SMa2410,rhbF,independent repressed
SMa2412,rhrA,independent repressed
SMa2414,rhtA,independent repressed
SMb20037,aroE2,dependent induced
SMb20136,smb20136,independent repressed
SMb20204,pqqA,independent induced
SMb20257,smb20257,dependent induced
SMb20258,smb20258,dependent induced
SMb20263,smb20263,independent repressed
SMb20342,smb20342,independent induced
SMb20343,smb20343,independent induced
SMb20389,smb20389,independent induced
SMb20445,smb20445,dependent induced
SMb20481,asnO,independent repressed
SMb20497,lyx,independent repressed
SMb20529,smb20529,dependent induced
SMb20600,smb20600,dependent induced
SMb20686,SMb20686,dependent induced
SMb20687,SMb20687,dependent induced
SMb20698,smb20698,independent repressed
SMb20745,glnII,independent repressed
SMb20753,smb20753,independent induced
SMb20759,phnG,dependent induced
SMb20811,smb20811,dependent induced
SMb20846,xdhB2,independent induced
SMb20876,smb20876,dependent induced
SMb20888,smb20888,independent repressed
SMb20909,smb20909,dependent induced
SMb20915,aslA1,dependent induced
SMb20945,exoF1,independent induced
SMb20946,exoY,independent induced
SMb20947,exoX,independent induced
SMb20948,exoU,independent induced
SMb20949,exoV,independent induced
SMb20954,exoH,independent induced
SMb20955,exoK,independent induced
SMb20957,exoA,independent induced
SMb20958,exoM,dependent induced
SMb20959,exoO,independent induced
SMb20960,exoN,dependent induced
SMb21011,xdhA2,dependent induced
SMb21053,smb21053,dependent induced
SMb21114,nrtA,independent repressed
SMb21162,smb21162,independent repressed
SMb21170,smb21170,dependent induced
SMb21171,phnM,dependent induced
SMb21175,phoE,dependent induced
SMb21176,phoD,dependent induced
SMb21177,phoC,dependent induced
SMb21212,smb21212,independent induced
SMb21260,smb21260,dependent induced
SMb21270,smb21270,dependent induced
SMb21271,smb21271,dependent induced
SMb21290,smb21290,dependent induced
SMb21314,expE1,dependent induced
SMb21315,expD2,independent induced
SMb21317,expG,dependent induced
SMb21329,smb21329,independent induced
SMb21337,smb21337,independent induced
SMb21431,smb21431,independent repressed
SMb21432,smb21432,independent repressed
SMb21440,smb21440,independent induced
SMb21454,smb21454,dependent induced
SMb21576,smb21576,dependent induced
SMb21601,smb21601,dependent induced
SMb21690,exoW,independent induced
SMc00045,cycF,independent induced
SMc00059,smc00059,dependent induced
SMc00081,smc00081,dependent induced
SMc00094,betB,dependent induced
SMc00137,smc00137,dependent induced
SMc00170,sinR,dependent induced
SMc00171,smc00171,dependent induced
SMc00252,smc00252,independent induced
SMc00271,smc00271,independent repressed
SMc00320,rbfA,independent repressed
SMc00414,smc00414,dependent induced
SMc00428,smc00428,dependent induced
SMc00468,smc00468,dependent induced
SMc00506,smc00506,independent induced
SMc00578,smc00578,dependent induced
SMc00620,smc00620,dependent induced
SMc00737,smc00737,dependent induced
SMc00772,potH,dependent induced
SMc00784,smc00784,independent repressed
SMc00819,katA,dependent induced
SMc00912,groES1,independent repressed
SMc00913,groEL1,independent repressed
SMc00997,smc00997,independent repressed
SMc01122,smc01122,independent repressed
SMc01127,smc01127,dependent induced
SMc01165,iolC,dependent induced
SMc01266,smc01266,independent induced
SMc01267,smc01267,independent induced
SMc01294,rplF,independent repressed
SMc01295,rpsH,independent repressed
SMc01296,rpsN,independent repressed
SMc01300,rpsQ,independent repressed
SMc01301,rpmC,independent repressed
SMc01304,rplV,independent repressed
SMc01305,rpsS,independent repressed
SMc01306,rplB,independent repressed
SMc01308,rplD,independent repressed
SMc01309,rplC,independent repressed
SMc01312,fusA1,independent repressed
SMc01469,mcpW,independent repressed
SMc01510,hmuV,independent repressed
SMc01512,hmuT,independent repressed
SMc01513,hmuS,independent repressed
SMc01514,smc01514,independent repressed
SMc01580,smc01580,independent induced
SMc01605,smc01605,dependent induced
SMc01606,smc01606,dependent induced
SMc01611,fhuA1,independent repressed
SMc01747,smc01747,independent repressed
SMc01765,smc01765,dependent induced
SMc01780,rrpP,independent induced
SMc01788,smc01788,dependent induced
SMc01820,smc01820,independent repressed
SMc01842,smc01842,independent repressed
SMc01847,smc01847,dependent induced
SMc01848,smc01848,dependent induced
SMc01869,smc01869,independent repressed
SMc01907,smc01907,dependent induced
SMc01911,smc01911,independent repressed
SMc01929,smc01929,independent repressed
SMc01930,smc01930,independent repressed
SMc01947,smc01947,independent repressed
SMc01948,livF,independent repressed
SMc01950,livM,independent repressed
SMc01961,smc01961,independent repressed
SMc01965,smc01965,independent repressed
SMc02052,smc02052,independent induced
SMc02085,exbB,independent repressed
SMc02111,smc02111,dependent induced
SMc02141,phoU,dependent induced
SMc02142,pstB,dependent induced
SMc02143,pstA,dependent induced
SMc02146,pstS,dependent induced
SMc02147,phoR,dependent induced
SMc02174,smc02174,dependent induced
SMc02250,mscL,dependent induced
SMc02273,rkpA,dependent induced
SMc02277,smc02277,independent induced
SMc02278,smc02278,independent induced
SMc02373,smc02373,independent induced
SMc02403,smc02403,independent induced
SMc02438,lysC,independent repressed
SMc02490,smc02490,dependent induced
SMc02560,chvI,independent induced
SMc02596,smc02596,independent repressed
SMc02633,smc02633,dependent induced
SMc02634,smc02634,dependent induced
SMc02635,smc02635,independent induced
SMc02726,smc02726,independent repressed
SMc02755,ahcY,independent repressed
SMc02770,smc02770,dependent induced
SMc02854,smc02854,independent induced
SMc03014,fliF,independent repressed
SMc03021,fliM,independent repressed
SMc03022,motA,independent repressed
SMc03024,flgF,independent repressed
SMc03027,flgB,independent repressed
SMc03029,fliE,independent repressed
SMc03030,flgG,independent repressed
SMc03043,motC,independent repressed
SMc03045,smc03045,independent repressed
SMc03048,flgK,independent repressed
SMc03049,flgL,independent repressed
SMc03050,flaF,dependent induced
SMc03051,flbT,independent repressed
SMc03124,smc03124,dependent induced
SMc03125,smc03125,dependent induced
SMc03126,smc03126,dependent induced
SMc03127,smc03127,dependent induced
SMc03129,smc03129,dependent induced
SMc03130,smc03130,dependent induced
SMc03157,smc03157,independent repressed
SMc03243,smc03243,dependent induced
SMc03780,smc03780,independent induced
SMc03786,bfr,dependent induced
SMc03806,glnK,independent repressed
SMc03807,amtB,independent repressed
SMc03834,pcbD,dependent induced
SMc03839,smc03839,dependent induced
SMc03853,smc03853,dependent induced
SMc03859,rpsP,independent repressed
SMc03925,pgm,dependent induced
SMc03961,sqdB,dependent induced
SMc03967,ruvC,independent repressed
SMc03970,smc03970,independent induced
SMc03971,mexF2,dependent induced
SMc03972,mexE2,independent induced
SMc03994,suhB,dependent induced
SMc03999,smc03999,independent induced
SMc04171,smc04171,independent induced
SMc04239,smc04239,independent induced
SMc04241,smc04241,dependent induced
SMc04280,smc04280,independent repressed
SMc04300,afuC,dependent induced
SMc04317,afuA,dependent induced
SMc04346,ilvC,independent repressed
SMc04348,smc04348,independent repressed
