Product,test_id,log2(fold_change)
putative aldehyde,SMA2213,2.19936
putative GntR-family transcription regulator,SMa0160,-0.898779
histidinol-phosphate aminotransferase,SMa0387,-1.35513
hypothetical protein,SMa0439,-0.979239
Nitrate transport ATP binding protein probable,SMa0581,0.930862
NrtB Nitrate transport permease protein,SMa0583,1.06788
NrtA-type periplasmic nitrate transport binding protein probable,SMa0585,1.31501
hypothetical protein,SMa0604,-1.74316
hypothetical protein,SMa0630,-1.70063
hypothetical protein,SMa0631,-3.3402
hypothetical protein,SMa0633,-3.64158
hypothetical protein,SMa0636,-5.37113
hypothetical protein,SMa0661,-3.34739
hypothetical protein,SMa0667,-3.95952
hypothetical protein,SMa0669,-2.33743
amino acid (ornithine lysine arginine) decarboxylase probable,SMa0680,-1.02313
decarboxylase probable (lysine ornithine arginine),SMa0682,-3.65549
hypothetical protein,SMa0683,-0.939604
probable transport protein,SMa0684,-2.0254
hypothetical protein,SMa0687,-0.987882
hypothetical protein,SMa0689,-1.23253
hypothetical protein,SMa0690,-2.96583
arginine deiminase,SMa0693,-3.6479
ArcB catabolic ornithine carbamoyl transferase,SMa0695,-1.17478
chaperonin GroEL,SMa0744,-1.22154
co-chaperonin GroES,SMa0745,-1.29413
FixT2 transcription regulator,SMa0760,-7.95717
transcriptional regulator FixK,SMa0762,-5.38559
hypothetical protein,SMa0763,-6.75162
FixN2 cytochrome c oxidase polypeptide I,SMa0765,-6.82524
FixO2 cytochrome c oxidase,SMa0766,-2.98756
FixP2 cytochrome c oxidase,SMa0769,-1.31587
FixB electron transfer flavoprotein alpha chain,SMa0819,1.05448
FixA electron transfer flavoprotein beta chain,SMa0822,1.3433
Nex18 Symbiotically induced conserved protein,SMa1077,-1.04287
hypothetical protein,SMa1078,-1.01601
TspO Tryptophan rich sensory protein homologue,SMa1079,-2.73766
hypothetical protein,SMa1081,-5.41413
hypothetical protein,SMa1082,-5.98477
hypothetical protein,SMa1086,-6.19461
Putative cation transport P-type ATPase,SMa1087,-3.98065
hypothetical protein,SMa1092,-7.98044
hypothetical protein,SMa1093,-5.8994
hypothetical protein,SMa1095,-5.07249
hypothetical protein,SMa1100,-5.94759
probable HspC2 heat shock protein,SMa1118,-4.80763
ABC transporter ATP binding protein hypothetical,SMa1120,-3.89157
hypothetical protein,SMa1122,-1.00138
hypothetical protein,SMa1126,-4.55273
DegP4 protease like protein,SMa1128,-7.14544
hypothetical protein,SMa1131,-7.25779
hypothetical protein,SMa1132,-6.4149
hypothetical protein,SMa1134,-5.23198
hypothetical protein,SMa1136,-5.13351
hypothetical protein,SMa1146,-3.64958
hypothetical protein,SMa1147,-6.99213
hypothetical protein,SMa1149,-4.19597
hypothetical protein,SMa1151,-2.75276
hypothetical protein,SMa1153,-5.75383
hypothetical protein,SMa1154,-4.44451
Cation transport P-type ATPase hypothetical,SMa1155,-1.9831
probable alcohol,SMa1156,-4.42332
hypothetical protein,SMa1158,-5.06193
Putative cation transport P-type ATPase,SMa1163,-3.00929
Putative hydrolase protein,SMa1166,-6.4579
hypothetical protein,SMa1168,-4.93874
hypothetical protein,SMa1169,-7.23101
putative CycB2 cytochrome c552,SMa1170,-3.91224
hypothetical protein,SMa1171,-2.14177
hypothetical protein,SMa1176,-4.21537
hypothetical protein,SMa1178,-5.15468
NosR Regulatory protein for N2O reductase,SMa1179,-7.53592
nitrous-oxide reductase precurser,SMa1182,-1.41065
hypothetical protein,SMa1194,-1.41335
hypothetical protein,SMa1195,-4.50858
possible Copper export protein,SMa1198,-1.16229
hypothetical protein,SMa1200,-4.76302
hypothetical protein,SMa1201,-6.1865
FixK-like regulatory protein,SMa1207,-7.71474
FixH nitrogen fixation protein,SMa1210,-6.57709
FixG Iron sulfur membrane protein,SMa1211,-7.82889
FixP1 Di-heme cytochrome c,SMa1213,-3.89968
FixQ1 cbb3-type cytochrome oxidase,SMa1214,-5.44231
FixO1 c-type cytochrome,SMa1216,-6.32805
FixN1 Heme b / copper cytochrome c oxidase subunit,SMa1220,-7.90274
Conserved hypothetical protein (ORF151),SMa1223,-5.329
transcriptional regulator FixK,SMa1225,-4.01686
FixT1 Inhibitor of FixL autophosphorylation,SMa1226,-4.37881
hypothetical protein,SMa1231,-7.40632
NapC membrane protein e-donor to periplasmic nitrate reductase,SMa1232,-3.17881
NapE component of periplasmic nitrate reductase,SMa1241,-2.79382
Azu1 pseudoazurin (blue copper protein),SMa1243,-5.61127
putative NirK Cu-nitrite reductase,SMa1250,-1.38661
hypothetical protein,SMa1252,-3.5882
hypothetical protein,SMa1254,-1.31088
hypothetical protein,SMa1256,-1.31504
hypothetical protein,SMa1259,-3.68787
hypothetical protein,SMa1261,-5.43079
coproporphyrinogen III oxidase,SMa1266,-5.9046
NorB nitric oxide reductase,SMa1273,-1.88677
NorC nitric oxide reductase,SMa1276,-3.16589
NorE protein involved in nitric oxide reduction,SMa1279,-5.73366
Probable NnrU protein,SMa1283,-5.04017
hypothetical protein,SMa1288,-2.61521
hypothetical protein,SMa1289,-5.10384
hypothetical protein,SMa1291,-3.64781
hypothetical protein,SMa1294,-1.55729
AdhA1 alcohol,SMa1296,-3.21283
hypothetical protein,SMa1351,-1.08432
Putative epimerase,SMa1353,-1.05029
Putative epimerase,SMa1354,-1.15251
putative ABC transporter periplasmic solute-binding protein,SMa1438,-1.00959
putative 5-dehydro-4-deoxyglucarate dehydratase,SMa1440,-1.0995
Putative transmembrane transport protein,SMa1447,-1.57705
Probable thiolase,SMa1450,-1.494
Probable,SMa1452,-1.14583
putative serine-pyruvate transaminase,SMa1495,-1.54694
Putative POLYHYDROXYALKANOATE DEPOLYMERASE,SMa1961,-2.18833
hypothetical protein,SMa2201,0.990504
putative ABC transporter ATP-binding protein,SMa2207,1.75146
putative ABC transporter periplasmic solute-binding protein,SMa2209,1.76908
acetolactate synthase II large subunit,SMa2211,1.90162
putative decarboxylase,SMa2217,2.26215
probable decarboxylase,SMa2219,2.22582
hypothetical protein,SMa2221,2.09253
putative opine oxidase subunit,SMa2223,2.01203
putative opine oxidase subunit,SMa2225,0.933061
putative transmembrane transport protein,SMa2337,0.843501
RhtA Rhizobactin receptor precursor,SMa2414,1.45854
hypothetical protein,SMb20013,-1.06784
hypothetical protein,SMb20025,-1.90059
hypothetical protein,SMb20026,-1.22383
hypothetical protein,SMb20027,-1.02282
putative non-heme chloroperoxidase protein,SMb20054,0.93688
hypothetical oxidoreductase protein,SMb20097,0.885677
hypothetical protein,SMb20127,-0.933552
putative deaminase protein,SMb20128,-1.43398
methionine sulfoxide reductase A,SMb20198,-0.974336
fructose-bisphosphate aldolase,SMb20199,-0.96582
transketolase,SMb20200,-1.32908
putative phosphoribulokinase protein,SMb20201,-1.51057
fructose-16-bisphosphatase,SMb20202,-1.03196
putative ABC transporter periplasmic sugar-binding protein,SMb20316,0.961139
probable trehalosemaltose-binding protein,SMb20325,-0.865737
putative nitrate transporter protein,SMb20436,2.64671
putative ABC transporter periplasmic sugar-binding protein,SMb20484,-0.964406
hypothetical protein,SMb20488,-0.935358
hypothetical protein,SMb20556,1.01775
putative CoA-transferase subunit A protein,SMb20587,1.28141
acetyl-CoA acetyltransferase,SMb20589,1.32296
putative thiamine biosynthesis oxidoreductase protein,SMb20616,1.44732
putative sugar uptake ABC transporter ATP-binding protein,SMb20661,0.88563
hypothetical protein,SMb20663,1.00328
putative transcriptional regulator GntR family protein,SMb20664,1.77861
hypothetical protein,SMb20668,-0.93319
hypothetical protein,SMb20729,1.25211
hypothetical protein,SMb20876,1.02144
acetyltransferase protein,SMb20943,-0.982918
putative polysaccharide polymerase similar to Wzy protein,SMb20944,-1.35711
succinyltransferase protein,SMb20954,-1.25295
endo-beta-13-14-glycanase protein,SMb20955,-1.28841
probable phoshomethylpyrimidine kinase protein,SMb20962,1.03306
putative transcriptional regulator protein,SMb20963,0.866087
putative nitrite reductase [NAD(P)H] large subunit protein,SMb20984,2.8556
putative nitrite reductase [NAD(P)H] small subunit protein,SMb20985,2.40942
putative nitrate reductase large subunit protein,SMb20986,1.27796
putative siroheme synthetase protein,SMb20987,2.8422
hypothetical protein,SMb20988,1.37999
argininosuccinate lyase,SMb21094,2.52508
putative amino acid uptake ABC transporter permease protein,SMb21095,2.36466
putative amino acid transporter ABC transporter ATP-binding protein,SMb21096,2.19256
putative amino acid uptake ABC transporter periplasmic solute-binding protein precursor,SMb21097,2.0441
hypothetical membrane-anchored protein,SMb21098,1.51946
hypothetical protein,SMb21099,1.37744
putative methylcrotonoyl-CoA carboxylase non-biotinylated subunit protein,SMb21122,-1.15954
hypothetical membrane-anchored protein similar to putative translation initiation inhibitor,SMb21123,-1.19012
putative integral membrane transporter protein,SMb21162,-1.96214
urocanate hydratase,SMb21163,-2.34324
putative formiminoglutamase protein,SMb21164,-2.3224
histidine ammonia-lyase,SMb21165,-2.22431
imidazolonepropionase,SMb21166,-2.44702
phosphate uptake ABC transporter permease protein,SMb21174,1.45635
phosphate uptake ABC transporter permease protein,SMb21175,1.60237
phosphate uptake ABC transporter periplasmic solute-binding protein precursor,SMb21176,2.09352
phosphate uptake ABC transporter ATP-binding protein,SMb21177,2.01931
putative small heat shock protein hsp20 family,SMb21294,-0.930606
putative periplasmic C4-dicarboxylate transport protein,SMb21353,-0.980202
uronate isomerase,SMb21354,-0.917734
hypothetical protein,SMb21399,-1.09978
hypothetical calcium binding protein,SMb21402,-1.28886
hypothetical protein,SMb21551,0.896913
putative ferredoxin reductase electron transfer component protein,SMb21636,-1.00198
putative phenylacetic acid degradation protein,SMb21637,-1.16595
putative phenylacetic acid degradation protein,SMb21638,-1.41807
putative phenylacetic acid degradation protein,SMb21640,-1.47943
PUTATIVE ALPHA-HALOCARBOXYLIC ACID DEHALOGENASE PROTEIN,SMc00103,-1.22352
hypothetical protein,SMc00171,1.0753
PROBABLE TRANS-ACONITATE METHYLTRANSFERASE PROTEIN,SMc00225,-1.15411
PUTATIVE OXIDOREDUCTASE PROTEIN,SMc00264,-0.977658
PUTATIVE PERIPLASMIC BINDING PROTEIN,SMc00265,-1.39923
tRNA-Leu-CAG,SMc00434,1.24629
HYPOTHETICAL SIGNAL PEPTIDE PROTEIN,SMc00620,1.2933
hypothetical protein,SMc00666,-1.91401
HYPOTHETICAL TRANSMEMBRANE PROTEIN,SMc00668,-3.69451
PUTATIVE HISTIDINE AMMONIA-LYASE PROTEIN,SMc00669,-3.51935
HISTIDINE TRANSPORT ATP-BINDING ABC TRANSPORTER PROTEIN,SMc00670,-3.71818
HISTIDINE TRANSPORT SYSTEM PERMEASE ABC TRANSPORTER PROTEIN,SMc00671,-3.70505
HISTIDINE-BINDING PERIPLASMIC SIGNAL PEPTIDE PROTEIN,SMc00672,-3.43031
atrazine chlorohydrolase,SMc00673,-3.94335
hypothetical protein,SMc00777,-6.91985
PUTATIVE MALONIC SEMIALDEHYDE OXIDATIVE DECARBOXYLASE PROTEIN,SMc00781,-1.44772
PROBABLE DIPEPTIDE TRANSPORT SYSTEM PERMEASE PROTEIN,SMc00788,-1.29947
hypothetical protein,SMc00801,-0.931083
hypothetical protein,SMc00978,1.04784
PYRUVATE DEHYDROGENASE ALPHA2 SUBUNIT PROTEIN,SMc01030,1.63545
dihydrolipoamide acetyltransferase,SMc01031,1.80754
DIHYDROLIPOAMIDE S-ACETYLTRANSFERASE PROTEIN,SMc01032,1.89316
PROBABLE ARYLESTERASE PROTEIN,SMc01033,1.90418
dihydrolipoamide dehydrogenase,SMc01035,1.76745
hypothetical protein,SMc01036,1.7208
lipoyl synthase,SMc01037,1.3533
PROBABLE SIROHEME SYNTHASE PROTEIN,SMc01053,1.15198
hypothetical protein,SMc01054,1.37338
PROBABLE SMALL HEAT SHOCK PROTEIN,SMc01106,-0.96498
PUTATIVE HEMIN TRANSPORT SYSTEM ATP-BINDING ABC TRANSPORTER PROTEIN,SMc01510,0.994275
PUTATIVE HEMIN BINDING PERIPLASMIC TRANSMEMBRANE PROTEIN,SMc01512,1.14843
PUTATIVE HEMIN TRANSPORT PROTEIN,SMc01513,1.22881
hypothetical protein,SMc01514,0.905361
hypothetical protein,SMc01516,0.990496
hypothetical protein,SMc01517,1.09422
hypothetical protein,SMc01542,-1.58321
ribose-5-phosphate isomerase B,SMc01613,0.979729
PUTATIVE PERMEASE ABC TRANSPORTER PROTEIN,SMc01626,-1.01511
PUTATIVE PERMEASE ABC TRANSPORTER PROTEIN,SMc01627,-1.23243
PUTATIVE PERIPLASMIC BINDING ABC TRANSPORTER PROTEIN,SMc01628,-1.35801
PUTATIVE FERRICHROME-IRON RECEPTOR PRECURSOR PROTEIN,SMc01657,1.00451
hypothetical protein,SMc01723,0.877786
hypothetical protein,SMc01747,1.29843
hypothetical protein,SMc01848,1.42525
pantoate--beta-alanine ligase,SMc01880,-1.0347
3-methyl-2-oxobutanoate hydroxymethyltransferase,SMc01881,-1.05605
hypothetical protein,SMc01907,1.29224
hypothetical protein,SMc02111,-3.4264
hypothetical protein,SMc02123,0.989124
PUTATIVE NITRITE REDUCTASE PROTEIN,SMc02124,1.27381
PUTATIVE TRANSPORT TRANSMEMBRANE PROTEIN,SMc02161,-1.26776
PUTATIVE PERIPLASMIC BINDING PROTEIN,SMc02344,1.0121
PUTATIVE TRANSPORT SYSTEM PERMEASE ABC TRANSPORTER PROTEIN,SMc02345,0.932138
PUTATIVE ATP-BINDING ABC TRANSPORTER PROTEIN,SMc02346,0.894378
PUTATIVE FERREDOXIN ASFB IRON-SULFUR PROTEIN,SMc02347,1.32002
PUTATIVE OXIDOREDUCTASE PROTEIN,SMc02349,1.17346
hypothetical protein,SMc02350,1.17657
HYPOTHETICAL UNKNOWN PROTEIN,SMc02373,-1.77446
HYPOTHETICAL UNKNOWN PROTEIN,SMc02374,-1.96295
PROBABLE ATP-DEPENDENT PROTEASE (HEAT SHOCK PROTEIN),SMc02433,-1.60313
hypothetical protein,SMc02447,-0.969499
HYPOTHETICAL UNKNOWN PROTEIN,SMc02552,-0.875594
phosphoenolpyruvate carboxykinase,SMc02562,1.16124
hypothetical protein,SMc02634,1.51357
hypothetical protein,SMc02655,1.27425
HYPOTHETICAL UNKNOWN PROTEIN,SMc02656,2.49828
hypothetical protein,SMc02770,-1.36354
PUTATIVE ZINC-TYPE ALCOHOL DEHYDROGENASE PROTEIN,SMc02771,-1.63353
PUTATIVE SUGAR ABC TRANSPORTER PERMEASE PROTEIN,SMc02772,-1.58204
PUTATIVE ABC TRANSPORTER ATP-BINDING PROTEIN,SMc02773,-1.53989
PUTATIVE L-FUCOSE DEHYDROGENASE (D-THREO ALDOSE 1-DEHYDROGENASE) PROTEIN,SMc02775,-1.43624
PUTATIVE ALTRONATE HYDROLASE PROTEIN,SMc02776,-1.22586
FLAGELLAR TRANSMEMBRANE PROTEIN,SMc03035,0.910901
6-phosphogluconolactonase,SMc03069,-1.1253
PUTATIVE ALCOHOL DEHYDROGENASE PROTEIN,SMc03116,-1.13445
PUTATIVE PERMEASE ABC TRANSPORTER PROTEIN,SMc03117,-1.27574
PUTATIVE PERMEASE ABC TRANSPORTER PROTEIN,SMc03118,-1.18604
PUTATIVE ATP-BINDING ABC TRANSPORTER PROTEIN,SMc03119,-1.31014
PUTATIVE ATP-BINDING ABC TRANSPORTER PROTEIN,SMc03120,-1.50851
PUTATIVE PERIPLASMIC BINDING ABC TRANSPORTER PROTEIN,SMc03121,-1.61194
PUTATIVE PERIPLASMIC BINDING ABC TRANSPORTER PROTEIN,SMc03124,1.39028
PUTATIVE TRANSPORT SYSTEM PERMEASE ABC TRANSPORTER PROTEIN,SMc03128,0.927639
hypothetical protein,SMc03129,1.11351
hypothetical protein,SMc03162,-0.919734
homogentisate 12-dioxygenase,SMc03208,-0.869884
PUTATIVE 4-HYDROXYPHENYLPYRUVATE DIOXYGENASE PROTEIN,SMc03211,-1.21959
hypothetical protein,SMc03251,-1.66986
gamma-glutamyl kinase,SMc03252,-5.28848
PUTATIVE L-PROLINE 3-HYDROXYLASE PROTEIN,SMc03253,-4.90492
PUTATIVE TRANSPORT SYSTEM PERMEASE ABC TRANSPORTER PROTEIN,SMc03814,0.917585
PUTATIVE ATP BINDING ABC TRANSPORTER PROTEIN,SMc03815,0.859039
HYPOTHETICAL HEAT SHOCK-LIKE PROTEIN,SMc03876,1.59605
ACETOACETYL-COA REDUCTASE PROTEIN,SMc03878,-1.63551
tRNA-Gly-GCC,SMc03902,1.49229
HYPOTHETICAL TRANSCRIPTION REGULATOR PROTEIN,SMc03998,-1.15613
PROBABLE GLUTAMATE SYNTHASE SMALL CHAIN PROTEIN,SMc04026,1.22244
PROBABLE HEAT SHOCK PROTEIN,SMc04040,-1.96207
hypothetical protein,SMc04188,-0.931561
PUTATIVE PERIPLASMIC BINDING ABC TRANSPORTER SIGNAL PEPTIDE PROTEIN,SMc04259,-1.02946
PROBABLE FERRIC IRON TRANSPORT SYSTEM PERMEASE PROTEIN,SMc04316,1.40121
IRON-BINDING PERIPLASMIC PROTEIN,SMc04317,1.53673
hypothetical protein,SMc04402,-1.26812
PUTATIVE NADH DEHYDROGENASE TRANSMEMBRANE PROTEIN,SMc04452,1.79669
