Product,test_id,log2(fold_change)
hypothetical protein,SMa0025,0.86048
chaperonin GroEL,SMa0124,0.79345
histidinol-phosphate aminotransferase,SMa0387,-0.851201
FixN3 cytochrome c oxidase subunit 1,SMa0612,0.72445
hypothetical protein,SMa0630,0.965191
hypothetical protein,SMa0636,0.744097
hypothetical protein,SMa0669,0.837621
amino acid (ornithine lysine arginine) decarboxylase probable,SMa0680,0.850924
decarboxylase probable (lysine ornithine arginine),SMa0682,0.98178
FixP2 cytochrome c oxidase,SMa0769,0.829111
hypothetical protein,SMa1057,0.80011
hypothetical protein,SMa1076,0.809703
Nex18 Symbiotically induced conserved protein,SMa1077,2.5759
hypothetical protein,SMa1078,1.80284
TspO Tryptophan rich sensory protein homologue,SMa1079,1.17847
hypothetical protein,SMa1081,0.850844
putative phosphoketolase,SMa1084,0.939095
hypothetical protein,SMa1093,0.789037
probable HspC2 heat shock protein,SMa1118,0.690137
hypothetical protein,SMa1122,0.891953
hypothetical protein,SMa1126,0.835663
hypothetical protein,SMa1134,0.848966
hypothetical protein,SMa1146,0.74565
hypothetical protein,SMa1149,0.822782
hypothetical protein,SMa1153,0.703565
hypothetical protein,SMa1154,0.703855
Cation transport P-type ATPase hypothetical,SMa1155,0.78682
probable alcohol,SMa1156,0.885608
hypothetical protein,SMa1158,0.696703
hypothetical protein,SMa1168,1.11128
nitrous-oxide reductase precurser,SMa1182,0.964406
putative flavohemoglobin like protein,SMa1191,0.7607
FixP1 Di-heme cytochrome c,SMa1213,1.02492
FixQ1 cbb3-type cytochrome oxidase,SMa1214,0.814901
FixO1 c-type cytochrome,SMa1216,0.774649
transcriptional regulator FixK,SMa1225,-0.767672
hypothetical protein,SMa1261,0.970337
AdhA1 alcohol,SMa1296,0.622296
Probable thiolase,SMa1450,1.30592
NuoH2 NADH chain H,SMa1516,0.850688
hypothetical protein,SMa1521,1.1991
hypothetical protein,SMa1898,0.816658
probable DNA-binding protein,SMa2151,-0.799837
hypothetical protein,SMa2233,-0.794291
hypothetical protein,SMa2347,1.25156
RhtA Rhizobactin receptor precursor,SMa2414,-0.990018
putative rhizopine binding protein,SMb20072,-3.39123
putative monooxygenase protein,SMb20103,1.21097
hypothetical sugar transferase protein,SMb20117,0.971865
putative inositol monophosphatase protein,SMb20150,-1.00584
putative transcriptional regulator protein,SMb20154,-0.913816
putative ABC transporter permease protein,SMb20155,-1.78319
putative ABC transporter ATP-binding protein,SMb20156,-1.69146
hypothetical ABC transporter periplasmic solute-binding protein,SMb20157,-1.16672
hypothetical protein,SMb20167,0.738188
probable glutathione-dependent formaldehyde dehydrogenase protein,SMb20170,1.18518
putative S-formylglutathione hydrolase protein,SMb20171,1.04053
putative cytochrome c protein,SMb20172,1.11394
glutathione-dependent formaldehyde-activating enzyme,SMb20186,1.3384
hypothetical protein,SMb20255,1.15124
putative ABC transporter periplasmic amino acid-binding protein,SMb20263,-0.625418
putative amino acid ABC transporter permease protein,SMb20264,-0.76408
hypothetical protein,SMb20303,0.87829
hypothetical protein,SMb20359,0.783087
hypothetical protein,SMb20360,0.843286
hypothetical protein,SMb20368,0.793885
putative ABC transporter periplasmic sugar-binding protein,SMb20484,0.859002
putative sugar ABC transporter ATP-binding protein,SMb20485,1.10962
hypothetical protein,SMb20488,1.20105
hypothetical protein,SMb20551,0.952902
hypothetical protein,SMb20663,1.17704
putative transcriptional regulator GntR family protein,SMb20664,1.12689
putative sugar uptake ABC transporter ATP-binding protein,SMb20673,2.29055
putative transcriptional regulator LacI family protein,SMb20674,1.78839
hypothetical protein,SMb20705,-0.815814
putative methylated-DNA--protein-cysteine methyltransferase,SMb20708,0.775507
hypothetical protein,SMb20711,-0.870692
putative rhizopine uptake ABC transporter periplasmic solute-binding protein precursor,SMb20712,-3.39329
putative sugar uptake ABC transporter ATP-binding protein,SMb20713,-1.98135
putative sugar uptake ABC transporter permease protein,SMb20714,-2.64558
hypothetical protein,SMb20729,0.874735
putative hydrocarbon oxygenase protein,SMb20818,1.65341
putative ferredoxin of the Rieseke type protein,SMb20819,1.32444
hypothetical protein,SMb20876,-0.888102
putative ATP-dependent RNA helicase protein,SMb20880,-0.704514
hypothetical myo-inositol dehydrogenase protein,SMb20899,-3.10426
hypothetical protein,SMb20900,-2.36361
putative exported carboxyl-terminal protease protein,SMb20928,1.01609
hypothetical outer membrane protein similar to Wza OMA family,SMb20945,-0.613648
urocanate hydratase,SMb21163,-0.830438
putative formiminoglutamase protein,SMb21164,-0.96105
phosphate uptake ABC transporter permease protein,SMb21174,-0.861445
phosphate uptake ABC transporter permease protein,SMb21175,-1.03677
phosphate uptake ABC transporter ATP-binding protein,SMb21177,-0.832548
putative glutaryl-CoA dehydrogenase protein,SMb21181,-1.20804
putative conserved membrane-anchored protein,SMb21182,-0.963491
putative oligopeptide uptake ABC transporter periplasmic solute-binding protein precursor,SMb21196,-0.855798
putative oligopeptide uptake ABC transporter permease protein,SMb21197,-1.63792
putative oligopeptide uptake ABC transporter permease protein,SMb21198,-1.74226
putative oligopeptide uptake ABC transporter ATP-binding protein consisting of 2 fused ATP-binding domains,SMb21199,-1.60437
putative small heat shock protein hsp20 family,SMb21294,1.4255
putative small heat shock protein hsp20 family,SMb21295,0.985341
hypothetical calcium binding protein,SMb21402,-0.908414
chaperonin GroEL,SMb21566,0.718538
putative ferredoxin reductase electron transfer component protein,SMb21636,1.14172
putative phenylacetic acid degradation protein,SMb21637,1.49151
putative phenylacetic acid degradation protein,SMb21638,1.37531
putative phenylacetic acid degradation protein,SMb21639,1.30053
putative phenylacetic acid degradation protein,SMb21640,0.675912
alpha-galactosidase (melibiase) protein,SMb21648,1.60309
enoyl-(acyl carrier protein) reductase,SMc00005,-0.850034
hypothetical protein,SMc00033,-0.608622
PUTATIVE GLUTATHIONE S-TRANSFERASE PROTEIN,SMc00097,-0.737307
PUTATIVE AMINO ACID TRANSPORT SYSTEM PERMEASE PROTEIN,SMc00139,-0.806432
hypothetical protein,SMc00147,-0.87655
hypothetical protein,SMc00171,-0.950083
PROBABLE UBIQUINOL-CYTOCHROME C REDUCTASE IRON-SULFUR SUBUNIT PROTEIN,SMc00187,-0.576014
PUTATIVE OXIDOREDUCTASE PROTEIN,SMc00287,-0.621963
hypothetical protein,SMc00332,-0.605864
elongation factor P,SMc00357,-0.628005
50S ribosomal protein L35,SMc00363,-0.843521
hypothetical protein,SMc00397,1.07978
HYPOTHETICAL SIGNAL PEPTIDE PROTEIN,SMc00409,-0.924584
hypothetical protein,SMc00431,-1.92781
PUTATIVE MYO-INOSITOL CATABOLISM PROTEIN,SMc00432,-2.68892
PUTATIVE MYO-INOSITOL CATABOLISM PROTEIN,SMc00433,-2.77539
hypothetical protein,SMc00484,-0.677392
phosphoribosylformylglycinamidine synthase,SMc00494,-0.789801
PUTATIVE ATP-DEPENDENT RNA HELICASE PROTEIN,SMc00522,-0.605809
30S ribosomal protein S6,SMc00568,-0.855697
3-oxoacyl-(acyl carrier protein) synthase,SMc00574,-0.727895
PUTATIVE ABC TRANSPORTER ATP-BINDING PROTEIN,SMc00590,-0.602475
HYPOTHETICAL/UNKNOWN SIGNAL PEPTIDE PROTEIN,SMc00591,1.59758
HYPOTHETICAL SIGNAL PEPTIDE PROTEIN,SMc00620,-0.622856
RNA polymerase sigma factor,SMc00646,0.791067
RESPONSE REGULATORCONTROLS CHROMOSOMAL REPLICATION INITIATION PROTEIN,SMc00654,-0.610654
hypothetical protein,SMc00657,-0.679729
50S ribosomal protein L28,SMc00704,-0.649845
hypothetical protein,SMc00777,-2.91604
PUTATIVE MALONIC SEMIALDEHYDE OXIDATIVE DECARBOXYLASE PROTEIN,SMc00781,-2.13379
PROBABLE PERIPLASMIC DIPEPTIDE-BINDING PROTEIN,SMc00786,-0.804359
PROBABLE DIPEPTIDE TRANSPORT SYSTEM PERMEASE PROTEIN,SMc00787,-1.31692
PROBABLE DIPEPTIDE TRANSPORT SYSTEM PERMEASE PROTEIN,SMc00788,-1.20331
PROBABLE DIPEPTIDE TRANSPORT ATP-BINDING ABC TRANSPORTER PROTEIN,SMc00789,-1.0591
PROBABLE DIPEPTIDE TRANSPORT ATP-BINDING ABC TRANSPORTER PROTEIN,SMc00790,-1.09999
hypothetical protein,SMc00791,-0.687985
inositol-5-monophosphate dehydrogenase,SMc00815,-0.762633
hypothetical protein,SMc00816,-0.743433
PUTATIVE SIGNAL PEPTIDE PROTEIN,SMc00925,-0.722752
PROBABLE CHEMORECEPTOR (METHYL-ACCEPTING CHEMOTAXIS) TRANSMEMBRANE PROTEIN,SMc00975,-1.19924
CTP synthetase,SMc01025,-0.678853
PUTATIVE ESTERASE PROTEIN,SMc01093,0.926246
PUTATIVE MULTIDRUG EFFLUX SYSTEM TRANSMEMBRANE PROTEIN,SMc01094,0.72788
PROBABLE MULTIDRUG-EFFLUX SYSTEM TRANSMEMBRANE PROTEIN,SMc01095,0.616919
hypothetical protein,SMc01160,1.33503
PUTATIVE OXIDOREDUCTASE PROTEIN,SMc01163,-3.21759
hypothetical protein,SMc01164,-2.39241
PUTATIVE SUGAR KINASE PROTEIN,SMc01165,-3.00899
PUTATIVE MALONIC SEMIALDEHYDE OXIDATIVE DECARBOXYLASE PROTEIN,SMc01166,-2.78513
S-adenosylmethionine:tRNA ribosyltransferase-isomerase,SMc01207,-0.834877
phosphopantetheine adenylyltransferase,SMc01209,-0.69546
30S ribosomal protein S11,SMc01286,-0.749433
30S ribosomal protein S5,SMc01292,-0.558375
30S ribosomal protein S14,SMc01296,-0.588305
50S ribosomal protein L5,SMc01297,-0.743633
50S ribosomal protein L14,SMc01299,-0.733173
50S ribosomal protein L3,SMc01309,-0.79996
30S ribosomal protein S10,SMc01310,-0.802191
30S ribosomal protein S7,SMc01313,-0.888417
30S ribosomal protein S12,SMc01314,-0.927803
50S ribosomal protein L1,SMc01320,-0.589716
50S ribosomal protein L11,SMc01321,-0.687811
translocase,SMc01323,-0.710236
3-dehydroquinate dehydratase,SMc01343,-0.687046
acetyl-CoA carboxylase,SMc01344,-0.630357
DNA topoisomerase I,SMc01364,-0.745447
hypothetical protein,SMc01446,-1.29231
PUTATIVE CREA PROTEIN,SMc01465,0.695847
PROBABLE METHYL ACCEPTING CHEMOTAXIS TRANSMEMBRANE PROTEIN,SMc01469,-0.959965
PROBABLE SORBITOL-BINDING PERIPLASMIC PROTEIN,SMc01496,0.580107
PROBABLE SORBITOL/MANNITOL TRANSPORT INNER MEMBRANE TRANSMEMBRANE PROTEIN,SMc01497,0.815825
PROBABLE SORBITOL/MANNITOL TRANSPORT INNER MEMBRANE PROTEIN,SMc01498,0.67034
PUTATIVE DIPEPTIDE BINDING PERIPLASMIC PROTEIN,SMc01525,-0.585543
hypothetical protein,SMc01542,-1.08834
hypothetical protein,SMc01543,-0.767676
PUTATIVE OXIDOREDUCTASE PROTEIN,SMc01576,-1.39239
PUTATIVE PERMEASE ABC TRANSPORTER PROTEIN,SMc01626,0.818447
PUTATIVE PERIPLASMIC BINDING ABC TRANSPORTER PROTEIN,SMc01628,1.15503
PUTATIVE ERY OPERON REPRESSOR TRANSCRIPTION REGULATOR PROTEIN,SMc01629,1.27781
aspartyl-tRNA synthetase,SMc01756,-0.582818
transcription antitermination protein NusB,SMc01778,-0.853518
PUTATIVE TRANSPORT TRANSMEMBRANE PROTEIN,SMc01779,-0.756774
50S ribosomal protein L13,SMc01804,-0.807379
hypothetical protein,SMc01848,-0.792374
PUTATIVE TRANSPORT TRANSMEMBRANE PROTEIN,SMc01869,1.41183
hypothetical protein,SMc01876,-0.656572
glycine dehydrogenase,SMc02049,-0.677297
trigger factor,SMc02050,-0.779653
PUTATIVE PROTEIN-EXPORT MEMBRANE PROTEIN,SMc02057,-0.879625
UDP-3-O-[3-hydroxymyristoyl] glucosamine N-acyltransferase,SMc02093,-0.97844
ribosome releasing factor,SMc02098,-0.762571
uridylate kinase,SMc02099,-1.01073
elongation factor Ts,SMc02100,-0.624593
hypothetical protein,SMc02111,-1.28571
hypothetical protein,SMc02156,1.00446
PUTATIVE PERIPLASMIC BINDING ABC TRANSPORTER PROTEIN,SMc02171,0.77004
PUTATIVE QUINOL OXIDASE SUBUNIT II TRANSMEMBRANE PROTEIN,SMc02254,1.43972
PUTATIVE QUINOL OXIDASE SUBUNIT I TRANSMEMBRANE PROTEIN,SMc02255,1.14706
translation initiation factor IF-1,SMc02310,-0.765662
PUTATIVE INTEGRASE PROTEIN,SMc02397,-0.878323
PROBABLE ATP-DEPENDENT PROTEASE (HEAT SHOCK PROTEIN),SMc02433,0.962831
hypothetical protein,SMc02447,-0.999655
PUTATIVE TRANSCRIPTION REGULATOR PROTEIN,SMc02470,0.755181
PUTATIVE PERIPLASMIC BINDING ABC TRANSPORTER PROTEIN,SMc02471,0.928008
hypothetical protein,SMc02503,-1.54743
PUTATIVE PERIPLASMIC BINDING ABC TRANSPORTER PROTEIN,SMc02514,0.609312
PUTATIVE ATP-BINDING ABC TRANSPORTER PROTEIN,SMc02518,0.677113
ATP-dependent protease ATP-binding subunit,SMc02577,0.930324
hypothetical protein,SMc02634,-0.745628
hypothetical protein,SMc02636,-0.778622
PUTATIVE GTP-BINDING PROTEIN,SMc02695,-0.611067
hypothetical protein,SMc02769,0.827736
PROBABLE SUCCINATE-SEMIALDEHYDE DEHYDROGENASE [NADP+] PROTEIN,SMc02780,0.724846
hypothetical protein,SMc02842,0.756427
PUTATIVE PERIPLASMIC BINDING (SIGNAL PEPTIDE) ABC TRANSPORTER PROTEIN,SMc02873,0.684465
hypothetical protein,SMc02874,1.31775
hypothetical protein,SMc02875,1.12987
PUTATIVE TRANSCRIPTION REGULATOR PROTEIN,SMc02876,1.42443
PUTATIVE TRANSMEMBRANE PROTEIN,SMc02882,0.749853
PUTATIVE CHEMORECEPTOR (METHYL-ACCEPTING CHEMOTAXIS PROTEIN),SMc03004,-1.11406
hypothetical protein,SMc03005,-1.11879
CHEMOTAXIS REGULATOR PROTEIN,SMc03006,-0.861924
CHEMOTAXIS PROTEIN (SENSORY TRANSDUCTION HISTIDINE KINASE),SMc03007,-0.785459
hypothetical protein,SMc03023,-0.831115
flagellar basal body rod protein,SMc03027,-0.811282
FLAGELLIN A PROTEIN,SMc03037,-0.976352
FLAGELLIN B PROTEIN,SMc03038,-1.08529
PROBABLE FLAGELLIN D PROTEIN,SMc03039,-0.600737
PUTATIVE TRANSCRIPTION REGULATOR PROTEIN,SMc03046,-0.854247
flagellar hook-associated protein,SMc03048,-0.607495
PUTATIVE MULTIDRUG EFFLUX SYSTEM PROTEIN,SMc03168,0.739049
glutamyl-tRNA synthetase,SMc03172,-0.612869
PUTATIVE ALKALINE PHOSPHATASE TRANSMEMBRANE PROTEIN,SMc03243,-1.02272
tRNA-Ser-CGA,SMc03779,-1.06947
hypothetical protein,SMc03780,0.820471
hypothetical protein,SMc03781,0.807803
HYPOTHETICAL/UNKNOWN TRANSMEMBRANE PROTEIN,SMc03794,1.28615
PUTATIVE PERIPLASMIC BINDING ABC TRANSPORTER PROTEIN,SMc03813,1.12685
PUTATIVE TRANSPORT SYSTEM PERMEASE ABC TRANSPORTER PROTEIN,SMc03814,1.38284
PUTATIVE ATP BINDING ABC TRANSPORTER PROTEIN,SMc03815,1.26128
PUTATIVE TRANSCRIPTION REGULATOR PROTEIN,SMc03816,1.18867
PUTATIVE SUGAR KINASE PROTEIN,SMc03817,1.13229
PUTATIVE PTERIN-4-ALPHA-CARBINOLAMINE DEHYDRATASE PROTEIN,SMc03834,0.951165
HYPOTHETICAL HEAT SHOCK-LIKE PROTEIN,SMc03876,1.56295
ACETOACETYL-COA REDUCTASE PROTEIN,SMc03878,-1.65504
50S ribosomal protein L32,SMc03881,-0.727572
HYPOTHETICAL TRANSCRIPTION REGULATOR PROTEIN,SMc03998,-0.791315
hypothetical protein,SMc04000,-0.72606
PROBABLE HEAT SHOCK PROTEIN,SMc04040,1.43252
PUTATIVE OXIDOREDUCTASE PROTEIN,SMc04252,-0.630389
PUTATIVE AMINO ACID CARRIER TRANSMEMBRANE PROTEIN,SMc04263,-0.786917
acyl carrier protein,SMc04278,-0.668517
hypothetical protein,SMc04289,0.796828
IRON-BINDING PERIPLASMIC PROTEIN,SMc04317,-0.667552
CONSERVED HYPOTHETICAL SIGNAL PEPTIDE PROTEIN,SMc04352,-0.797976
hypothetical protein,SMc04383,-1.90287
PUTATIVE OXIDOREDUCTASE PROTEIN,SMc04384,-1.77449
PUTATIVE ALDEHYDE DEHYDROGENASE TRANSMEMBRANE PROTEIN,SMc04385,-1.72262
ASPARTATE AMINOTRANSFERASE B PROTEIN,SMc04386,-2.05245
hypothetical protein,SMc04406,0.780399
