Product,test_id,log2(fold_change)
putative ABC transporter,SMa0298,0.883481
histidinol-phosphate aminotransferase,SMa0387,-1.01519
hypothetical protein,SMa0630,0.963254
hypothetical protein,SMa0636,0.679103
hypothetical protein,SMa0667,0.80604
hypothetical protein,SMa0669,0.82775
amino acid (ornithine lysine arginine) decarboxylase probable,SMa0680,0.858662
decarboxylase probable (lysine ornithine arginine),SMa0682,0.740524
arginine deiminase,SMa0693,0.693498
FixT2 transcription regulator,SMa0760,0.757479
FixP2 cytochrome c oxidase,SMa0769,0.897829
hypothetical protein,SMa0848,-0.881953
3-ketoacyl-(acyl-carrier-protein) reductase,SMa0854,0.83105
Nex18 Symbiotically induced conserved protein,SMa1077,2.22718
hypothetical protein,SMa1078,1.58063
TspO Tryptophan rich sensory protein homologue,SMa1079,0.993836
hypothetical protein,SMa1081,0.872534
putative phosphoketolase,SMa1084,0.936084
hypothetical protein,SMa1086,0.564055
hypothetical protein,SMa1092,0.831258
hypothetical protein,SMa1093,0.861999
hypothetical protein,SMa1095,0.855079
probable HspC2 heat shock protein,SMa1118,0.940461
ABC transporter ATP binding protein hypothetical,SMa1120,0.63257
hypothetical protein,SMa1122,0.830104
hypothetical protein,SMa1126,0.71955
hypothetical protein,SMa1131,0.576244
hypothetical protein,SMa1134,0.762894
hypothetical protein,SMa1136,0.61275
hypothetical protein,SMa1146,0.773147
hypothetical protein,SMa1147,0.654979
hypothetical protein,SMa1149,0.939939
hypothetical protein,SMa1153,0.754952
hypothetical protein,SMa1154,0.768198
Cation transport P-type ATPase hypothetical,SMa1155,0.739719
probable alcohol,SMa1156,0.786965
hypothetical protein,SMa1158,0.820276
Putative cation transport P-type ATPase,SMa1163,0.595448
Putative hydrolase protein,SMa1166,0.719928
hypothetical protein,SMa1168,0.934493
hypothetical protein,SMa1169,0.689941
putative CycB2 cytochrome c552,SMa1170,0.700149
hypothetical protein,SMa1176,0.680141
hypothetical protein,SMa1178,0.675694
NosR Regulatory protein for N2O reductase,SMa1179,0.559448
nitrous-oxide reductase precurser,SMa1182,1.16449
putative flavohemoglobin like protein,SMa1191,0.710613
hypothetical protein,SMa1195,0.768548
FixP1 Di-heme cytochrome c,SMa1213,1.17819
FixQ1 cbb3-type cytochrome oxidase,SMa1214,1.02097
FixO1 c-type cytochrome,SMa1216,0.924499
NapC membrane protein e-donor to periplasmic nitrate reductase,SMa1232,0.648832
NapA periplasmic nitrate reductase,SMa1236,0.715355
Azu1 pseudoazurin (blue copper protein),SMa1243,0.927666
hypothetical protein,SMa1256,0.929443
hypothetical protein,SMa1259,0.886746
hypothetical protein,SMa1261,1.19467
coproporphyrinogen III oxidase,SMa1266,0.806591
NorQ protein required for nitric oxide reductase activity,SMa1272,0.888275
NorB nitric oxide reductase,SMa1273,0.739902
AdhA1 alcohol,SMa1296,0.917569
Probable thiolase,SMa1450,0.799517
putative serine-pyruvate transaminase,SMa1495,0.899101
Putative POLYHYDROXYALKANOATE DEPOLYMERASE,SMa1961,-0.792436
probable DNA-binding protein,SMa2151,-0.656716
hypothetical protein,SMa2233,-0.735895
putative transmembrane transport protein,SMa2337,-1.10179
diaminobutyrate--2-oxoglutarate aminotransferase,SMa2400,-1.6451
RhsB L-24-diaminobutyrate decarboxylase,SMa2402,-1.96438
RhbC rhizobactin siderophore biosynthesis protein,SMa2404,-1.62961
RhbE Rhizobactin siderophore biosynthesis protein,SMa2408,-1.67646
RhbF Rhizobactin siderophore biosynthesis protein RhsF,SMa2410,-1.41555
RhtA Rhizobactin receptor precursor,SMa2414,-1.65018
putative rhizopine binding protein,SMb20072,-0.667698
putative monooxygenase protein,SMb20103,1.21797
probable glutathione-dependent formaldehyde dehydrogenase protein,SMb20170,1.15637
putative S-formylglutathione hydrolase protein,SMb20171,0.955956
glutathione-dependent formaldehyde-activating enzyme,SMb20186,1.14827
putative phosphoribulokinase protein,SMb20201,1.01411
hypothetical protein,SMb20488,1.11267
putative ureashort-chain amide or branched-chain amino acid uptake ABC transporter permease protein,SMb20603,1.3525
putative ureashort-chain amide or branched-chain amino acid uptake ABC transporter permease protein possibly fusion protein,SMb20604,2.0747
putative ureashort-chain amide or branched-chain amino acid uptake ABC transporter periplasmic solute-binding protein precursor,SMb20605,1.87613
putative transcriptional regulator GntR family protein,SMb20664,0.831736
putative sugar uptake ABC transporter ATP-binding protein,SMb20673,1.27639
putative transcriptional regulator LacI family protein,SMb20674,0.829092
hypothetical protein,SMb20705,-0.745543
putative amino acid uptake ABC transporter periplasmic solute-binding protein precursor,SMb20706,-0.780699
putative rhizopine uptake ABC transporter periplasmic solute-binding protein precursor,SMb20712,-0.928125
hypothetical myo-inositol dehydrogenase protein,SMb20899,-0.792646
hypothetical protein,SMb20900,-0.830477
galactosyltransferase protein,SMb20946,-0.549701
succinyltransferase protein,SMb20954,-0.610241
hypothetical protein,SMb21035,-0.758601
urocanate hydratase,SMb21163,-0.67848
putative formiminoglutamase protein,SMb21164,-0.894348
imidazolonepropionase,SMb21166,-1.05066
phosphate uptake ABC transporter permease protein,SMb21174,-0.589828
phosphate uptake ABC transporter permease protein,SMb21175,-0.751042
putative glutaryl-CoA dehydrogenase protein,SMb21181,-1.18795
putative conserved membrane-anchored protein,SMb21182,-0.949529
putative oligopeptide uptake ABC transporter periplasmic solute-binding protein precursor,SMb21196,-0.75657
putative oligopeptide uptake ABC transporter permease protein,SMb21197,-1.51407
putative oligopeptide uptake ABC transporter permease protein,SMb21198,-1.58813
putative oligopeptide uptake ABC transporter ATP-binding protein consisting of 2 fused ATP-binding domains,SMb21199,-1.42339
putative small heat shock protein hsp20 family,SMb21295,0.752245
hypothetical calcium binding protein,SMb21402,-1.25304
hypothetical protein,SMb21440,0.675644
putative exported sulfurtransferase Rhodanese protein,SMb21549,0.671698
chaperonin GroEL,SMb21566,0.657198
putative ferredoxin reductase electron transfer component protein,SMb21636,0.981772
putative phenylacetic acid degradation protein,SMb21637,1.12666
putative phenylacetic acid degradation protein,SMb21638,0.871698
alpha-galactosidase (melibiase) protein,SMb21648,0.970858
putative ureashort-chain amide or branched-chain amino acid uptake ABC transporter ATP-binding protein,SMb21707,1.15514
pyruvate phosphate dikinase,SMc00025,-0.577525
PUTATIVE SULFATE ADENYLATE TRANSFERASE CYSTEINE BIOSYNTHESIS PROTEIN,SMc00090,1.01214
sulfate adenylyltransferase subunit 2,SMc00091,1.2174
PROBABLE PHOSPHOADENOSINE PHOSPHOSULFATE REDUCTASE PAPS REDUCTASE THIOREDOXIN DEPENDENT PADOPS REDUCTASE 3'-PHOSPHOADENYLYLSULFATE SULFOTRANSFERASE CYSTEINE BIOSYNTHESIS PROTEIN,SMc00092,0.805718
PUTATIVE GLUTATHIONE S-TRANSFERASE PROTEIN,SMc00097,-0.706265
hypothetical protein,SMc00147,-1.02528
hypothetical protein,SMc00171,-0.659789
HYPOTHETICAL SIGNAL PEPTIDE PROTEIN,SMc00409,-0.729252
hypothetical protein,SMc00431,-0.708399
PUTATIVE MYO-INOSITOL CATABOLISM PROTEIN,SMc00432,-0.767998
PUTATIVE MYO-INOSITOL CATABOLISM PROTEIN,SMc00433,-0.750349
HYPOTHETICAL/UNKNOWN SIGNAL PEPTIDE PROTEIN,SMc00591,1.35708
hypothetical protein,SMc00777,-2.50423
PROBABLE DIPEPTIDE TRANSPORT SYSTEM PERMEASE PROTEIN,SMc00787,-1.00806
PROBABLE DIPEPTIDE TRANSPORT SYSTEM PERMEASE PROTEIN,SMc00788,-0.983967
PROBABLE DIPEPTIDE TRANSPORT ATP-BINDING ABC TRANSPORTER PROTEIN,SMc00789,-0.817192
PROBABLE DIPEPTIDE TRANSPORT ATP-BINDING ABC TRANSPORTER PROTEIN,SMc00790,-0.78713
hypothetical protein,SMc00821,-0.78587
PROBABLE CHEMORECEPTOR (METHYL-ACCEPTING CHEMOTAXIS) TRANSMEMBRANE PROTEIN,SMc00975,-0.741583
PUTATIVE MULTIDRUG EFFLUX SYSTEM TRANSMEMBRANE PROTEIN,SMc01094,0.657537
PROBABLE MULTIDRUG-EFFLUX SYSTEM TRANSMEMBRANE PROTEIN,SMc01095,0.584813
PUTATIVE OXIDOREDUCTASE PROTEIN,SMc01163,-0.686733
PUTATIVE SUGAR KINASE PROTEIN,SMc01165,-0.80289
PUTATIVE MALONIC SEMIALDEHYDE OXIDATIVE DECARBOXYLASE PROTEIN,SMc01166,-0.599665
PUTATIVE LIPOPROTEIN,SMc01202,-0.63186
hypothetical protein,SMc01203,-0.572126
PUTATIVE AMINO-ACID-BINDING PERIPLASMIC SIGNAL PEPTIDE PROTEIN,SMc01205,-0.684644
S-adenosylmethionine:tRNA ribosyltransferase-isomerase,SMc01207,-0.695545
50S ribosomal protein L3,SMc01309,-0.527991
30S ribosomal protein S10,SMc01310,-0.530442
translocase,SMc01323,-0.570064
3-dehydroquinate dehydratase,SMc01343,-0.54169
PROBABLE SORBITOL-BINDING PERIPLASMIC PROTEIN,SMc01496,0.589351
PROBABLE SORBITOL/MANNITOL TRANSPORT INNER MEMBRANE TRANSMEMBRANE PROTEIN,SMc01497,0.770497
PROBABLE SORBITOL/MANNITOL TRANSPORT INNER MEMBRANE PROTEIN,SMc01498,0.710606
PUTATIVE HEMIN TRANSPORT SYSTEM PERMEASE TRANSMEMBRANE PROTEIN,SMc01511,-0.661202
hypothetical protein,SMc01514,-0.776204
hypothetical protein,SMc01515,-0.899033
hypothetical protein,SMc01516,-0.825488
hypothetical protein,SMc01517,-0.941
hypothetical protein,SMc01542,-1.54906
hypothetical protein,SMc01543,-0.737828
PUTATIVE OXIDOREDUCTASE PROTEIN,SMc01576,-1.26752
PUTATIVE ERY OPERON REPRESSOR TRANSCRIPTION REGULATOR PROTEIN,SMc01629,0.578066
PUTATIVE FERRICHROME-IRON RECEPTOR PRECURSOR PROTEIN,SMc01657,-1.17205
PUTATIVE TRANSPORT PROTEIN,SMc01658,-1.10451
PUTATIVE TRANSPORT TRANSMEMBRANE PROTEIN,SMc01659,-0.843991
PUTATIVE TRANSPORT TRANSMEMBRANE PROTEIN,SMc01869,1.82186
hypothetical protein,SMc01995,-1.40643
PUTATIVE PROTEIN-EXPORT MEMBRANE PROTEIN,SMc02057,-0.742786
twin argininte translocase protein A,SMc02067,-0.662333
UDP-N-acetylglucosamine acyltransferase,SMc02091,-0.63395
UDP-3-O-[3-hydroxymyristoyl] glucosamine N-acyltransferase,SMc02093,-0.832446
ribosome releasing factor,SMc02098,-0.607914
uridylate kinase,SMc02099,-0.742412
hypothetical protein,SMc02111,-1.26902
hypothetical protein,SMc02156,1.34825
hypothetical protein,SMc02167,0.999194
PUTATIVE ATP-BINDING ABC TRANSPORTER PROTEIN,SMc02169,1.07626
PUTATIVE PERIPLASMIC BINDING ABC TRANSPORTER PROTEIN,SMc02171,0.750866
hypothetical protein,SMc02240,-0.632015
PUTATIVE QUINOL OXIDASE SUBUNIT I TRANSMEMBRANE PROTEIN,SMc02255,0.743654
translation initiation factor IF-1,SMc02310,-0.687816
hypothetical protein,SMc02326,-0.830458
HYPOTHETICAL UNKNOWN PROTEIN,SMc02373,-0.750573
PUTATIVE INTEGRASE PROTEIN,SMc02397,-0.756676
PROBABLE ATP-DEPENDENT PROTEASE (HEAT SHOCK PROTEIN),SMc02433,0.533039
hypothetical protein,SMc02447,-0.811214
hypothetical protein,SMc02503,-1.48764
PUTATIVE PERIPLASMIC BINDING ABC TRANSPORTER PROTEIN,SMc02514,0.603242
PUTATIVE ATP-BINDING ABC TRANSPORTER PROTEIN,SMc02518,0.639462
ATP-dependent protease ATP-binding subunit,SMc02577,0.69898
PROBABLE ALDEHYDE DEHYDROGENASE PROTEIN,SMc02689,0.66669
PUTATIVE IRON TRANSPORT PROTEIN,SMc02726,-1.56395
hypothetical protein,SMc02874,0.966374
PUTATIVE CHEMORECEPTOR (METHYL-ACCEPTING CHEMOTAXIS PROTEIN),SMc03004,-0.745356
hypothetical protein,SMc03005,-0.985154
hypothetical protein,SMc03023,-0.587086
flagellar basal body rod protein,SMc03027,-0.588223
FLAGELLIN A PROTEIN,SMc03037,-0.498649
FLAGELLIN B PROTEIN,SMc03038,-0.639876
ALPHA-GLUCOSIDES-BINDING PERIPLASMIC ABC TRANSPORTER PROTEIN,SMc03061,0.659463
PUTATIVE ALKALINE PHOSPHATASE TRANSMEMBRANE PROTEIN,SMc03243,-0.768051
hypothetical protein,SMc03251,0.579198
hypothetical protein,SMc03780,0.650885
HYPOTHETICAL/UNKNOWN TRANSMEMBRANE PROTEIN,SMc03794,1.08714
PROBABLE NITROGEN REGULATORY PROTEIN PII 2,SMc03806,1.22636
PROBABLE AMMONIUM TRANSPORTER PROTEIN,SMc03807,1.87918
PUTATIVE PERIPLASMIC BINDING ABC TRANSPORTER PROTEIN,SMc03813,0.623549
PUTATIVE TRANSPORT SYSTEM PERMEASE ABC TRANSPORTER PROTEIN,SMc03814,0.741909
PUTATIVE TRANSCRIPTION REGULATOR PROTEIN,SMc03816,0.654256
HYPOTHETICAL HEAT SHOCK-LIKE PROTEIN,SMc03876,1.62033
ACETOACETYL-COA REDUCTASE PROTEIN,SMc03878,-2.94065
acetyl-CoA acetyltransferase,SMc03879,-6.41521
HYPOTHETICAL TRANSCRIPTION REGULATOR PROTEIN,SMc03998,-0.67712
PROBABLE HEAT SHOCK PROTEIN,SMc04040,0.993871
dihydroxy-acid dehydratase,SMc04045,0.537672
hypothetical protein,SMc04164,-0.721028
HYPOTHETICAL TRANSMEMBRANE SIGNAL PEPTIDE PROTEIN,SMc04246,0.789767
30S ribosomal protein S21,SMc04320,0.879514
PUTATIVE ADENYLATE/GUANYLATE CYCLASE TRANSMEMBRANE PROTEIN,SMc04343,-0.705018
hypothetical protein,SMc04383,-1.85877
PUTATIVE OXIDOREDUCTASE PROTEIN,SMc04384,-1.8001
PUTATIVE ALDEHYDE DEHYDROGENASE TRANSMEMBRANE PROTEIN,SMc04385,-1.55915
ASPARTATE AMINOTRANSFERASE B PROTEIN,SMc04386,-1.79604
3-isopropylmalate dehydrogenase,SMc04405,0.74517
hypothetical protein,SMc04406,0.733419
